162353490, -51.61926, 410.0739, 2341.431, 0.5301207, -0.4590175, 0.5254449, -0.4818533,-54.4727, 242.79, 2324.607, 0.5037721, -0.486285, 0.5003161, -0.5093369,-57.09167, 108.3912, 2323.44, 0.507557, -0.4614368, 0.5276213, -0.5010766,-69.16825, -95.39303, 2309.353, 0.5461053, -0.417639, 0.5629261, -0.4587602,-35.50818, -63.98536, 2313.2, 0.7678282, -0.6351655, -0.08358777, 0.004214113,97.34057, -48.8066, 2329.774, 0.7323992, -0.2380746, -0.2196227, 0.5988971,145.832, 206.9223, 2339.29, 0.005166131, -0.3209663, 0.04352307, 0.946076,-27.72114, 202.9516, 2206.429, -0.2995594, -0.4143879, 0.2064634, 0.834218,-71.88168, 137.3904, 2161.834, 0.2979091, -0.4512743, -0.1034213, 0.8348088,-114.1677, 197.5535, 2091.375, 0.2979091, -0.4512743, -0.1034213, 0.8348088,-95.58083, 163.0384, 2102.89, 0.3396628, -0.5568182, 0.5860528, 0.4807546,-98.77612, -59.59766, 2312.137, 0.6309928, 0.7579471, -0.1319504, -0.09976685,-215.9444, -19.19832, 2310.243, 0.1850806, 0.7779059, -0.460053, -0.385952,-289.9304, 208.6686, 2424.406, -0.4175302, -0.1217087, 0.8955296, 0.09424603,-152.3, 274.3475, 2263.937, 0.2370327, 0.5600019, 0.3504794, 0.7123045,-132.1426, 206.3353, 2196.724, 0.1209907, 0.6085243, 0.2571692, 0.7408937,-109.1063, 157.0562, 2112.688, 0.1209907, 0.6085243, 0.2571692, 0.7408937,-138.3358, 193.6182, 2186.321, -0.2056986, 0.4393533, 0.7033222, 0.51961,34.27533, 408.3804, 2343.702, -0.4455404, 0.5075599, -0.4276221, 0.6008461,67.38696, 774.1943, 2257.337, 0.6228541, -0.3325987, 0.5743418, -0.4142011,68.41898, 1098.028, 2415.982, 0.6346054, -0.3154799, 0.5871542, -0.3911501,85.79938, 1260.116, 2348.134, 0.7294723, 0.1910002, 0.6347734, 0.1686768,-129.0742, 411.601, 2339.383, 0.5046247, 0.5168441, 0.5289953, 0.4454101,-112.6602, 787.1438, 2311.69, 0.3882437, 0.62504, 0.395319, 0.5498315,-82.48189, 1122.8, 2450.298, 0.3891829, 0.6181653, 0.3388731, 0.5929362,-70.93231, 1269.214, 2380.862, -0.1424238, 0.6815849, -0.1938721, 0.6910651,-73.3792, -170.1725, 2291.519, 0.5791095, -0.3833201, 0.3214964, -0.6436908,-7.705495, -236.0349, 2171.989, 0.5791095, -0.3833201, 0.3214964, -0.6436908,-5.851522, -262.0773, 2217.831, 0.8646504, -0.04371594, 0.4983805, -0.04566587,-7.7314, -231.0563, 2333.204, 0.6436908, 0.3214964, 0.3833201, 0.5791095,-46.53186, -259.2782, 2190.16, 0.8646504, -0.04371594, 0.4983805, -0.04566587,-145.2199, -230.7528, 2258.694, 0.5791095, -0.3833201, 0.3214964, -0.6436908,
162353561, -52.42849, 409.1391, 2344.141, 0.5294177, -0.4610105, 0.5270708, -0.4789389,-54.9079, 241.1777, 2326.952, 0.5052298, -0.4863671, 0.5037672, -0.5043893,-57.11919, 106.2256, 2324.474, 0.5045015, -0.4581472, 0.5273997, -0.5073744,-71.76666, -98.32862, 2311.545, 0.5435646, -0.4143778, 0.5624415, -0.4652828,-37.59043, -67.19712, 2315.416, 0.7659754, -0.6388323, -0.07119051, -0.01033792,96.31042, -57.03324, 2331.959, 0.7418204, -0.2471712, -0.1799659, 0.5968426,154.5795, 197.8397, 2324.626, 0.04043119, -0.29828, 0.06715921, 0.9512539,-25.16317, 205.9304, 2198.859, -0.3605398, -0.3598979, 0.2545296, 0.8220093,-69.1029, 131.7374, 2169.346, 0.3926799, -0.4270421, -0.1093015, 0.8071497,-102.5327, 206.1146, 2107.622, 0.3926799, -0.4270421, -0.1093015, 0.8071497,-84.27316, 147.8029, 2102.972, -0.299607, 0.6207703, -0.5789154, -0.4355879,-101.0547, -61.99129, 2313.931, 0.6326483, 0.7539546, -0.1462737, -0.09956095,-217.7323, -18.85671, 2309.581, 0.1755691, 0.7802162, -0.4645434, -0.3803124,-292.1188, 209.915, 2424.264, -0.4069355, -0.12209, 0.8997956, 0.0993254,-150.0692, 276.7278, 2266.861, 0.237507, 0.5506114, 0.3456869, 0.7217464,-127.6937, 209.1086, 2199.357, 0.1078948, 0.6024936, 0.2442827, 0.7521211,-102.4899, 163.2028, 2113.55, 0.1078948, 0.6024936, 0.2442827, 0.7521211,-130.8208, 192.0035, 2192.449, -0.1786174, 0.4234743, 0.7276724, 0.5091741,33.84488, 407.6949, 2345.81, -0.4329779, 0.5150377, -0.423811, 0.606342,69.66405, 772.0614, 2248.212, 0.6190168, -0.3325206, 0.5782077, -0.4146375,74.18934, 1097.196, 2407.577, 0.6315501, -0.3144606, 0.5869473, -0.3971799,93.53461, 1259.217, 2338.189, 0.7315496, 0.1915413, 0.6338961, 0.1622427,-130.225, 410.4415, 2342.637, 0.5004166, 0.5224651, 0.5321683, 0.4397845,-112.5214, 787.5146, 2314.981, 0.3884692, 0.6290194, 0.4006193, 0.5412306,-78.43607, 1125.814, 2450.24, 0.3956168, 0.6170812, 0.3389744, 0.5897411,-65.36715, 1271.946, 2378.908, -0.1356009, 0.6809001, -0.1930765, 0.6933317,-76.84292, -173.4747, 2294.084, 0.6022219, -0.3673542, 0.3288542, -0.627881,-7.117659, -230.655, 2171.611, 0.6022219, -0.3673542, 0.3288542, -0.627881,-5.044101, -259.2737, 2216.143, 0.8698142, -0.02722358, 0.4922937, -0.01814381,-9.551353, -234.7417, 2333.509, 0.6278811, 0.3288542, 0.3673542, 0.6022218,-45.5756, -256.2072, 2187.919, 0.8698142, -0.02722358, 0.4922937, -0.01814381,-146.5021, -234.6239, 2256.666, 0.6022219, -0.3673542, 0.3288542, -0.627881,
162353630, -51.90041, 409.8772, 2345.011, 0.5365937, -0.4525346, 0.5322134, -0.4733164,-54.43235, 241.8863, 2323.303, -0.499049, 0.491694, -0.4962617, 0.5127488,-56.92094, 106.4823, 2324.516, 0.5093712, -0.4595244, 0.5118994, -0.5170467,-69.08401, -99.13055, 2315.862, 0.5491944, -0.4169935, 0.5471016, -0.4745333,-35.25072, -67.43696, 2319.989, 0.7583604, -0.6477492, -0.06606755, -0.03075059,99.04916, -62.14979, 2338.999, 0.746487, -0.2204914, -0.1379622, 0.6124598,154.6048, 193.7523, 2322.176, 0.07387559, -0.2521375, 0.06384904, 0.9627525,-35.22606, 217.9895, 2213.175, 0.5044946, 0.4542965, -0.08554158, -0.7292342,-40.71006, 139.0263, 2167.401, 0.1937455, -0.3709677, -0.2758363, 0.8653091,-107.3709, 194.4275, 2112.496, 0.1937455, -0.3709677, -0.2758363, 0.8653091,-83.31408, 152.2315, 2108.701, -0.2214545, 0.6516236, -0.4504363, -0.5687282,-98.90506, -62.96016, 2316.59, 0.6412176, 0.7554053, -0.1129179, -0.07384045,-219.2357, -29.83121, 2312.437, 0.1722974, 0.7810131, -0.5445427, -0.2525974,-293.9209, 220.8614, 2367.76, -0.305006, -0.05727592, 0.9503829, 0.02152083,-113.8545, 248.0696, 2239.012, 0.2322558, 0.5817121, 0.09881368, 0.7732425,-95.87734, 207.9859, 2150.906, 0.152522, 0.5887399, 0.03922226, 0.7928328,-69.63095, 178.937, 2057.962, 0.152522, 0.5887399, 0.03922226, 0.7928328,-106.1485, 178.2866, 2141.739, -0.112013, 0.4703369, 0.6240826, 0.6138055,34.64303, 408.3052, 2347.082, -0.4360368, 0.5185363, -0.4173707, 0.6056349,65.8085, 773.6218, 2246.683, 0.6140146, -0.3484419, 0.5671696, -0.4241379,66.95241, 1106.441, 2392.339, 0.6381389, -0.3120118, 0.5974669, -0.3721029,80.57414, 1272.418, 2329.805, 0.718582, 0.2008188, 0.6397074, 0.1846241,-129.9404, 411.2947, 2343.143, 0.5057205, 0.5166104, 0.524834, 0.4493436,-112.7465, 789.7944, 2317.865, 0.3949069, 0.619194, 0.398654, 0.5492926,-83.8522, 1130.308, 2452.001, 0.3758306, 0.6216338, 0.3166825, 0.6099467,-70.46185, 1281.546, 2390.888, -0.1639885, 0.6684352, -0.2119431, 0.6938172,-72.88506, -174.9516, 2299.947, 0.6120495, -0.3594876, 0.3560875, -0.6077547,-6.257124, -223.4764, 2171.542, 0.6120495, -0.3594876, 0.3560875, -0.6077547,-2.468219, -254.957, 2214.197, 0.8625318, -0.002404221, 0.5059881, 0.003036939,-3.523603, -237.9787, 2333.366, 0.6077546, 0.3560875, 0.3594876, 0.6120496,-44.03565, -250.5813, 2187.406, 0.8625318, -0.002404221, 0.5059881, 0.003036939,-143.2809, -234.6366, 2260.717, 0.6120495, -0.3594876, 0.3560875, -0.6077547,
162353692, -52.18977, 410.0187, 2346.031, 0.5307917, -0.4571533, 0.5351942, -0.4720574,-55.3418, 242.8764, 2325.501, -0.4969654, 0.4929815, -0.5023855, 0.5075464,-58.03339, 108.2534, 2325.654, 0.5154336, -0.4592891, 0.5086495, -0.5144487,-67.67414, -96.25159, 2315.924, 0.5550289, -0.4170196, 0.5438432, -0.4714576,-34.43768, -64.37315, 2320.436, 0.7600296, -0.6457866, -0.06985844, -0.02084216,99.0853, -56.47193, 2338.4, 0.7609416, -0.195256, -0.1502024, 0.6002352,160.2148, 197.1479, 2336.884, 0.1017888, -0.2438656, 0.03486003, 0.9638223,-28.16887, 236.3887, 2232.398, 0.5754608, 0.1382017, 0.06574906, -0.8033817,-49.04176, 150.8298, 2209.855, 0.2285077, -0.04108931, -0.1474256, 0.9614372,-140.0553, 196.8886, 2208.668, 0.2285077, -0.04108931, -0.1474256, 0.9614372,-88.67593, 154.0202, 2165.836, -0.04801188, -0.595414, 0.2867729, 0.7489581,-97.74545, -60.64198, 2316.61, 0.640004, 0.7596956, -0.09620542, -0.0632607,-218.6089, -32.44035, 2313.255, 0.1589176, 0.7833061, -0.5565904, -0.22668,-292.4138, 218.4987, 2360.629, -0.2760614, -0.06579117, 0.958662, 0.02070508,-106.3936, 249.004, 2243.868, 0.3394051, 0.5828583, 0.09271308, 0.7324512,-99.62077, 196.2802, 2161.677, 0.2061986, 0.5900914, -0.01055908, 0.7804887,-77.70688, 165.2556, 2068.88, 0.2061986, 0.5900914, -0.01055908, 0.7804887,-95.90277, 169.9377, 2166.182, 0.02622565, 0.4485914, 0.6325698, 0.6308196,33.87177, 408.299, 2346.819, -0.4352632, 0.5243412, -0.4127781, 0.6043397,60.79076, 770.7361, 2243.101, 0.610109, -0.3590861, 0.5624875, -0.4271204,59.94132, 1104.897, 2380.217, 0.6337367, -0.3213069, 0.6028644, -0.3628967,69.26157, 1270.127, 2317.828, 0.7090296, 0.198048, 0.6501419, 0.1880678,-129.7953, 411.5695, 2345.32, 0.5110989, 0.5109808, 0.521488, 0.4535711,-112.9393, 787.8171, 2319.069, 0.3953632, 0.615709, 0.3923549, 0.5573581,-87.09035, 1125.029, 2456.344, 0.3643176, 0.6269699, 0.3128586, 0.6134338,-75.45544, 1276.984, 2399.311, -0.174656, 0.6694971, -0.2183535, 0.6881791,-70.4562, -171.591, 2299.692, 0.5911106, -0.3755422, 0.3465803, -0.62405,-7.047348, -228.919, 2174.367, 0.5911106, -0.3755422, 0.3465803, -0.62405,-3.617963, -257.8106, 2218.478, 0.8592483, -0.02047914, 0.5106177, -0.02329163,-2.81027, -234.1013, 2335.785, 0.62405, 0.3465803, 0.3755422, 0.5911107,-45.12666, -253.8719, 2192.06, 0.8592483, -0.02047914, 0.5106177, -0.02329163,-142.4676, -231.1399, 2264.917, 0.5911106, -0.3755422, 0.3465803, -0.62405,
162353754, -52.18977, 410.0187, 2346.031, 0.5307917, -0.4571533, 0.5351942, -0.4720574,-55.3418, 242.8764, 2325.501, -0.4969654, 0.4929815, -0.5023855, 0.5075464,-58.03339, 108.2534, 2325.654, 0.5154336, -0.4592891, 0.5086495, -0.5144487,-67.67414, -96.25159, 2315.924, 0.5550289, -0.4170196, 0.5438432, -0.4714576,-34.43768, -64.37315, 2320.436, 0.7600296, -0.6457866, -0.06985844, -0.02084216,99.0853, -56.47193, 2338.4, 0.7609416, -0.195256, -0.1502024, 0.6002352,160.2148, 197.1479, 2336.884, 0.1017888, -0.2438656, 0.03486003, 0.9638223,-28.16887, 236.3887, 2232.398, 0.5754608, 0.1382017, 0.06574906, -0.8033817,-49.04176, 150.8298, 2209.855, 0.2285077, -0.04108931, -0.1474256, 0.9614372,-140.0553, 196.8886, 2208.668, 0.2285077, -0.04108931, -0.1474256, 0.9614372,-88.67593, 154.0202, 2165.836, -0.04801188, -0.595414, 0.2867729, 0.7489581,-97.74545, -60.64198, 2316.61, 0.640004, 0.7596956, -0.09620542, -0.0632607,-218.6089, -32.44035, 2313.255, 0.1589176, 0.7833061, -0.5565904, -0.22668,-292.4138, 218.4987, 2360.629, -0.2760614, -0.06579117, 0.958662, 0.02070508,-106.3936, 249.004, 2243.868, 0.3394051, 0.5828583, 0.09271308, 0.7324512,-99.62077, 196.2802, 2161.677, 0.2061986, 0.5900914, -0.01055908, 0.7804887,-77.70688, 165.2556, 2068.88, 0.2061986, 0.5900914, -0.01055908, 0.7804887,-95.90277, 169.9377, 2166.182, 0.02622565, 0.4485914, 0.6325698, 0.6308196,33.87177, 408.299, 2346.819, -0.4352632, 0.5243412, -0.4127781, 0.6043397,60.79076, 770.7361, 2243.101, 0.610109, -0.3590861, 0.5624875, -0.4271204,59.94132, 1104.897, 2380.217, 0.6337367, -0.3213069, 0.6028644, -0.3628967,69.26157, 1270.127, 2317.828, 0.7090296, 0.198048, 0.6501419, 0.1880678,-129.7953, 411.5695, 2345.32, 0.5110989, 0.5109808, 0.521488, 0.4535711,-112.9393, 787.8171, 2319.069, 0.3953632, 0.615709, 0.3923549, 0.5573581,-87.09035, 1125.029, 2456.344, 0.3643176, 0.6269699, 0.3128586, 0.6134338,-75.45544, 1276.984, 2399.311, -0.174656, 0.6694971, -0.2183535, 0.6881791,-70.4562, -171.591, 2299.692, 0.5911106, -0.3755422, 0.3465803, -0.62405,-7.047348, -228.919, 2174.367, 0.5911106, -0.3755422, 0.3465803, -0.62405,-3.617963, -257.8106, 2218.478, 0.8592483, -0.02047914, 0.5106177, -0.02329163,-2.81027, -234.1013, 2335.785, 0.62405, 0.3465803, 0.3755422, 0.5911107,-45.12666, -253.8719, 2192.06, 0.8592483, -0.02047914, 0.5106177, -0.02329163,-142.4676, -231.1399, 2264.917, 0.5911106, -0.3755422, 0.3465803, -0.62405,
162353816, -51.62325, 409.8508, 2352.653, 0.5382812, -0.4533995, 0.5321202, -0.47067,-53.26802, 242.1242, 2330.416, 0.5022811, -0.4912352, 0.4974044, -0.5089113,-55.00007, 106.8663, 2330.465, 0.5171558, -0.4603958, 0.5017155, -0.5185241,-63.54372, -98.71944, 2322.813, 0.5570723, -0.4186788, 0.5370203, -0.4753817,-30.3696, -66.4765, 2327.38, 0.7561408, -0.6495836, -0.07621789, -0.02197839,103.5021, -57.55789, 2346.879, 0.7536712, -0.1940106, -0.1431162, 0.6114388,158.8864, 198.5478, 2341.237, 0.105654, -0.2385708, 0.03473228, 0.9647356,-31.13434, 239.745, 2238.366, 0.5914681, 0.1300144, 0.1228037, -0.7862449,-48.5957, 154.6303, 2210.243, 0.2162027, 0.00940167, -0.1785949, 0.9598291,-141.4772, 196.8191, 2220.007, 0.2162027, 0.00940167, -0.1785949, 0.9598291,-90.14519, 152.2851, 2173.03, -0.0987647, -0.5753522, 0.2416094, 0.7751389,-93.93782, -63.09612, 2322.767, 0.6448858, 0.7569546, -0.09477837, -0.04646618,-215.8846, -37.72474, 2316.294, 0.1578314, 0.7874039, -0.5664353, -0.1850282,-293.2826, 216.0836, 2346.359, -0.2431233, -0.0557682, 0.9683716, -0.006105103,-98.2458, 239.4819, 2241.318, 0.354226, 0.5665286, 0.05917674, 0.7416654,-89.14183, 187.9706, 2158.054, 0.2199134, 0.5681903, -0.04020102, 0.791948,-63.19392, 157.4857, 2065.62, 0.2199134, 0.5681903, -0.04020102, 0.791948,-80.84063, 162.6397, 2166.346, 0.07727134, 0.4110239, 0.6095096, 0.6734883,34.82573, 408.7445, 2354.603, -0.4386376, 0.5236125, -0.4039977, 0.6084512,60.20908, 772.0462, 2247.241, 0.6131391, -0.3632306, 0.5526879, -0.4320418,54.49329, 1109.981, 2379.281, 0.6341835, -0.3295846, 0.5962868, -0.3655507,62.30194, 1274.9, 2313.636, 0.711224, 0.1875312, 0.6512973, 0.1865593,-129.5781, 410.8484, 2350.894, 0.5172335, 0.5038894, 0.5181404, 0.4583618,-113.3186, 788.7311, 2322.8, 0.3989417, 0.6089528, 0.3892798, 0.5643432,-91.33411, 1127.682, 2460.934, 0.3642267, 0.6228086, 0.3133973, 0.6174386,-80.05406, 1280.346, 2403.586, -0.1775212, 0.6669384, -0.2150236, 0.6909734,-65.7716, -174.5904, 2307.299, 0.6000216, -0.3681158, 0.3584221, -0.6131871,-2.380401, -226.7463, 2178.898, 0.6000216, -0.3681158, 0.3584221, -0.6131871,1.654476, -257.3864, 2222.059, 0.8578681, -0.006854477, 0.5137398, -0.009309381,3.045596, -238.0258, 2340.714, 0.6131871, 0.3584221, 0.3681158, 0.6000217,-40.26389, -252.85, 2195.961, 0.8578681, -0.006854477, 0.5137398, -0.009309381,-137.764, -233.7758, 2270.6, 0.6000216, -0.3681158, 0.3584221, -0.6131871,
162353896, -51.92414, 411.4483, 2357.022, 0.5370454, -0.4558994, 0.5301045, -0.4719396,-53.25264, 242.956, 2335.894, 0.5051053, -0.4895188, 0.4992259, -0.5059777,-54.67553, 107.2085, 2334.685, 0.5202715, -0.4597331, 0.5021939, -0.5155233,-62.16657, -99.10673, 2325.545, 0.5599374, -0.4179798, 0.537444, -0.4721407,-29.04415, -66.60625, 2330.375, 0.7582789, -0.6463366, -0.08237863, -0.02181194,105.05, -56.61738, 2351.211, 0.7395033, -0.2039478, -0.1372937, 0.6266503,151.5868, 201.9027, 2337.389, 0.05782534, -0.2401608, 0.05260295, 0.9675804,-42.24071, 221.0291, 2233.443, 0.6117241, 0.2731788, 0.3313975, -0.6643363,-44.1153, 159.8487, 2165.219, 0.2523492, 0.1424139, -0.405178, 0.8671038,-129.6964, 192.9897, 2211.654, 0.2523492, 0.1424139, -0.405178, 0.8671038,-85.62859, 158.9582, 2131.239, -0.05601153, -0.6055898, 0.01014892, 0.7937384,-92.85768, -63.51455, 2325.733, 0.6421223, 0.7591323, -0.09638353, -0.04590384,-215.1837, -37.81681, 2318.963, 0.1562839, 0.7902189, -0.5634242, -0.1835281,-294.9828, 216.2137, 2349.502, -0.2409879, -0.06062753, 0.9686161, -0.005661482,-99.02815, 241.8613, 2244.977, 0.3537097, 0.5549489, 0.08097304, 0.748575,-87.42027, 187.2635, 2163.59, 0.2183755, 0.5605794, -0.01660326, 0.7986158,-59.50475, 153.8832, 2072.337, 0.2183755, 0.5605794, -0.01660326, 0.7986158,-97.3067, 180.6853, 2147.477, -0.0562922, 0.4944471, 0.5287971, 0.6875513,34.84157, 410.5216, 2358.957, -0.4329841, 0.53105, -0.3989931, 0.6093564,58.09452, 773.0847, 2243.997, 0.6120139, -0.3668786, 0.5537391, -0.4291994,51.42213, 1112.375, 2376.145, 0.6339491, -0.332612, 0.5934419, -0.3678375,59.03498, 1277.326, 2308.828, 0.7126702, 0.1833684, 0.6514046, 0.1847953,-130.1646, 412.2839, 2355.278, 0.5220857, 0.5000982, 0.518846, 0.4562096,-112.9046, 791.1505, 2322.746, 0.3983842, 0.6093815, 0.3846304, 0.5674537,-90.78309, 1130.051, 2464.477, 0.3654114, 0.6225674, 0.313386, 0.6169875,-79.18057, 1283.14, 2406.632, -0.1763615, 0.6667622, -0.2148685, 0.6914884,-63.9958, -175.1521, 2309.435, 0.5981143, -0.360935, 0.3502446, -0.6239502,2.073564, -229.7759, 2182.764, 0.5981143, -0.360935, 0.3502446, -0.6239502,4.587913, -260.1162, 2226.486, 0.8641301, -0.007559246, 0.5028799, -0.0182687,3.276706, -239.4327, 2345.362, 0.6239502, 0.3502446, 0.360935, 0.5981143,-36.74161, -255.2451, 2199.194, 0.8641301, -0.007559246, 0.5028799, -0.0182687,-136.157, -233.908, 2271.407, 0.5981143, -0.360935, 0.3502446, -0.6239502,
162353960, -51.57344, 409.9514, 2361.843, 0.5487414, -0.4417168, 0.5267791, -0.4756816,-52.99679, 241.7641, 2337.489, 0.5097796, -0.481637, 0.4905464, -0.5172184,-55.21186, 105.9177, 2337.234, 0.5231518, -0.4579881, 0.4984434, -0.5177967,-62.13742, -100.5878, 2328.358, 0.5629907, -0.4165412, 0.5335656, -0.4741757,-29.11772, -67.97784, 2333.491, 0.757266, -0.64583, -0.08807164, -0.04117171,104.4831, -60.97809, 2358.897, 0.6974419, -0.3012629, -0.2363745, 0.6057577,145.1194, 198.9415, 2349.613, 0.007305768, -0.3765709, 0.06947394, 0.9237502,-13.13619, 190.3633, 2195.677, -0.425763, -0.2848966, -0.5430307, 0.6653401,-49.75151, 162.4213, 2116.351, 0.337164, 0.3084635, -0.5299988, 0.7143333,-109.6928, 178.3474, 2198.5, 0.337164, 0.3084635, -0.5299988, 0.7143333,-74.84657, 165.5798, 2088.53, -0.005293339, -0.5588236, -0.1745804, 0.8106847,-92.93391, -65.039, 2328.157, 0.6419236, 0.7586233, -0.1025261, -0.04373947,-215.0964, -38.51664, 2319.981, 0.1601102, 0.7833987, -0.5667217, -0.1986903,-289.849, 216.7124, 2354.805, -0.255171, -0.04683002, 0.9657608, -0.0009095239,-96.22916, 236.8463, 2244.513, 0.397693, 0.5278123, -0.01214114, 0.7504046,-83.65842, 186.1763, 2160.673, 0.2610235, 0.517644, -0.1038162, 0.8081667,-50.49101, 154.3648, 2070.538, 0.2610235, 0.517644, -0.1038162, 0.8081667,-94.78262, 178.2946, 2143.861, 0.02273001, 0.5042863, 0.4787034, 0.7183464,35.14339, 408.5284, 2366.601, -0.4795113, 0.5015736, -0.4508097, 0.5614832,49.24799, 786.3383, 2316.677, 0.5917692, -0.3895802, 0.5504896, -0.4415854,47.81674, 1133.139, 2428.733, 0.6222127, -0.3490966, 0.5747232, -0.4008442,59.88111, 1291.995, 2348.32, 0.7275984, 0.158303, 0.649658, 0.1532496,-129.7698, 411.2344, 2357.552, 0.5175345, 0.5042708, 0.5281671, 0.4459915,-112.9084, 790.0118, 2320.643, 0.390938, 0.6194665, 0.3866475, 0.5602967,-85.97058, 1127.777, 2464.962, 0.365356, 0.6268202, 0.3093862, 0.614729,-73.24098, 1281.256, 2408.037, -0.1748446, 0.6669553, -0.2207123, 0.6898449,-63.62132, -176.7225, 2312.347, 0.6082696, -0.3503548, 0.3531572, -0.6184978,4.646897, -227.2506, 2185.001, 0.6082696, -0.3503548, 0.3531572, -0.6184978,6.903714, -258.7808, 2227.938, 0.8674556, 0.001981619, 0.4974581, -0.007232551,3.869351, -241.3742, 2347.4, 0.6184979, 0.3531572, 0.3503548, 0.6082695,-34.15165, -253.55, 2200.232, 0.8674556, 0.001981619, 0.4974581, -0.007232551,-134.7633, -235.1384, 2271.756, 0.6082696, -0.3503548, 0.3531572, -0.6184978,
162354021, -51.31762, 410.2748, 2367.075, 0.5458276, -0.4457306, 0.5289226, -0.4729031,-52.58701, 241.6746, 2343.023, 0.5100043, -0.4830028, 0.4951194, -0.5113323,-54.38562, 105.5387, 2341.521, 0.5252106, -0.4540984, 0.5030426, -0.514681,-61.90063, -101.2475, 2329.777, 0.5647931, -0.4122952, 0.5378382, -0.470905,-28.71367, -68.73091, 2335.319, 0.7615321, -0.6405543, -0.0909583, -0.0385428,105.0898, -60.83981, 2360.963, 0.6991193, -0.3005451, -0.2382568, 0.6034389,146.8213, 199.527, 2353.159, 0.002153756, -0.3769066, 0.07095817, 0.9235268,-11.68324, 188.5645, 2198.95, -0.4195926, -0.2942789, -0.5398401, 0.6677684,-48.4208, 161.7493, 2119.067, 0.3417497, 0.3002057, -0.5365667, 0.71076,-108.8853, 178.6295, 2200.917, 0.3417497, 0.3002057, -0.5365667, 0.71076,-74.3213, 165.2938, 2091.376, 0.00632293, -0.5596119, -0.166211, 0.811892,-92.66679, -65.54029, 2330.118, 0.636981, 0.7628513, -0.1022534, -0.0430962,-215.1193, -39.06163, 2322.019, 0.1589942, 0.7882146, -0.5648448, -0.1854423,-293.9097, 216.1352, 2352.318, -0.2440994, -0.04803468, 0.9685167, -0.009137837,-97.44707, 235.9972, 2246.105, 0.4000777, 0.5133415, -0.00765871, 0.7591835,-82.16841, 183.5804, 2163.549, 0.2619109, 0.5041822, -0.09684226, 0.8172053,-46.23458, 150.0788, 2074.855, 0.2619109, 0.5041822, -0.09684226, 0.8172053,-92.00941, 178.5405, 2145.276, 0.02063379, 0.4886218, 0.4755717, 0.7312007,35.63843, 409.0846, 2370.829, -0.4794491, 0.5025083, -0.4626625, 0.5509604,49.10152, 788.6963, 2328.76, 0.5924312, -0.3838698, 0.5649955, -0.4271408,50.32081, 1131.975, 2453.493, 0.6190116, -0.3453918, 0.5919974, -0.3834946,59.30354, 1294.017, 2378.356, 0.7131539, 0.1731621, 0.6593835, 0.1632173,-129.7297, 411.3481, 2363.689, 0.5180826, 0.5038373, 0.5364953, 0.4357879,-112.7324, 790.1171, 2319.113, 0.3874632, 0.6257331, 0.3874542, 0.5551662,-81.97345, 1127.863, 2464.724, 0.3591255, 0.6360811, 0.3101345, 0.6084787,-70.28805, 1282.203, 2408.897, -0.174902, 0.6740054, -0.226703, 0.6809785,-63.61956, -177.3121, 2312.681, 0.6021994, -0.355491, 0.3433198, -0.6269876,5.330764, -232.0812, 2187.073, 0.6021994, -0.355491, 0.3433198, -0.6269876,7.049345, -262.4469, 2231.005, 0.8691666, -0.008606318, 0.4941338, -0.0175279,3.279682, -241.554, 2350.149, 0.6269876, 0.3433198, 0.355491, 0.6021994,-33.8539, -257.7071, 2202.798, 0.8691666, -0.008606318, 0.4941338, -0.0175279,-135.053, -236.4806, 2273.172, 0.6021994, -0.355491, 0.3433198, -0.6269876,
162354087, -51.36892, 410.2628, 2371.376, 0.5451133, -0.4462604, 0.5258431, -0.4766467,-52.76035, 241.0497, 2348.625, 0.5122285, -0.4802229, 0.4950205, -0.5118228,-54.67379, 104.58, 2346.509, 0.528505, -0.4512329, 0.5045169, -0.5123805,-61.84547, -102.6135, 2332.677, 0.5678924, -0.4093208, 0.5390778, -0.4683478,-28.64163, -70.01884, 2338.642, 0.7644253, -0.6365477, -0.0955351, -0.03652295,105.3073, -61.01842, 2364.986, 0.6974878, -0.3078907, -0.2382764, 0.6016131,148.3028, 199.7397, 2354.917, -0.0005479832, -0.3814819, 0.07774266, 0.9211012,-9.063065, 186.3493, 2198.94, -0.429311, -0.296701, -0.5080968, 0.6851994,-44.15981, 155.1171, 2119.659, 0.3427204, 0.2658806, -0.5248821, 0.7323585,-108.6582, 178.1653, 2197.137, 0.3427204, 0.2658806, -0.5248821, 0.7323585,-74.13548, 166.0666, 2092.957, 0.04093988, -0.5546651, -0.1476639, 0.8178422,-92.74722, -66.8699, 2333.291, 0.6324393, 0.7656808, -0.1071783, -0.04760567,-215.146, -38.63377, 2325.404, 0.1526826, 0.7889535, -0.5622762, -0.1951559,-293.703, 216.508, 2362.116, -0.2477858, -0.04372508, 0.9678276, 0.0001100143,-97.38226, 235.5451, 2254.306, 0.4088387, 0.513651, -0.05178193, 0.7525504,-82.95393, 186.953, 2169.004, 0.2707279, 0.4966444, -0.1409362, 0.8125193,-46.35054, 156.4636, 2079.211, 0.2707279, 0.4966444, -0.1409362, 0.8125193,-88.29964, 178.5399, 2155.321, 0.06890468, 0.4709476, 0.4570715, 0.7513629,35.78284, 408.9749, 2375.625, -0.4813497, 0.5003725, -0.4674304, 0.5472099,49.522, 790.0341, 2338.222, 0.5947609, -0.3789032, 0.5703509, -0.421179,51.49329, 1131.741, 2469.773, 0.6204432, -0.3410085, 0.5959255, -0.3789935,60.48348, 1295.275, 2396.827, 0.7109953, 0.1790637, 0.6590932, 0.167386,-129.9575, 411.4241, 2367.546, 0.519127, 0.5028108, 0.5386491, 0.4330654,-112.8792, 790.8223, 2320.182, 0.3866821, 0.6270505, 0.3869778, 0.5545565,-81.26884, 1129.082, 2466.779, 0.3592624, 0.6368422, 0.3098381, 0.6077524,-69.40296, 1283.809, 2410.836, -0.1742977, 0.6743345, -0.227453, 0.6805574,-63.40194, -178.7003, 2314.785, 0.6107597, -0.3670978, 0.3387164, -0.6143963,6.200433, -231.6644, 2188.292, 0.6107597, -0.3670978, 0.3387164, -0.6143963,9.581472, -261.7905, 2232.457, 0.8663161, -0.02006868, 0.4990861, -0.002571466,6.458793, -240.3735, 2351.837, 0.6143963, 0.3387164, 0.3670978, 0.6107597,-31.9093, -258.7119, 2204.657, 0.8663161, -0.02006868, 0.4990861, -0.002571466,-133.2312, -240.8413, 2276.335, 0.6107597, -0.3670978, 0.3387164, -0.6143963,
162354146, -51.29869, 411.5458, 2376.313, 0.5489008, -0.4426021, 0.5256131, -0.4759643,-52.40327, 242.4838, 2352.217, 0.5172953, -0.4753519, 0.4961919, -0.510137,-54.16373, 106.0244, 2348.35, 0.526139, -0.4522392, 0.5059347, -0.5125304,-61.99194, -101.2133, 2334.946, 0.565546, -0.4102102, 0.5405718, -0.468687,-28.66105, -68.69597, 2340.69, 0.7640982, -0.6375774, -0.09050603, -0.03817824,105.5357, -60.8873, 2366.277, 0.7032447, -0.2998008, -0.2432347, 0.5969951,150.2047, 199.8014, 2362.084, -0.003981027, -0.3791403, 0.07277554, 0.9224644,-7.975176, 185.919, 2206.916, -0.4438055, -0.3121428, -0.4896075, 0.6825598,-38.96077, 153.3923, 2126.431, 0.3205992, 0.2334183, -0.531662, 0.7483765,-109.8598, 177.3532, 2197.827, 0.3205992, 0.2334183, -0.531662, 0.7483765,-73.38119, 164.5828, 2100.166, 0.0551762, -0.5533394, -0.1197711, 0.8224511,-92.79457, -65.37371, 2335.638, 0.6335781, 0.7656051, -0.09984012, -0.04959466,-215.5505, -38.21778, 2329.271, 0.1519518, 0.7867826, -0.5626778, -0.2031687,-292.1585, 217.0645, 2369.35, -0.2536376, -0.04312059, 0.9663197, 0.005901242,-97.09601, 236.4737, 2259.257, 0.4068358, 0.510213, -0.00433936, 0.7577258,-82.16451, 182.6013, 2177.254, 0.2691094, 0.5017118, -0.09285137, 0.81685,-46.40512, 147.3763, 2088.842, 0.2691094, 0.5017118, -0.09285137, 0.81685,-92.175, 177.7791, 2158.724, 0.02526569, 0.490749, 0.4772445, 0.728536,35.83825, 410.284, 2381.171, -0.4813852, 0.5002535, -0.4614633, 0.5523281,49.64511, 790.9888, 2339.66, 0.6026557, -0.3711726, 0.5704712, -0.4166528,48.93977, 1130.002, 2478.203, 0.6284837, -0.3321534, 0.5976638, -0.3707835,57.78742, 1295.556, 2409.857, 0.7108843, 0.1866357, 0.6540863, 0.1788347,-129.8739, 412.6836, 2371.931, 0.5194433, 0.5021828, 0.5331337, 0.4401814,-113.024, 792.7096, 2329.148, 0.3890849, 0.6222667, 0.3862473, 0.5587577,-84.45147, 1131.523, 2475.267, 0.3619259, 0.631764, 0.3114827, 0.6106246,-72.63064, 1285.918, 2418.313, -0.1744014, 0.6719104, -0.2227083, 0.6844864,-63.85064, -177.3435, 2317.202, 0.6124797, -0.3596594, 0.3435493, -0.6144003,5.985588, -228.7047, 2190.143, 0.6124797, -0.3596594, 0.3435493, -0.6144003,8.976147, -259.5726, 2233.833, 0.8675351, -0.01139156, 0.4972436, -0.001357979,5.458731, -240.0772, 2353.554, 0.6144002, 0.3435493, 0.3596594, 0.6124797,-32.3775, -255.7711, 2205.902, 0.8675351, -0.01139156, 0.4972436, -0.001357979,-133.9201, -238.4062, 2277.433, 0.6124797, -0.3596594, 0.3435493, -0.6144003,
162354213, -51.68281, 413.0497, 2380.639, 0.543865, -0.4487669, 0.5244395, -0.4772655,-52.77123, 243.141, 2358.804, 0.5184234, -0.4753196, 0.5004995, -0.5047858,-54.22555, 106.2996, 2353.459, 0.5249145, -0.4561274, 0.5096221, -0.5066536,-61.12906, -101.5657, 2339.178, 0.5638541, -0.4137901, 0.5445592, -0.4629273,-27.79376, -68.78726, 2344.607, 0.7658897, -0.6354454, -0.09524719, -0.02345154,106.831, -57.10231, 2368.725, 0.705179, -0.2965463, -0.2369847, 0.5988499,152.0558, 204.3067, 2363.169, -0.01174271, -0.3716408, 0.07736036, 0.9250733,-9.073511, 186.6622, 2210.44, -0.4483679, -0.2841834, -0.49406, 0.688557,-42.38932, 150.8461, 2131.976, 0.3428253, 0.2660266, -0.5040689, 0.7467364,-107.0712, 176.1428, 2209.058, 0.3428253, 0.2660266, -0.5040689, 0.7467364,-75.2804, 167.4421, 2105.975, 0.053781, -0.5464544, -0.1525152, 0.8217264,-92.21208, -65.78966, 2340.482, 0.6327975, 0.7655464, -0.1045718, -0.05070346,-215.0805, -37.46781, 2333.573, 0.1509908, 0.7879168, -0.558318, -0.2113525,-292.737, 217.6648, 2378.037, -0.2596091, -0.03509451, 0.965039, 0.00843964,-98.16231, 233.9294, 2265.165, 0.4368729, 0.4833404, -0.05384285, 0.75672,-81.85564, 180.2217, 2182.939, 0.298736, 0.4666314, -0.137011, 0.8211211,-42.48677, 143.2285, 2096.437, 0.298736, 0.4666314, -0.137011, 0.8211211,-88.13049, 174.44, 2166.529, 0.09104376, 0.4691395, 0.4520264, 0.7531875,35.76805, 411.9591, 2384.766, -0.4783716, 0.5032501, -0.4615052, 0.5521892,49.52991, 793.6058, 2340.853, 0.6040937, -0.367985, 0.5751866, -0.4108748,49.27848, 1131.496, 2485.064, 0.6230106, -0.3379155, 0.6015272, -0.3685593,56.4619, 1297.224, 2415.478, 0.7054726, 0.1852578, 0.6609187, 0.1765627,-130.5411, 414.0332, 2376.917, 0.523259, 0.5002746, 0.5345142, 0.4361422,-112.0519, 794.6663, 2329.687, 0.3840638, 0.6274448, 0.3771942, 0.5626122,-81.46741, 1130.825, 2484.229, 0.3589454, 0.6370695, 0.311655, 0.6067715,-70.02026, 1285.962, 2427.715, -0.1738254, 0.6757701, -0.2263258, 0.6796293,-62.83057, -177.8631, 2321.06, 0.6153138, -0.3498274, 0.3453906, -0.6162102,8.543953, -227.9435, 2193.76, 0.6153138, -0.3498274, 0.3453906, -0.6162102,10.76034, -259.5845, 2237.148, 0.870819, -0.003137253, 0.4915933, -0.0006338311,5.787235, -241.8145, 2357.47, 0.6162102, 0.3453906, 0.3498273, 0.6153138,-30.32505, -255.063, 2208.652, 0.870819, -0.003137253, 0.4915933, -0.0006338311,-132.9998, -238.0222, 2279.332, 0.6153138, -0.3498274, 0.3453906, -0.6162102,
162354288, -51.6884, 412.8905, 2381.275, 0.5435265, -0.4492544, 0.5242364, -0.4774156,-52.75102, 243.0665, 2359.656, 0.5178459, -0.4760253, 0.5000532, -0.5051558,-54.18442, 106.3031, 2354.603, 0.5246835, -0.4564204, 0.5093456, -0.506907,-61.07303, -101.442, 2340.551, 0.5636442, -0.4141044, 0.544307, -0.4631984,-27.76106, -68.67753, 2345.941, 0.7655506, -0.6357876, -0.09549218, -0.02424327,106.7528, -57.11263, 2370.226, 0.7068371, -0.2946862, -0.2371762, 0.5977364,152.6066, 204.0314, 2365.718, -0.01026451, -0.3705665, 0.07598018, 0.9256361,-8.78714, 187.2691, 2213.381, -0.4462977, -0.2822683, -0.4936251, 0.6909973,-42.6475, 151.3125, 2135.286, 0.3440196, 0.2653525, -0.5029206, 0.7472011,-107.1914, 176.9444, 2212.282, 0.3440196, 0.2653525, -0.5029206, 0.7472011,-76.00604, 167.8485, 2109.592, 0.05580923, -0.5428592, -0.1480055, 0.8247931,-92.13759, -65.68951, 2341.816, 0.6331424, 0.7653351, -0.1036903, -0.0513924,-214.9545, -37.44747, 2335.174, 0.1506926, 0.7883136, -0.5572293, -0.2129529,-292.8497, 217.2711, 2380.514, -0.2607007, -0.03604523, 0.9646987, 0.009606729,-98.68838, 234.0745, 2267.304, 0.4363646, 0.4839625, -0.05339683, 0.7566472,-82.43845, 180.4515, 2185.09, 0.298267, 0.4673248, -0.1366691, 0.8209543,-43.17015, 143.5579, 2098.577, 0.298267, 0.4673248, -0.1366691, 0.8209543,-89.24397, 174.8092, 2168.273, 0.0882014, 0.4722373, 0.4516757, 0.7517988,35.70759, 411.8235, 2385.36, -0.4768759, 0.5049828, -0.460381, 0.5528391,49.21593, 793.0033, 2339.545, 0.6011809, -0.3722181, 0.573077, -0.414268,49.24181, 1132.504, 2479.297, 0.6157489, -0.34907, 0.5970896, -0.377475,56.03716, 1295.753, 2404.323, 0.7066318, 0.1741525, 0.6656253, 0.1651824,-130.4972, 413.8526, 2377.591, 0.5227143, 0.5004071, 0.5348422, 0.4362409,-112.3555, 794.2753, 2330.565, 0.3832631, 0.6278297, 0.3771951, 0.5627283,-81.88836, 1130.022, 2485.445, 0.3586663, 0.6371714, 0.3119563, 0.6066747,-70.57609, 1285.064, 2428.962, -0.1739546, 0.676053, -0.226183, 0.6793624,-62.76976, -177.7089, 2322.524, 0.6154211, -0.3503953, 0.3436651, -0.6167449,8.849994, -228.0764, 2195.597, 0.6154211, -0.3503953, 0.3436651, -0.6167449,11.01756, -259.559, 2239.06, 0.8712729, -0.004758982, 0.4907748, -0.0009361748,5.803421, -241.4309, 2359.239, 0.616745, 0.343665, 0.3503953, 0.615421,-29.99245, -255.1735, 2210.492, 0.8712729, -0.004758982, 0.4907748, -0.0009361748,-132.7506, -238.034, 2280.88, 0.6154211, -0.3503953, 0.3436651, -0.6167449,
162354367, -50.97591, 411.7523, 2387.056, 0.5368363, -0.4567357, 0.5314308, -0.4698729,-52.11965, 241.9011, 2365.357, 0.5127024, -0.482704, 0.5079597, -0.4960947,-53.25135, 105.1314, 2359.623, 0.5269157, -0.4583788, 0.5074394, -0.5047316,-58.41632, -102.7057, 2345.511, 0.5656947, -0.4162093, 0.542564, -0.4608509,-25.37115, -69.66065, 2350.921, 0.7661637, -0.6358303, -0.08879039, -0.02879624,109.445, -60.22274, 2374.614, 0.7178888, -0.2727631, -0.2130779, 0.6040148,157.0623, 200.6291, 2368.361, -0.001953664, -0.3385019, 0.07223797, 0.9381868,-14.53495, 188.9259, 2227.029, -0.4671856, -0.282145, -0.4926637, 0.6778011,-44.66918, 151.6578, 2148.003, 0.3249695, 0.266786, -0.5011472, 0.7563541,-111.7126, 174.9085, 2223.638, 0.3249695, 0.266786, -0.5011472, 0.7563541,-80.9478, 167.3342, 2122.631, 0.04988325, -0.5394364, -0.1480789, 0.8274011,-89.78319, -67.20415, 2346.777, 0.6335053, 0.7668944, -0.09112064, -0.04733911,-213.3464, -41.99208, 2341.369, 0.1557065, 0.7924392, -0.5561193, -0.1962827,-295.6142, 212.7241, 2378.637, -0.2505308, -0.04757927, 0.9669358, -0.0023903,-99.50075, 233.1966, 2269.365, 0.4245688, 0.4733151, -0.01440624, 0.7716907,-79.66955, 176.062, 2190.338, 0.2910709, 0.4644118, -0.09250116, 0.8312899,-38.97455, 135.4881, 2106.137, 0.2910709, 0.4644118, -0.09250116, 0.8312899,-93.51816, 170.9591, 2168.008, 0.04792209, 0.493888, 0.4778697, 0.7248577,36.52369, 410.9625, 2388.627, -0.4385025, 0.5386239, -0.4240333, 0.581202,50.04908, 782.338, 2290.944, 0.6081356, -0.3651299, 0.5801845, -0.4002962,47.73647, 1116.712, 2442.732, 0.6313791, -0.3261559, 0.611297, -0.3482798,52.66121, 1285.82, 2381.823, 0.6971084, 0.2006, 0.6596094, 0.196761,-129.8782, 412.4646, 2385.64, 0.514762, 0.505529, 0.537017, 0.4371192,-114.1107, 793.6021, 2343.065, 0.3816836, 0.6290489, 0.3850042, 0.5571237,-83.39617, 1131.163, 2494.103, 0.3572134, 0.6392432, 0.3196379, 0.6013305,-73.97836, 1285.772, 2436.001, -0.1711995, 0.6829053, -0.2222047, 0.6745043,-59.47623, -178.996, 2327.46, 0.6104522, -0.3398376, 0.3740267, -0.6098873,6.687596, -224.4959, 2195.781, 0.6104522, -0.3398376, 0.3740267, -0.6098873,9.387566, -258.2515, 2237.487, 0.8629104, 0.02417535, 0.5047783, 0.0003994494,8.498587, -246.2773, 2358.57, 0.6098873, 0.3740267, 0.3398376, 0.6104522,-32.38773, -251.3438, 2210.554, 0.8629104, 0.02417535, 0.5047783, 0.0003994494,-132.371, -235.2885, 2285.119, 0.6104522, -0.3398376, 0.3740267, -0.6098873,
162354432, -47.54728, 405.6872, 2391.485, 0.5514821, -0.4369585, 0.5237654, -0.480213,-49.39531, 238.3917, 2367.234, 0.5226991, -0.4666036, 0.497538, -0.511393,-51.8465, 103.3875, 2361.443, 0.5268334, -0.4567673, 0.5095457, -0.5041561,-57.58726, -101.7232, 2346.628, 0.5655665, -0.414434, 0.5445343, -0.4602839,-24.85746, -69.22195, 2352.071, 0.7675267, -0.6342788, -0.0878004, -0.02973616,108.2737, -60.31777, 2375.438, 0.707453, -0.2830079, -0.2325419, 0.6044345,150.4763, 198.0935, 2372.009, 0.0004487523, -0.3606672, 0.06394044, 0.9305001,-12.12458, 188.1403, 2224.48, -0.4739699, -0.2808375, -0.5037799, 0.6653485,-40.72133, 152.2672, 2145.606, 0.2939232, 0.2655606, -0.5119975, 0.7621977,-110.979, 170.3004, 2217.873, 0.2939232, 0.2655606, -0.5119975, 0.7621977,-71.95831, 146.6734, 2119.112, -0.04589752, -0.553627, -0.1080331, 0.824451,-88.44614, -66.58572, 2348.067, 0.6321899, 0.7678168, -0.09378615, -0.04469291,-210.3731, -41.59627, 2341.843, 0.148745, 0.7942411, -0.5539044, -0.2006138,-291.9875, 209.0856, 2382.902, -0.2496365, -0.05619836, 0.9666803, 0.007252275,-98.5714, 234.0731, 2275.667, 0.3539327, 0.5624587, 0.08134299, 0.7428023,-88.75082, 179.9552, 2194.261, 0.2340812, 0.5682654, -0.007137958, 0.7888153,-64.13747, 143.6048, 2103.697, 0.2340812, 0.5682654, -0.007137958, 0.7888153,-94.37717, 165.5332, 2184.675, -0.01933433, 0.4836861, 0.56317, 0.6697115,38.62708, 403.8651, 2397.487, -0.4833418, 0.5006521, -0.4258875, 0.5782284,50.5601, 777.6798, 2334.028, 0.5950621, -0.3989131, 0.5224073, -0.46245,40.96682, 1128.317, 2425.67, 0.6430769, -0.3380567, 0.5629891, -0.393971,52.96808, 1288.668, 2350.459, 0.7374644, 0.1579758, 0.6334972, 0.1728332,-125.2545, 407.3302, 2386.072, 0.5057371, 0.5093132, 0.5430771, 0.4357722,-113.7574, 783.9856, 2346.124, 0.3774286, 0.6313841, 0.394552, 0.5506637,-83.64426, 1118.798, 2491.762, 0.3500423, 0.6387021, 0.3011877, 0.6154803,-72.17257, 1273.559, 2440.836, -0.1863292, 0.6695568, -0.234834, 0.6795794,-58.8844, -176.9602, 2328.482, 0.610843, -0.3322558, 0.3624972, -0.6205423,9.93029, -224.1861, 2201.127, 0.610843, -0.3322558, 0.3624972, -0.6205423,10.97483, -257.0126, 2242.773, 0.8707209, 0.02138393, 0.4912646, -0.006858425,6.541908, -243.6691, 2362.075, 0.6205423, 0.3624972, 0.3322558, 0.610843,-29.35574, -250.1113, 2214.839, 0.8707209, 0.02138393, 0.4912646, -0.006858425,-130.1123, -232.3257, 2285.166, 0.610843, -0.3322558, 0.3624972, -0.6205423,
162354499, -47.54728, 405.6872, 2391.485, 0.5514821, -0.4369585, 0.5237654, -0.480213,-49.39531, 238.3917, 2367.234, 0.5226991, -0.4666036, 0.497538, -0.511393,-51.8465, 103.3875, 2361.443, 0.5268334, -0.4567673, 0.5095457, -0.5041561,-57.58726, -101.7232, 2346.628, 0.5655665, -0.414434, 0.5445343, -0.4602839,-24.85746, -69.22195, 2352.071, 0.7675267, -0.6342788, -0.0878004, -0.02973616,108.2737, -60.31777, 2375.438, 0.707453, -0.2830079, -0.2325419, 0.6044345,150.4763, 198.0935, 2372.009, 0.0004487523, -0.3606672, 0.06394044, 0.9305001,-12.12458, 188.1403, 2224.48, -0.4739699, -0.2808375, -0.5037799, 0.6653485,-40.72133, 152.2672, 2145.606, 0.2939232, 0.2655606, -0.5119975, 0.7621977,-110.979, 170.3004, 2217.873, 0.2939232, 0.2655606, -0.5119975, 0.7621977,-71.95831, 146.6734, 2119.112, -0.04589752, -0.553627, -0.1080331, 0.824451,-88.44614, -66.58572, 2348.067, 0.6321899, 0.7678168, -0.09378615, -0.04469291,-210.3731, -41.59627, 2341.843, 0.148745, 0.7942411, -0.5539044, -0.2006138,-291.9875, 209.0856, 2382.902, -0.2496365, -0.05619836, 0.9666803, 0.007252275,-98.5714, 234.0731, 2275.667, 0.3539327, 0.5624587, 0.08134299, 0.7428023,-88.75082, 179.9552, 2194.261, 0.2340812, 0.5682654, -0.007137958, 0.7888153,-64.13747, 143.6048, 2103.697, 0.2340812, 0.5682654, -0.007137958, 0.7888153,-94.37717, 165.5332, 2184.675, -0.01933433, 0.4836861, 0.56317, 0.6697115,38.62708, 403.8651, 2397.487, -0.4833418, 0.5006521, -0.4258875, 0.5782284,50.5601, 777.6798, 2334.028, 0.5950621, -0.3989131, 0.5224073, -0.46245,40.96682, 1128.317, 2425.67, 0.6430769, -0.3380567, 0.5629891, -0.393971,52.96808, 1288.668, 2350.459, 0.7374644, 0.1579758, 0.6334972, 0.1728332,-125.2545, 407.3302, 2386.072, 0.5057371, 0.5093132, 0.5430771, 0.4357722,-113.7574, 783.9856, 2346.124, 0.3774286, 0.6313841, 0.394552, 0.5506637,-83.64426, 1118.798, 2491.762, 0.3500423, 0.6387021, 0.3011877, 0.6154803,-72.17257, 1273.559, 2440.836, -0.1863292, 0.6695568, -0.234834, 0.6795794,-58.8844, -176.9602, 2328.482, 0.610843, -0.3322558, 0.3624972, -0.6205423,9.93029, -224.1861, 2201.127, 0.610843, -0.3322558, 0.3624972, -0.6205423,10.97483, -257.0126, 2242.773, 0.8707209, 0.02138393, 0.4912646, -0.006858425,6.541908, -243.6691, 2362.075, 0.6205423, 0.3624972, 0.3322558, 0.610843,-29.35574, -250.1113, 2214.839, 0.8707209, 0.02138393, 0.4912646, -0.006858425,-130.1123, -232.3257, 2285.166, 0.610843, -0.3322558, 0.3624972, -0.6205423,
162354562, -47.2782, 404.0959, 2392.072, 0.5411038, -0.4509269, 0.5285053, -0.4738711,-48.6791, 236.2947, 2370.078, 0.5152179, -0.4783141, 0.5038537, -0.5018939,-50.23964, 101.1059, 2364.799, 0.5214241, -0.4581755, 0.510528, -0.5074972,-57.78789, -104.2998, 2351.815, 0.5604426, -0.415759, 0.5456263, -0.464048,-24.72246, -71.99393, 2356.816, 0.7646857, -0.6381416, -0.08644782, -0.02362092,108.7092, -61.93077, 2378.833, 0.7149265, -0.2729055, -0.2001852, 0.611824,153.5877, 196.0447, 2366.328, 0.00690585, -0.3300938, 0.07476397, 0.9409574,-18.46653, 188.0442, 2229.42, -0.4777393, -0.286011, -0.5109658, 0.6548868,-45.83594, 153.566, 2149.38, 0.3029395, 0.2822571, -0.513049, 0.7518905,-113.1933, 170.5747, 2224.751, 0.3029395, 0.2822571, -0.513049, 0.7518905,-70.97356, 147.1308, 2120.665, -0.06632182, -0.5777837, -0.13334, 0.8024886,-88.37646, -68.85183, 2353.095, 0.6360305, 0.7629973, -0.1073051, -0.04226257,-209.8135, -41.71653, 2344.112, 0.1504911, 0.7929596, -0.5521656, -0.2089992,-290.7112, 208.9897, 2388.255, -0.2573306, -0.0544489, 0.9647316, 0.01044867,-98.73189, 233.5955, 2277.882, 0.3572848, 0.5588462, 0.1019362, 0.7413822,-88.73897, 176.6015, 2198.348, 0.2442787, 0.5677631, 0.01857615, 0.785893,-64.96626, 135.791, 2109.349, 0.2442787, 0.5677631, 0.01857615, 0.785893,-94.47876, 165.2628, 2187.133, -0.03234567, 0.4828634, 0.5642221, 0.6689172,39.16102, 402.9809, 2395.073, -0.439986, 0.5310795, -0.413158, 0.5946994,57.66878, 768.3822, 2293.257, 0.6079726, -0.3699212, 0.562066, -0.4214371,52.9705, 1105.299, 2428.144, 0.6273345, -0.3400215, 0.5925689, -0.3737634,60.48086, 1268.19, 2357.479, 0.7121804, 0.1774468, 0.6560097, 0.1759628,-125.2243, 405.1013, 2389.366, 0.5161933, 0.5038587, 0.5309437, 0.444713,-109.8, 782.2485, 2351.432, 0.3897656, 0.6198879, 0.3892288, 0.5588585,-83.26234, 1119.012, 2494.265, 0.3689485, 0.6278251, 0.3285417, 0.6014757,-73.76134, 1269.842, 2431.853, -0.162886, 0.6811186, -0.2078903, 0.6828816,-59.81019, -179.7641, 2334.324, 0.6280529, -0.3266542, 0.3897604, -0.5890105,6.092779, -214.7258, 2201.391, 0.6280529, -0.3266542, 0.3897604, -0.5890105,9.841571, -250.5277, 2240.423, 0.8605939, 0.04462283, 0.5065815, 0.02760712,9.248398, -246.2562, 2360.606, 0.5890105, 0.3897604, 0.3266542, 0.6280529,-31.74446, -243.1402, 2214.423, 0.8605939, 0.04462283, 0.5065815, 0.02760712,-130.5783, -234.5553, 2289.3, 0.6280529, -0.3266542, 0.3897604, -0.5890105,
162354615, -46.90407, 402.7874, 2392.393, 0.5365115, -0.4558226, 0.531588, -0.4709514,-48.43684, 235.1147, 2371.023, 0.512678, -0.4814379, 0.5085053, -0.4967909,-49.89069, 100.1115, 2365.211, 0.5183045, -0.4631189, 0.5154207, -0.5012215,-56.87333, -105.028, 2351.693, 0.5568298, -0.420294, 0.5508997, -0.4580427,-23.8854, -72.64724, 2356.167, 0.7664422, -0.6364403, -0.08506187, -0.01656956,109.5248, -61.42237, 2376.685, 0.7083901, -0.2733569, -0.231443, 0.6081887,149.6059, 197.3178, 2375.48, -0.006417328, -0.3532714, 0.05906968, 0.9336321,-15.28011, 185.5129, 2230.685, -0.4592894, -0.2973531, -0.5117607, 0.662371,-44.75161, 153.4668, 2150.508, 0.296354, 0.2608658, -0.5312878, 0.7495709,-115.2139, 170.573, 2222.784, 0.296354, 0.2608658, -0.5312878, 0.7495709,-70.78315, 146.2153, 2122.337, -0.05120832, -0.5749223, -0.1173882, 0.8081226,-87.53291, -69.74933, 2353.673, 0.6359415, 0.7630842, -0.1053554, -0.04670355,-208.8268, -42.31267, 2345.858, 0.1505267, 0.7952455, -0.5498185, -0.2064607,-291.5687, 207.5656, 2389.303, -0.2553298, -0.06029608, 0.9649249, 0.009540235,-99.66548, 234.5447, 2279.904, 0.3534456, 0.5544603, 0.1088185, 0.7455257,-88.26907, 177.155, 2200.995, 0.2589512, 0.5636404, 0.03971379, 0.7833751,-65.07257, 131.8222, 2114.198, 0.2589512, 0.5636404, 0.03971379, 0.7833751,-96.93938, 165.1633, 2188.412, -0.04251729, 0.4912738, 0.5693942, 0.6577482,39.46713, 401.7856, 2394.058, -0.4358439, 0.5352095, -0.417235, 0.5911902,57.36362, 766.6624, 2291.977, 0.6042389, -0.3707321, 0.5684253, -0.4175473,55.51709, 1102.363, 2428.762, 0.6224355, -0.3414384, 0.599501, -0.3695843,61.96238, 1265.398, 2358.873, 0.7057931, 0.1813242, 0.6619623, 0.1754524,-124.7888, 403.6908, 2390.891, 0.507584, 0.5112339, 0.5334817, 0.4431652,-110.3892, 780.8323, 2357.376, 0.3919539, 0.6203884, 0.4013326, 0.5481081,-82.17576, 1120.639, 2491.255, 0.3744288, 0.6282386, 0.3470392, 0.5870973,-75.41457, 1268.83, 2422.965, -0.148795, 0.6944017, -0.1951316, 0.6764539,-58.93108, -180.3492, 2334.009, 0.6085833, -0.3169467, 0.3706658, -0.6259217,10.06572, -226.3659, 2206.329, 0.6085833, -0.3169467, 0.3706658, -0.6259217,9.795044, -260.1661, 2247.194, 0.8729268, 0.03798517, 0.4862155, -0.01226014,4.365191, -249.4953, 2366.71, 0.6259217, 0.3706658, 0.3169467, 0.6085833,-30.02293, -251.5694, 2219.005, 0.8729268, 0.03798517, 0.4862155, -0.01226014,-131.0621, -232.8124, 2288.647, 0.6085833, -0.3169467, 0.3706658, -0.6259217,
162354700, -45.37946, 393.9811, 2390.423, 0.5552735, -0.431653, 0.5189224, -0.4858668,-47.38337, 229.3394, 2366.756, 0.5215485, -0.4653799, 0.4889032, -0.5219026,-50.4183, 96.42722, 2363.542, 0.5230355, -0.4536577, 0.513248, -0.507154,-58.82679, -105.2957, 2348.88, 0.5620213, -0.4110376, 0.5479752, -0.4635766,-26.18113, -73.75668, 2354.19, 0.7669556, -0.6340359, -0.09645107, -0.02178809,104.5018, -61.90914, 2377.593, 0.7070591, -0.2829134, -0.2217906, 0.6089633,145.7137, 192.3115, 2369.623, 0.001631379, -0.3528008, 0.06901219, 0.9331486,-16.70903, 182.4392, 2227.183, -0.4551179, -0.2411465, -0.5732701, 0.6372421,-51.63338, 151.8585, 2150.331, 0.3049268, 0.362365, -0.5054522, 0.7212693,-107.1894, 159.2689, 2234.052, 0.3049268, 0.362365, -0.5054522, 0.7212693,-79.89413, 142.4263, 2125.618, -0.07421757, -0.5172024, -0.1714434, 0.8352249,-88.71771, -70.31384, 2350.37, 0.6311048, 0.7670645, -0.1008943, -0.05602982,-208.0723, -42.66206, 2345.295, 0.1459825, 0.7956948, -0.5542929, -0.1957509,-289.1654, 203.9257, 2384.592, -0.2439429, -0.0750033, 0.9668222, 0.01100753,-98.69727, 236.8627, 2281.653, 0.3201851, 0.5814264, 0.03303714, 0.7472171,-88.77778, 193.8796, 2195.633, 0.326958, 0.5811024, 0.0383162, 0.7442784,-77.80151, 141.2718, 2112.452, 0.326958, 0.5811024, 0.0383162, 0.7442784,-102.8715, 170.3882, 2185.76, -0.03806429, 0.5225111, 0.5598955, 0.6419116,39.27669, 391.8656, 2397.972, 0.5052323, -0.4682335, 0.4052743, -0.6010412,58.312, 760.2336, 2340.734, 0.6722204, -0.3123899, 0.5347055, -0.4057368,23.01829, 1074.004, 2506.753, 0.701798, -0.2684272, 0.5679782, -0.3358977,32.71068, 1243.646, 2466.262, 0.7379327, 0.2113545, 0.5879619, 0.2551184,-121.7176, 395.8888, 2383.616, 0.5073293, 0.5111868, 0.5256687, 0.4527446,-107.7761, 767.5719, 2357.329, 0.4028179, 0.6088758, 0.408532, 0.5478228,-83.98971, 1106.01, 2479.168, 0.3713058, 0.624498, 0.3393292, 0.5974864,-76.5874, 1253.02, 2414.659, -0.1583446, 0.6863464, -0.197915, 0.6816783,-61.13919, -179.2946, 2330.992, 0.6091425, -0.3292004, 0.3704841, -0.6191236,5.185731, -224.5883, 2204.51, 0.6091425, -0.3292004, 0.3704841, -0.6191236,6.287943, -257.4494, 2245.039, 0.8685153, 0.02919201, 0.4947516, -0.007057754,2.980117, -245.8806, 2362.628, 0.6191236, 0.3704841, 0.3292004, 0.6091424,-33.56233, -249.9749, 2217.972, 0.8685153, 0.02919201, 0.4947516, -0.007057754,-131.9997, -232.6382, 2288.213, 0.6091425, -0.3292004, 0.3704841, -0.6191236,
162354764, -45.37843, 393.9789, 2390.428, 0.555272, -0.4316566, 0.5189161, -0.4858723,-47.38192, 229.3379, 2366.763, 0.5215363, -0.4653926, 0.4888875, -0.5219183,-50.41706, 96.42638, 2363.557, 0.5230187, -0.453669, 0.5132113, -0.5071983,-58.82851, -105.2967, 2348.917, 0.5620081, -0.4110518, 0.5479395, -0.4636222,-26.18276, -73.75786, 2354.225, 0.7669177, -0.6340756, -0.09648199, -0.02183077,104.4972, -61.91267, 2377.64, 0.707041, -0.2830013, -0.2218369, 0.6089267,145.7213, 192.304, 2369.663, 0.001651181, -0.3528936, 0.06904695, 0.9331109,-16.672, 182.4317, 2227.192, -0.4552409, -0.2412779, -0.5732798, 0.6370957,-51.56324, 151.8646, 2150.32, 0.3045354, 0.3621626, -0.5056708, 0.721383,-107.1965, 159.2298, 2233.993, 0.3045354, 0.3621626, -0.5056708, 0.721383,-79.8146, 142.4355, 2125.595, -0.07423928, -0.5173491, -0.1715685, 0.8351064,-88.71866, -70.31429, 2350.402, 0.6311445, 0.7670292, -0.1009276, -0.05600408,-208.0715, -42.66073, 2345.314, 0.1460199, 0.7956794, -0.5543305, -0.1956788,-289.1569, 203.935, 2384.566, -0.2439112, -0.07493095, 0.9668368, 0.01092449,-98.67851, 236.8326, 2281.637, 0.3203598, 0.5813249, 0.03318455, 0.7472146,-88.75703, 193.8069, 2195.638, 0.3272945, 0.5809911, 0.03858902, 0.7442032,-77.79884, 141.1241, 2112.503, 0.3272945, 0.5809911, 0.03858902, 0.7442032,-102.8553, 170.3067, 2185.779, -0.03788412, 0.5225386, 0.5600517, 0.6417635,39.27709, 391.8636, 2397.977, 0.5052454, -0.4682206, 0.4052713, -0.6010422,58.31131, 760.2305, 2340.748, 0.6722428, -0.312366, 0.534706, -0.4057174,23.00703, 1073.987, 2506.785, 0.7018263, -0.268382, 0.5680356, -0.3357774,32.67807, 1243.639, 2466.337, 0.7378681, 0.2114276, 0.5879712, 0.2552234,-121.716, 395.8863, 2383.62, 0.5073587, 0.511165, 0.5256906, 0.4527106,-107.7689, 767.564, 2357.293, 0.4029798, 0.6087649, 0.4086981, 0.5477028,-83.98586, 1106.07, 2478.938, 0.3714581, 0.6244109, 0.3395157, 0.5973769,-76.59225, 1253.043, 2414.348, -0.1581582, 0.6864162, -0.1977223, 0.6817071,-61.14138, -179.297, 2331.037, 0.6090205, -0.3292743, 0.3703644, -0.619276,5.18202, -224.6584, 2204.58, 0.6090205, -0.3292743, 0.3703644, -0.619276,6.274946, -257.502, 2245.123, 0.8685368, 0.02905513, 0.4947192, -0.007251751,2.961941, -245.8819, 2362.706, 0.619276, 0.3703644, 0.3292742, 0.6090205,-33.5718, -250.0312, 2218.051, 0.8685368, 0.02905513, 0.4947192, -0.007251751,-132.0095, -232.6442, 2288.276, 0.6090205, -0.3292743, 0.3703644, -0.619276,
162354835, -45.37839, 393.9779, 2390.429, 0.5552695, -0.4316578, 0.5189155, -0.4858743,-47.38238, 229.337, 2366.765, 0.521529, -0.4653983, 0.4888826, -0.521925,-50.41813, 96.42558, 2363.563, 0.5230039, -0.4536795, 0.5132019, -0.5072137,-58.83197, -105.2979, 2348.933, 0.5619946, -0.411063, 0.5479311, -0.4636387,-26.18587, -73.75919, 2354.239, 0.7669016, -0.6340949, -0.09648383, -0.02183004,104.4939, -61.91294, 2377.654, 0.7070299, -0.2830267, -0.2218289, 0.6089308,145.7172, 192.3031, 2369.665, 0.001641706, -0.3529041, 0.06907107, 0.9331051,-16.67272, 182.423, 2227.19, -0.4552688, -0.2412867, -0.5732716, 0.6370798,-51.55832, 151.8549, 2150.316, 0.3044279, 0.3620956, -0.5057139, 0.7214319,-107.2145, 159.2111, 2233.975, 0.3044279, 0.3620956, -0.5057139, 0.7214319,-79.80828, 142.4252, 2125.59, -0.07425617, -0.5173691, -0.1715772, 0.8350908,-88.72166, -70.31508, 2350.416, 0.6311631, 0.7670125, -0.1009352, -0.05600887,-208.0738, -42.65955, 2345.328, 0.1460426, 0.7956663, -0.5543474, -0.1956672,-289.1517, 203.9405, 2384.565, -0.2439167, -0.07489978, 0.9668381, 0.01089706,-98.67266, 236.822, 2281.632, 0.3204214, 0.5813034, 0.03323391, 0.7472028,-88.75375, 193.7823, 2195.641, 0.3274068, 0.5809666, 0.03867785, 0.7441684,-77.80447, 141.0752, 2112.521, 0.3274068, 0.5809666, 0.03867785, 0.7441684,-102.8509, 170.28, 2185.786, -0.03782196, 0.5225466, 0.5600998, 0.6417186,39.27704, 391.8625, 2397.979, 0.5052467, -0.4682157, 0.4052685, -0.6010469,58.31376, 760.2288, 2340.749, 0.6722451, -0.3123627, 0.5347013, -0.4057221,23.00874, 1073.986, 2506.785, 0.7018114, -0.268405, 0.5680428, -0.3357782,32.6762, 1243.636, 2466.33, 0.7378582, 0.2114163, 0.5879925, 0.2552123,-121.7159, 395.8855, 2383.622, 0.5073718, 0.5111603, 0.5256839, 0.452709,-107.7624, 767.5621, 2357.289, 0.4030098, 0.6087465, 0.4087113, 0.5476914,-83.97819, 1106.076, 2478.91, 0.3714838, 0.6243967, 0.3395329, 0.5973657,-76.58289, 1253.044, 2414.31, -0.158132, 0.6864182, -0.1977003, 0.6817176,-61.14574, -179.2989, 2331.057, 0.6089569, -0.329334, 0.370295, -0.6193483,5.175501, -224.6975, 2204.612, 0.6089569, -0.329334, 0.370295, -0.6193483,6.265454, -257.5309, 2245.163, 0.8685429, 0.0289638, 0.4947124, -0.007347799,2.952043, -245.8806, 2362.743, 0.6193482, 0.370295, 0.329334, 0.6089569,-33.58037, -250.0639, 2218.089, 0.8685429, 0.0289638, 0.4947124, -0.007347799,-132.0173, -232.6515, 2288.309, 0.6089569, -0.329334, 0.370295, -0.6193483,
162354890, -45.53826, 394.302, 2390.962, 0.5557319, -0.4310965, 0.5187148, -0.4860584,-47.53586, 229.6836, 2367.192, 0.5218129, -0.4649794, 0.488573, -0.5223045,-50.59639, 96.77854, 2363.984, 0.5235291, -0.4531164, 0.5121538, -0.5082335,-58.99681, -104.9501, 2349.539, 0.5625998, -0.4105857, 0.5468413, -0.4646132,-26.36376, -73.41241, 2354.914, 0.7662339, -0.6342275, -0.1010476, -0.02074484,104.0824, -60.56616, 2379.061, 0.7043014, -0.2842155, -0.2317031, 0.6078607,143.6671, 193.9766, 2374.127, -0.003614546, -0.360856, 0.06517496, 0.9303344,-16.2566, 182.3505, 2229.033, -0.4612681, -0.2512297, -0.5737258, 0.6284537,-49.20517, 152.9262, 2150.873, 0.2539467, 0.3285624, -0.5332208, 0.7370437,-115.205, 155.3388, 2226.951, 0.2539467, 0.3285624, -0.5332208, 0.7370437,-80.15754, 142.3645, 2126.921, -0.06889495, -0.5133533, -0.1646795, 0.839406,-88.88403, -69.96253, 2350.892, 0.6314337, 0.7666457, -0.1029143, -0.05435548,-208.1769, -42.19752, 2345.175, 0.1482325, 0.7939569, -0.5568466, -0.1938592,-288.163, 205.0206, 2382.649, -0.2439153, -0.07054859, 0.9671963, 0.007720805,-97.41463, 235.73, 2279.565, 0.3252265, 0.5762855, 0.03918439, 0.7487237,-86.95631, 191.1971, 2194.406, 0.3576157, 0.5740243, 0.06431549, 0.7338055,-78.51791, 131.9125, 2115.537, 0.3576157, 0.5740243, 0.06431549, 0.7338055,-101.5135, 168.0143, 2184.354, -0.03512545, 0.523047, 0.5631988, 0.638745,39.10248, 392.1679, 2398.629, 0.5073166, -0.4644303, 0.4043208, -0.6028756,59.2092, 760.666, 2342.734, 0.6732025, -0.3111615, 0.5313724, -0.4094144,23.52106, 1075.263, 2507.057, 0.6898245, -0.2864078, 0.5746285, -0.3345366,29.86882, 1243.883, 2461.942, 0.7285782, 0.2032434, 0.6054052, 0.2476903,-121.8625, 396.2264, 2384.049, 0.516735, 0.5057368, 0.516063, 0.4592322,-104.8718, 767.8073, 2358.384, 0.4119549, 0.6006361, 0.4016416, 0.5551698,-82.90442, 1106.609, 2479.499, 0.3768554, 0.6201955, 0.3436556, 0.5960187,-75.33701, 1252.545, 2412.636, -0.1533352, 0.6863556, -0.1918426, 0.6845441,-61.26653, -178.9662, 2331.734, 0.5886842, -0.3582856, 0.3600329, -0.628855,0.5855113, -233.5112, 2206.654, 0.5886842, -0.3582856, 0.3600329, -0.628855,2.745442, -263.511, 2249.3, 0.8609302, 0.00123555, 0.5079279, -0.02840505,3.327455, -243.8409, 2365.847, 0.628855, 0.3600329, 0.3582856, 0.5886842,-37.89826, -257.5262, 2223.06, 0.8609302, 0.00123555, 0.5079279, -0.02840505,-133.8743, -234.4254, 2295.016, 0.5886842, -0.3582856, 0.3600329, -0.628855,
162354953, -45.53932, 394.301, 2390.962, 0.5557281, -0.431099, 0.5187144, -0.486061,-47.53759, 229.6834, 2367.193, 0.5218062, -0.4649844, 0.48857, -0.5223095,-50.59872, 96.77921, 2363.989, 0.523518, -0.4531248, 0.5121514, -0.50824,-59.00072, -104.9484, 2349.549, 0.5625893, -0.4105943, 0.5468394, -0.4646205,-26.3676, -73.41106, 2354.923, 0.7662257, -0.6342393, -0.1010379, -0.02073932,104.0783, -60.56505, 2379.066, 0.7043095, -0.2842064, -0.2316778, 0.6078653,143.666, 193.9754, 2374.126, -0.003616926, -0.3608305, 0.0651861, 0.9303435,-16.26465, 182.3474, 2229.042, -0.4612296, -0.2511789, -0.5737274, 0.6285008,-49.22438, 152.9182, 2150.89, 0.2540697, 0.3286378, -0.5331522, 0.7370175,-115.2012, 155.3441, 2226.986, 0.2540697, 0.3286378, -0.5331522, 0.7370175,-80.18027, 142.3555, 2126.943, -0.06889056, -0.5132966, -0.1646412, 0.8394487,-88.88749, -69.96082, 2350.901, 0.6314451, 0.7666363, -0.1029135, -0.05435896,-208.1795, -42.19566, 2345.185, 0.1482512, 0.7939503, -0.556854, -0.1938508,-288.1625, 205.0232, 2382.649, -0.2439206, -0.07053092, 0.9671964, 0.007698967,-97.41544, 235.7225, 2279.562, 0.3252779, 0.5762599, 0.03922646, 0.748719,-86.95768, 191.1778, 2194.41, 0.3577256, 0.5739917, 0.06440237, 0.7337699,-78.52747, 131.8707, 2115.559, 0.3577256, 0.5739917, 0.06440237, 0.7337699,-101.5204, 167.9972, 2184.358, -0.03510104, 0.5230766, 0.5632161, 0.6387068,39.10089, 392.1666, 2398.628, 0.5073141, -0.4644303, 0.4043225, -0.6028767,59.20947, 760.6621, 2342.733, 0.6732038, -0.3111566, 0.5313765, -0.4094107,23.52253, 1075.254, 2507.06, 0.6898393, -0.286382, 0.5746297, -0.3345264,29.87254, 1243.876, 2461.955, 0.7285813, 0.2032627, 0.6053879, 0.2477078,-121.8631, 396.2256, 2384.049, 0.5167388, 0.5057322, 0.5160827, 0.4592108,-104.873, 767.8027, 2358.365, 0.4119884, 0.6006173, 0.4016891, 0.5551309,-82.90211, 1106.619, 2479.432, 0.3768909, 0.6201809, 0.3437079, 0.5959813,-75.33833, 1252.545, 2412.548, -0.1532834, 0.6863821, -0.1917955, 0.6845424,-61.27117, -178.9645, 2331.746, 0.5886772, -0.3582962, 0.3600224, -0.6288616,0.5802438, -233.5137, 2206.669, 0.5886772, -0.3582962, 0.3600224, -0.6288616,2.740173, -263.5118, 2249.316, 0.8609299, 0.001220568, 0.507928, -0.02841467,3.322344, -243.8377, 2365.862, 0.6288616, 0.3600224, 0.3582962, 0.5886772,-37.90329, -257.5279, 2223.076, 0.8609299, 0.001220568, 0.507928, -0.02841467,-133.8786, -234.4245, 2295.031, 0.5886772, -0.3582962, 0.3600224, -0.6288616,
162355013, -46.49818, 393.5149, 2388.567, 0.5534068, -0.4333688, 0.5175403, -0.4879388,-48.68655, 229.4633, 2366.157, 0.5195502, -0.4669969, 0.487412, -0.5238425,-51.85931, 97.13998, 2363.886, 0.523232, -0.4517841, 0.5121495, -0.5097275,-60.83542, -103.6592, 2349.566, 0.5624236, -0.4092581, 0.5467301, -0.4661262,-28.26097, -72.36617, 2354.983, 0.7660664, -0.6347038, -0.09867618, -0.02358745,101.6907, -60.54129, 2379.016, 0.7149064, -0.2797781, -0.1999831, 0.6088019,147.5343, 191.4287, 2364.98, 0.00313914, -0.3339263, 0.08223306, 0.9390001,-19.72717, 180.875, 2229.867, -0.455869, -0.2421268, -0.583174, 0.6272689,-54.24655, 151.8484, 2152.706, 0.2769507, 0.356617, -0.5210966, 0.7242796,-113.6441, 154.8086, 2233.463, 0.2769507, 0.356617, -0.5210966, 0.7242796,-82.05827, 140.6471, 2128.039, -0.08111009, -0.5156755, -0.1779205, 0.8341727,-90.4788, -68.73262, 2350.827, 0.6314688, 0.7675709, -0.09510016, -0.05511913,-209.5924, -42.4153, 2346.495, 0.1608187, 0.787556, -0.5589741, -0.2035701,-285.9606, 204.7952, 2383.308, -0.259349, -0.07350828, 0.9629606, 0.00643953,-99.64268, 236.3859, 2274.626, 0.284671, 0.582368, 0.05352237, 0.7595692,-86.44032, 195.6176, 2188.462, 0.3779286, 0.5710144, 0.1263316, 0.7177414,-80.30616, 127.9141, 2117.071, 0.3779286, 0.5710144, 0.1263316, 0.7177414,-105.2121, 168.9813, 2176.805, -0.08180986, 0.5291734, 0.5784025, 0.6154131,37.77259, 391.3654, 2396.073, 0.510987, -0.458335, 0.4018925, -0.6060558,59.19124, 758.3996, 2342.258, 0.672984, -0.3121238, 0.5236167, -0.4189235,23.44657, 1074.707, 2499.665, 0.6882393, -0.2890951, 0.5778965, -0.3298279,28.16471, 1242.739, 2455.194, 0.7241587, 0.2036526, 0.6096427, 0.249911,-122.4888, 395.4531, 2381.799, 0.5243052, 0.499951, 0.5129729, 0.4604474,-104.0436, 765.0529, 2353.031, 0.4175182, 0.5954819, 0.3980973, 0.559105,-83.28783, 1102.726, 2472.688, 0.3668151, 0.612408, 0.2939101, 0.6356256,-68.32358, 1253.362, 2420.933, -0.1885283, 0.6459172, -0.2214694, 0.7058324,-63.29004, -177.342, 2331.866, 0.5854872, -0.3572453, 0.3556586, -0.6348916,-1.147769, -233.5354, 2208.476, 0.5854872, -0.3572453, 0.3556586, -0.6348916,0.3817342, -262.9512, 2251.27, 0.8629382, -0.001122002, 0.5040991, -0.03493419,0.1546033, -242.1059, 2367.073, 0.6348917, 0.3556586, 0.3572453, 0.5854872,-39.80347, -256.9281, 2224.74, 0.8629382, -0.001122002, 0.5040991, -0.03493419,-135.7428, -232.3181, 2295.3, 0.5854872, -0.3572453, 0.3556586, -0.6348916,
