162345421, -49.548, 421.2236, 2302.874, 0.5355021, -0.4519961, 0.516984, -0.4915937,-52.73925, 251.7826, 2286.767, -0.4987316, 0.488033, -0.4831115, 0.5288607,-56.30268, 115.8153, 2291.444, 0.5189628, -0.4434036, 0.5064407, -0.5268669,-70.50668, -90.55483, 2280.234, 0.5595426, -0.4013624, 0.5403676, -0.4835527,-36.34722, -59.14848, 2286.083, 0.7592315, -0.6428978, -0.08284694, -0.05819123,97.26172, -56.67097, 2313.449, 0.7209843, -0.2700437, -0.2261725, 0.5967445,146.1712, 202.4373, 2314.461, 0.0213904, -0.3477848, 0.05588635, 0.9356627,-21.40243, 202.693, 2169.897, 0.4014403, 0.2068774, 0.6441991, -0.6172966,-68.85715, 178.7569, 2094.947, 0.2621701, 0.3985577, -0.5467563, 0.688096,-125.0329, 171.0208, 2181.058, 0.2621701, 0.3985577, -0.5467563, 0.688096,-144.4407, 186.917, 2176.421, 0.126591, 0.08995572, 0.2506345, 0.9555444,-100.0629, -53.8659, 2280.091, 0.6303728, 0.7637549, -0.1013601, -0.09505076,-220.7042, -19.39913, 2282.274, 0.15899, 0.7860597, -0.5434972, -0.2478771,-297.6353, 231.3447, 2340.542, -0.2939534, -0.0242835, 0.9553478, 0.01767223,-112.5151, 244.0717, 2214.859, 0.5033926, -0.4511098, -0.624455, 0.391346,-100.1709, 147.9481, 2194.974, 0.6309421, 0.1379452, -0.757902, -0.09202086,-83.37113, 180.9075, 2100.622, 0.6309421, 0.1379452, -0.757902, -0.09202086,-79.73085, 205.1427, 2097.313, 0.5573415, 0.5423229, -0.3071379, 0.5485641,37.29151, 419.1179, 2307.821, -0.4229378, 0.5327663, -0.3955469, 0.6171113,65.77623, 779.5223, 2184.447, 0.6103651, -0.3630272, 0.5554525, -0.432595,62.6116, 1119.541, 2317.323, 0.6537013, -0.3052236, 0.5688847, -0.3948207,82.38726, 1284.256, 2250.744, 0.7454919, 0.1854621, 0.6144937, 0.1795638,-127.855, 423.1225, 2298.413, 0.5581317, 0.4854141, 0.5004845, 0.4498639,-91.88053, 800.1516, 2251.885, 0.4158753, 0.6026301, 0.3506152, 0.5839123,-65.23357, 1135.219, 2403.93, 0.3848182, 0.6104537, 0.2823205, 0.6321048,-42.97871, 1288.772, 2349.38, -0.1733071, 0.6364286, -0.2284105, 0.7160671,-74.53185, -166.5443, 2263.354, 0.5862482, -0.3563504, 0.3349341, -0.6458689,-6.293237, -228.2232, 2140.679, 0.5862482, -0.3563504, 0.3349341, -0.6458689,-6.157053, -257.0145, 2185.663, 0.8712383, -0.01514366, 0.4888119, -0.04215824,-10.45347, -231.7291, 2303.879, 0.6458689, 0.334934, 0.3563504, 0.5862482,-46.53428, -251.8286, 2156.824, 0.8712383, -0.01514366, 0.4888119, -0.04215824,-147.6052, -224.4646, 2225.131, 0.5862482, -0.3563504, 0.3349341, -0.6458689,
162345478, -49.54831, 421.2235, 2302.873, 0.5355021, -0.451996, 0.5169849, -0.491593,-52.73964, 251.7822, 2286.766, -0.4987327, 0.4880321, -0.4831134, 0.5288591,-56.30307, 115.8146, 2291.442, 0.5189626, -0.4434049, 0.5064454, -0.5268614,-70.50665, -90.55594, 2280.23, 0.5595419, -0.4013634, 0.5403724, -0.4835473,-36.34715, -59.14947, 2286.079, 0.7592353, -0.6428955, -0.08283943, -0.0581799,97.26276, -56.67101, 2313.441, 0.7209886, -0.2700256, -0.2261596, 0.5967525,146.1704, 202.4382, 2314.454, 0.02138768, -0.3477632, 0.05588093, 0.9356712,-21.41024, 202.6942, 2169.897, 0.4014117, 0.2068593, 0.6442106, -0.6173091,-68.87099, 178.7585, 2094.95, 0.2621827, 0.3985662, -0.5467569, 0.6880859,-125.0441, 171.0225, 2181.064, 0.2621827, 0.3985662, -0.5467569, 0.6880859,-144.4486, 186.9193, 2176.431, 0.1265848, 0.08999488, 0.2506407, 0.9555399,-100.063, -53.86699, 2280.088, 0.6303704, 0.7637575, -0.1013528, -0.09505367,-220.7048, -19.40108, 2282.273, 0.1589911, 0.7860613, -0.5434899, -0.2478875,-297.6375, 231.3417, 2340.546, -0.2939624, -0.02429071, 0.9553447, 0.01767762,-112.5195, 244.0726, 2214.859, 0.5034009, -0.4510982, -0.6244557, 0.3913477,-100.1747, 147.9492, 2194.973, 0.6309491, 0.1379537, -0.7578939, -0.0920257,-83.37718, 180.9106, 2100.62, 0.6309491, 0.1379537, -0.7578939, -0.0920257,-79.73963, 205.1466, 2097.312, 0.5573384, 0.5423449, -0.3071283, 0.5485509,37.29138, 419.1178, 2307.82, -0.4229363, 0.5327672, -0.3955466, 0.6171118,65.77644, 779.5225, 2184.444, 0.6103629, -0.3630293, 0.5554515, -0.4325974,62.61261, 1119.543, 2317.318, 0.6536995, -0.3052258, 0.5688835, -0.3948237,82.38864, 1284.258, 2250.738, 0.7454928, 0.1854597, 0.6144944, 0.1795604,-127.8555, 423.1224, 2298.413, 0.5581312, 0.4854141, 0.5004879, 0.4498606,-91.88129, 800.1519, 2251.882, 0.4158761, 0.6026309, 0.3506189, 0.5839088,-65.23312, 1135.221, 2403.925, 0.3848189, 0.6104549, 0.2823241, 0.6321015,-42.97867, 1288.774, 2349.373, -0.1733042, 0.636432, -0.2284088, 0.7160653,-74.53182, -166.5455, 2263.35, 0.586247, -0.3563495, 0.3349288, -0.6458732,-6.292097, -228.2258, 2140.676, 0.586247, -0.3563495, 0.3349288, -0.6458732,-6.156448, -257.0167, 2185.66, 0.8712405, -0.01514676, 0.4888076, -0.04216216,-10.45392, -231.7302, 2303.875, 0.6458732, 0.3349288, 0.3563495, 0.5862469,-46.53346, -251.831, 2156.82, 0.8712405, -0.01514676, 0.4888076, -0.04216216,-147.6051, -224.466, 2225.126, 0.586247, -0.3563495, 0.3349288, -0.6458732,
162345545, -49.00195, 421.1103, 2301.828, 0.5323056, -0.460246, 0.5178351, -0.4864887,-50.74683, 251.6852, 2286.725, -0.4991673, 0.4932975, -0.4864535, 0.5204349,-52.78409, 115.7618, 2290.514, 0.5197424, -0.4424784, 0.5114973, -0.5219687,-66.97439, -90.31123, 2276.962, 0.5599269, -0.4000347, 0.5453337, -0.4786078,-32.80979, -58.98254, 2282.914, 0.7634292, -0.6385955, -0.07865117, -0.05644219,100.9375, -57.03706, 2309.108, 0.7310549, -0.2438261, -0.2183042, 0.5987077,150.4163, 201.6624, 2316.281, 0.04657335, -0.3254688, 0.03432114, 0.9437813,-22.91881, 216.1628, 2179.714, 0.3409882, 0.1234759, 0.6594034, -0.6585348,-84.57659, 186.6857, 2118.403, 0.2253887, 0.3796231, -0.5531234, 0.706499,-147.4412, 176.2302, 2199.356, 0.2253887, 0.3796231, -0.5531234, 0.706499,-149.5193, 187.4666, 2187.701, 0.08230526, 0.0489399, 0.1683563, 0.9810642,-96.52446, -53.66665, 2277.488, 0.627012, 0.7660365, -0.1067388, -0.09301037,-216.8901, -18.53564, 2278.572, 0.177424, 0.7934995, -0.5204564, -0.2607764,-303.4027, 228.055, 2340.097, -0.3153894, -0.02696212, 0.9485723, 0.003627,-124.3344, 240.0224, 2206.146, 0.5089919, -0.4440427, -0.6116952, 0.4118036,-111.5317, 143.6969, 2187.974, 0.6462219, 0.1602282, -0.7386961, -0.1051296,-100.0429, 181.4292, 2094.701, 0.6462219, 0.1602282, -0.7386961, -0.1051296,-108.5723, 202.1803, 2089.447, 0.5707887, 0.5991378, -0.2518396, 0.5018076,37.85992, 419.9055, 2305.309, -0.411227, 0.5396072, -0.3887643, 0.6233609,68.1803, 775.7536, 2170.565, 0.6124926, -0.3577875, 0.5606446, -0.4272218,65.87541, 1113.018, 2309.579, 0.6524295, -0.3035844, 0.5725707, -0.3928551,85.64861, 1277.988, 2244.002, 0.7432125, 0.1892255, 0.6159661, 0.1800404,-127.3291, 422.1968, 2298.689, 0.5573637, 0.4856312, 0.5039915, 0.4466549,-91.87435, 798.6948, 2249.885, 0.415668, 0.603991, 0.3535845, 0.5808553,-64.16405, 1134.156, 2400.183, 0.3849573, 0.6116421, 0.2840303, 0.6301022,-42.16383, 1287.447, 2345.168, -0.171796, 0.6384685, -0.2280423, 0.7147313,-71.09525, -166.0385, 2259.221, 0.5763991, -0.3588166, 0.3328059, -0.654412,-4.295774, -231.2353, 2137.724, 0.5763991, -0.3588166, 0.3328059, -0.654412,-4.660387, -259.1714, 2183.195, 0.8703148, -0.01839236, 0.4890509, -0.05516337,-8.295674, -231.6603, 2300.841, 0.6544119, 0.3328059, 0.3588166, 0.5763991,-44.93771, -253.7308, 2154.328, 0.8703148, -0.01839236, 0.4890509, -0.05516337,-145.2839, -223.1661, 2222.173, 0.5763991, -0.3588166, 0.3328059, -0.654412,
162345623, -49.58048, 421.5771, 2304.29, 0.5362246, -0.4565175, 0.5148373, -0.4888737,-51.09745, 252.0484, 2288.783, 0.5044201, -0.4879898, 0.4851099, -0.521627,-53.11922, 115.9888, 2291.47, 0.5198732, -0.4427656, 0.511309, -0.5217792,-67.15912, -90.26431, 2277.948, 0.560042, -0.4003361, 0.5451692, -0.4784084,-32.99102, -58.88211, 2283.894, 0.7634426, -0.6386805, -0.07763413, -0.05670669,100.8994, -57.16576, 2309.945, 0.724314, -0.2479498, -0.2167859, 0.6057178,146.3135, 202.5682, 2313.549, 0.06059346, -0.3279729, 0.03015031, 0.9422596,-25.77205, 223.464, 2175.945, 0.2581169, 0.02454055, 0.6929531, -0.6727477,-100.7787, 191.4608, 2133.601, 0.2180616, 0.4131985, -0.5568243, 0.6867772,-158.8745, 174.8972, 2217.161, 0.2180616, 0.4131985, -0.5568243, 0.6867772,-152.3785, 188.3727, 2186.71, 0.06328775, 0.03092282, 0.03989236, 0.9967181,-96.76206, -53.61353, 2278.471, 0.627215, 0.7670603, -0.09740312, -0.09344753,-217.6827, -20.15048, 2281.128, 0.1759775, 0.7886748, -0.5258608, -0.2655077,-299.8884, 227.8251, 2343.926, -0.3184029, -0.02434308, 0.9475996, 0.009056517,-121.4715, 239.4578, 2208.779, 0.5146093, -0.4431416, -0.6105216, 0.4075123,-109.613, 143.1349, 2189.549, 0.6473138, 0.156293, -0.7380267, -0.1089668,-98.14876, 180.814, 2096.163, 0.6473138, 0.156293, -0.7380267, -0.1089668,-108.864, 202.7398, 2092.079, 0.5732111, 0.6088234, -0.2485358, 0.488869,37.29873, 420.3773, 2308.908, -0.4103102, 0.5368618, -0.3805101, 0.6313771,70.47702, 774.3879, 2169.215, 0.6168317, -0.355444, 0.5537958, -0.4318432,65.49589, 1112.622, 2306.564, 0.6572145, -0.3012583, 0.5667177, -0.3951499,86.08311, 1277.675, 2241.052, 0.7481917, 0.1867606, 0.6101465, 0.1817991,-127.9233, 422.659, 2300.126, 0.5650854, 0.477868, 0.5002464, 0.4495267,-91.53375, 798.9797, 2248.329, 0.4194194, 0.5972386, 0.3491294, 0.5877942,-67.47449, 1134.742, 2399.312, 0.3843397, 0.6081496, 0.2833062, 0.6341724,-45.69971, 1288.337, 2344.661, -0.1750892, 0.6354933, -0.2260774, 0.7172036,-71.22559, -166.0593, 2260.208, 0.5695994, -0.3686959, 0.3408992, -0.6506976,-8.231357, -231.951, 2136.91, 0.5695994, -0.3686959, 0.3408992, -0.6506976,-7.362004, -259.7647, 2182.5, 0.8628803, -0.01965525, 0.5017596, -0.05734512,-7.425927, -231.8471, 2300.206, 0.6506977, 0.3408992, 0.368696, 0.5695994,-48.48429, -254.2535, 2154.791, 0.8628803, -0.01965525, 0.5017596, -0.05734512,-146.7508, -223.0596, 2225.518, 0.5695994, -0.3686959, 0.3408992, -0.6506976,
162345691, -49.4888, 420.9349, 2304.136, 0.5308021, -0.4597919, 0.5182388, -0.4881281,-51.92607, 251.094, 2289.373, -0.4986201, 0.4918796, -0.4878878, 0.5209587,-54.49773, 114.859, 2292.917, 0.5210295, -0.4467313, 0.5105257, -0.517999,-66.59001, -91.83356, 2279.457, 0.5608915, -0.4043517, 0.5447063, -0.4745476,-32.65086, -60.06704, 2285.223, 0.7638031, -0.6383387, -0.08134074, -0.0501226,101.4716, -56.34039, 2310.941, 0.7001414, -0.2802527, -0.246639, 0.6086293,137.7791, 205.2442, 2312.056, 0.03271255, -0.3715257, 0.03662001, 0.9271232,-22.2123, 212.6579, 2158.826, 0.1286906, 0.02299831, 0.7541746, -0.6435297,-108.5352, 197.7472, 2130.635, -0.2699094, -0.4202538, 0.6266539, -0.5981977,-160.2785, 176.7029, 2217.489, -0.2699094, -0.4202538, 0.6266539, -0.5981977,-150.3539, 187.8693, 2187.04, 0.1029642, 0.1142914, -0.04913646, 0.9868746,-96.59549, -55.42261, 2280.143, 0.6275803, 0.7680174, -0.08478037, -0.09541761,-218.1821, -24.00339, 2285.189, 0.1682802, 0.7876003, -0.547011, -0.2283563,-298.1735, 228.5406, 2332.443, -0.2836632, -0.0263443, 0.958562, -0.000157806,-110.1448, 239.857, 2210.374, -0.3723464, 0.5182742, 0.7080464, -0.3023579,-90.97803, 143.5016, 2197.483, -0.4730828, -0.1878997, 0.8571066, 0.07908724,-42.07664, 183.7911, 2118.185, -0.4730828, -0.1878997, 0.8571066, 0.07908724,-90.47923, 205.7267, 2111.053, 0.5290497, 0.6486222, -0.2154541, 0.5029666,37.56815, 419.3823, 2307.625, -0.4119888, 0.5425168, -0.3857367, 0.6222122,65.06947, 775.662, 2170.931, 0.6069326, -0.3691707, 0.5539416, -0.4341595,61.66592, 1117.904, 2299.583, 0.6527105, -0.3083617, 0.570033, -0.3923575,80.15482, 1282.91, 2232.61, 0.7430702, 0.184051, 0.6175338, 0.1806207,-127.9919, 422.3349, 2300.99, 0.5628431, 0.4800539, 0.4994597, 0.4508836,-91.88038, 799.5807, 2251.559, 0.4152861, 0.600068, 0.3461383, 0.5896134,-67.83109, 1134.014, 2406.789, 0.3772279, 0.6143396, 0.2842757, 0.632039,-47.62525, 1288.538, 2353.428, -0.1786576, 0.6405324, -0.2297278, 0.710651,-70.00939, -167.7802, 2261.714, 0.5675596, -0.3469963, 0.3521392, -0.6583825,-6.721996, -231.9093, 2137.356, 0.5675596, -0.3469963, 0.3521392, -0.6583825,-7.728905, -261.2363, 2182.08, 0.866872, 0.003636545, 0.4943635, -0.06422152,-9.226914, -237.1082, 2300.797, 0.6583825, 0.3521392, 0.3469964, 0.5675596,-48.12946, -253.3948, 2153.743, 0.866872, 0.003636545, 0.4943635, -0.06422152,-146.8342, -221.0487, 2223.67, 0.5675596, -0.3469963, 0.3521392, -0.6583825,
162345758, -48.76786, 420.8333, 2305.748, 0.5275337, -0.4627514, 0.5124335, -0.4949556,-51.46397, 251.1003, 2294.205, 0.5038733, -0.4861491, 0.4902917, -0.5190227,-54.12233, 115.1101, 2295.646, 0.523623, -0.4479074, 0.5079132, -0.5169351,-64.63434, -91.24546, 2282.287, 0.5633914, -0.4057336, 0.5421966, -0.4732791,-31.01718, -59.29411, 2288.132, 0.763121, -0.6376643, -0.09801371, -0.03773313,102.3097, -50.10381, 2315.087, 0.6847847, -0.3012926, -0.2466905, 0.6159841,133.7813, 211.4122, 2306.305, 0.02329428, -0.386272, 0.04926852, 0.9207735,-21.16932, 212.4818, 2148.45, 0.06720222, -0.02125173, 0.7695162, -0.6347259,-110.7609, 198.9612, 2133.476, -0.3042729, -0.4535317, 0.6220255, -0.5610803,-152.3377, 176.0039, 2224.931, -0.3042729, -0.4535317, 0.6220255, -0.5610803,-148.3339, 187.8051, 2179.281, 0.1090792, 0.1116263, -0.1186663, 0.9805915,-94.84541, -55.12988, 2282.856, 0.6273726, 0.7676583, -0.09041495, -0.0944961,-215.9772, -22.8482, 2286.823, 0.1971567, 0.7846045, -0.5164583, -0.2807057,-298.9412, 224.5042, 2350.423, -0.3429724, -0.0448316, 0.9382557, 0.006031214,-128.5404, 244.2754, 2206.38, -0.3794125, 0.500359, 0.7163931, -0.3040854,-106.6756, 149.0844, 2190.953, -0.4828461, -0.1599109, 0.8590732, 0.05728289,-57.79385, 182.5181, 2108.776, -0.4828461, -0.1599109, 0.8590732, 0.05728289,-106.1944, 199.8243, 2108.833, 0.6326109, 0.5428211, -0.2599632, 0.4874092,38.0828, 419.1785, 2309.796, -0.4105394, 0.5391921, -0.3794863, 0.6298568,69.18393, 772.8774, 2169.43, 0.6108651, -0.36511, 0.5490485, -0.4382741,64.46852, 1114.548, 2297.415, 0.647, -0.3180643, 0.5607774, -0.4071299,84.55636, 1276.254, 2224.139, 0.7494324, 0.1705631, 0.6177696, 0.1661924,-127.0849, 422.3256, 2302.098, 0.5643475, 0.4766958, 0.4994079, 0.4526198,-92.20515, 798.7589, 2251.695, 0.4125436, 0.5989846, 0.3432873, 0.5942887,-70.83788, 1131.195, 2409.766, 0.3793728, 0.6129395, 0.2944567, 0.6274366,-52.33611, 1284.487, 2353.366, -0.173846, 0.6466978, -0.2215416, 0.7088574,-67.4343, -167.0674, 2264.611, 0.5590606, -0.3527292, 0.3395416, -0.6691374,-3.975458, -236.2214, 2143.465, 0.5590606, -0.3527292, 0.3395416, -0.6691374,-5.653864, -263.8223, 2189.126, 0.8684672, -0.009325054, 0.4895093, -0.07783597,-7.841118, -235.4092, 2306.623, 0.6691374, 0.3395415, 0.3527292, 0.5590606,-45.65589, -256.6158, 2160.243, 0.8684672, -0.009325054, 0.4895093, -0.07783597,-144.3609, -220.7747, 2227.968, 0.5590606, -0.3527292, 0.3395416, -0.6691374,
162345821, -47.43753, 412.9562, 2306.515, 0.5370147, -0.4511666, 0.510433, -0.4975157,-50.32188, 246.0456, 2292.34, 0.5123115, -0.4753372, 0.4880037, -0.5229183,-53.42734, 112.1449, 2291.958, 0.5163741, -0.4544238, 0.5162401, -0.5102479,-64.42932, -91.00328, 2278.687, 0.5556294, -0.4115613, 0.5510193, -0.4671948,-31.13299, -59.59735, 2283.552, 0.7649191, -0.6372769, -0.09086166, -0.02282443,100.7537, -48.7384, 2306.117, 0.7096317, -0.3690347, -0.4211708, 0.4276111,173.2929, 189.4225, 2379.336, 0.04599289, -0.5558357, 0.06795785, 0.8272322,90.99213, 189.5416, 2177.678, 0.4617716, 0.3284524, 0.6245542, -0.5374179,66.2728, 179.1994, 2091.313, 0.2613116, 0.4004177, -0.581046, 0.6586102,11.19788, 166.9095, 2175.646, 0.2613116, 0.4004177, -0.581046, 0.6586102,-27.14595, 165.8117, 2171.912, 0.07496542, 0.07224168, 0.2151695, 0.9710115,-94.10001, -55.40433, 2280.178, 0.6268889, 0.7648266, -0.09934622, -0.1103672,-212.1519, -19.54769, 2285.645, 0.2114526, 0.7906763, -0.4672644, -0.3343393,-301.9905, 213.2185, 2373.193, -0.3939836, -0.1103653, 0.91177, 0.03566294,-155.2735, 263.8061, 2216.467, -0.4734566, 0.3968413, 0.6985044, -0.361175,-128.9755, 174.6864, 2187.384, 0.594106, 0.1621317, -0.786832, -0.04057815,-104.8882, 204.943, 2095.448, 0.594106, 0.1621317, -0.786832, -0.04057815,-116.3507, 190.2007, 2127.604, 0.7316107, 0.2361196, -0.3088506, 0.5600042,37.94471, 410.9585, 2312.665, -0.4709132, 0.516538, -0.4407175, 0.5632026,46.53816, 781.5402, 2249.975, 0.5937153, -0.3939555, 0.553038, -0.4317987,41.00598, 1122.315, 2363.681, 0.6259989, -0.3540073, 0.5371131, -0.4408104,61.5452, 1271.924, 2273.43, 0.7583216, 0.1281683, 0.6262625, 0.1277364,-124.4304, 414.7577, 2300.97, 0.5482888, 0.4838211, 0.5109715, 0.45189,-98.36533, 786.5314, 2254.76, 0.3999999, 0.6075121, 0.3550864, 0.5872331,-77.25591, 1113.736, 2410.672, 0.4060393, 0.5996916, 0.3312087, 0.6048162,-60.84365, 1258.239, 2339.619, -0.138777, 0.6631914, -0.1863242, 0.7114783,-67.78819, -165.6217, 2261.215, 0.5550207, -0.3478216, 0.3505116, -0.669413,-7.42805, -232.6881, 2140.264, 0.5550207, -0.3478216, 0.3505116, -0.669413,-9.174216, -260.6034, 2184.766, 0.8658053, 0.001902152, 0.4937961, -0.08088759,-9.918533, -234.588, 2300.935, 0.669413, 0.3505116, 0.3478216, 0.5550206,-48.66656, -252.362, 2156.782, 0.8658053, 0.001902152, 0.4937961, -0.08088759,-144.7052, -216.6032, 2224.874, 0.5550207, -0.3478216, 0.3505116, -0.669413,
162345879, -46.72499, 402.2245, 2306.521, 0.5389147, -0.4484513, 0.5071905, -0.5012188,-49.72045, 238.0836, 2292.939, 0.5128396, -0.4735618, 0.4838284, -0.5278682,-53.07509, 106.4344, 2293.433, 0.5269446, -0.4421906, 0.5115723, -0.5148696,-63.89682, -93.09972, 2277.497, 0.5665366, -0.3997417, 0.5453854, -0.4709539,-31.26391, -62.36767, 2283.731, 0.7635196, -0.6335108, -0.1232718, 0.02249207,96.58463, -37.21838, 2304.816, 0.7479364, -0.3295823, -0.4873998, 0.3072589,182.3347, 162.0335, 2439.171, 0.1038318, -0.5866739, 0.04468579, 0.8018952,120.2154, 186.4671, 2235.683, 0.5051181, 0.367024, 0.5500367, -0.5546247,108.1792, 169.383, 2149.263, 0.3946322, 0.4281341, -0.5039328, 0.6379799,76.05961, 176.5698, 2243.449, 0.3946322, 0.4281341, -0.5039328, 0.6379799,10.86745, 167.1142, 2178.113, 0.1458269, -0.1842444, 0.1340359, 0.9627164,-93.02658, -58.04351, 2278.463, 0.6126461, 0.7676176, -0.1315844, -0.1345864,-205.8515, -13.48876, 2283.975, 0.2302329, 0.7880535, -0.4242351, -0.3820851,-296.3448, 206.0886, 2389.752, -0.4444337, -0.1201581, 0.8868855, 0.03840443,-171.4116, 259.7132, 2220.792, -0.4573917, 0.4014995, 0.7208356, -0.3316429,-143.9308, 173.1335, 2190.569, 0.5626509, 0.1718842, -0.8070077, -0.05116844,-113.7494, 205.9867, 2103.236, 0.5626509, 0.1718842, -0.8070077, -0.05116844,-106.8335, 203.479, 2126.958, 0.6054306, 0.2994967, -0.3758883, 0.6344001,37.14768, 400.1135, 2313.534, -0.4870817, 0.498464, -0.4272919, 0.5759399,47.70852, 764.9677, 2255.16, 0.6260412, -0.362649, 0.5473009, -0.4207373,31.14606, 1091.299, 2389.439, 0.6274461, -0.3585538, 0.5259926, -0.448422,52.20405, 1236.45, 2297.738, 0.7646866, 0.117081, 0.6215416, 0.1234193,-122.3567, 404.128, 2300.197, 0.5392872, 0.4807716, 0.5124868, 0.4640963,-106.1305, 770.9163, 2260.87, 0.3924145, 0.6023066, 0.3619325, 0.5935001,-94.16273, 1092.838, 2414.688, 0.4315587, 0.5751743, 0.3717823, 0.5871196,-81.33316, 1226.551, 2329.339, -0.1079273, 0.6743907, -0.1404322, 0.7168179,-66.79959, -166.2355, 2259.286, 0.5346136, -0.3668672, 0.3423995, -0.6799701,-11.61097, -239.6397, 2142.753, 0.5346136, -0.3668672, 0.3423995, -0.6799701,-12.81038, -264.673, 2187.951, 0.8588403, -0.01730129, 0.5015272, -0.1027825,-10.30619, -233.0279, 2300.618, 0.67997, 0.3423995, 0.3668672, 0.5346136,-52.12505, -257.2481, 2160.937, 0.8588403, -0.01730129, 0.5015272, -0.1027825,-144.2215, -216.6238, 2228.044, 0.5346136, -0.3668672, 0.3423995, -0.6799701,
162345949, -46.47514, 398.0226, 2308.61, 0.538084, -0.4565682, 0.5053483, -0.4966228,-47.31064, 234.6958, 2296.217, 0.5101969, -0.4834507, 0.4796945, -0.5252311,-48.8758, 103.7784, 2298.628, 0.5332798, -0.4306822, 0.5086606, -0.520951,-60.98701, -94.38145, 2280.788, 0.573339, -0.388504, 0.5415603, -0.4765078,-28.4435, -64.17584, 2288.116, 0.7623318, -0.6312844, -0.1402365, 0.02576736,97.46794, -35.78102, 2311.909, 0.8033938, -0.2184686, -0.4910612, 0.2562982,195.4889, 123.1418, 2483.687, 0.2010365, -0.5328656, -0.0701699, 0.8189718,120.6857, 209.1868, 2303.834, -0.4590732, -0.424188, -0.5047079, 0.5954714,108.1603, 194.2011, 2217.61, 0.474484, 0.3941246, -0.5285181, 0.5832661,84.44368, 207.7823, 2312.978, 0.474484, 0.3941246, -0.5285181, 0.5832661,40.87236, 182.6934, 2202.685, 0.07519003, -0.456131, 0.01047982, 0.8866686,-89.65369, -59.26759, 2281.275, 0.6034051, 0.7686356, -0.1588173, -0.1409917,-199.5052, -9.24436, 2284.303, 0.2249331, 0.7879533, -0.4129926, -0.3974566,-288.1585, 205.2312, 2398.196, -0.4540685, -0.1236502, 0.8809903, 0.0488717,-168.0318, 261.7837, 2228.275, -0.4681293, 0.3956579, 0.7190667, -0.327495,-141.591, 176.1717, 2196.137, 0.5692731, 0.156567, -0.8056604, -0.04823078,-112.0608, 206.1273, 2108.161, 0.5692731, 0.156567, -0.8056604, -0.04823078,-93.51908, 205.3804, 2138.795, 0.5717807, 0.2614642, -0.3954749, 0.6695543,37.01711, 397.136, 2314.666, -0.4930123, 0.4922434, -0.434003, 0.5712063,47.77568, 761.1992, 2265.264, 0.6345549, -0.3493066, 0.5555659, -0.4082542,30.44044, 1079.537, 2412.749, 0.6313571, -0.3498246, 0.5276257, -0.4479085,53.1354, 1225.151, 2324.06, 0.7670707, 0.1244422, 0.6165344, 0.1264987,-121.7638, 398.8221, 2303.15, 0.5370892, 0.4811274, 0.5152529, 0.4632127,-107.1153, 763.5523, 2263.59, 0.3986682, 0.5983193, 0.3727835, 0.5866092,-95.1016, 1087.925, 2407.254, 0.4398673, 0.5683769, 0.3778033, 0.5837201,-81.81389, 1218.709, 2319.153, -0.09958128, 0.6738253, -0.1314192, 0.7202583,-64.03902, -166.92, 2261.983, 0.5211486, -0.3607248, 0.3527009, -0.6883922,-12.70744, -241.4125, 2145.442, 0.5211486, -0.3607248, 0.3527009, -0.6883922,-14.62021, -266.4649, 2190.271, 0.8552745, -0.005673782, 0.5044682, -0.1182591,-10.2742, -235.6849, 2302.435, 0.6883922, 0.3527009, 0.3607248, 0.5211486,-53.5443, -257.4254, 2163.672, 0.8552745, -0.005673782, 0.5044682, -0.1182591,-143.0961, -213.8213, 2231.124, 0.5211486, -0.3607248, 0.3527009, -0.6883922,
162346030, -46.08973, 401.9679, 2312.192, 0.5304533, -0.4640747, 0.5106255, -0.4924587,-47.2784, 237.8393, 2300.686, 0.5065089, -0.487762, 0.4880491, -0.5170542,-48.73533, 106.3157, 2302.007, 0.5260069, -0.4425678, 0.5177368, -0.5093124,-59.79515, -92.79956, 2284.076, 0.5651563, -0.3996234, 0.5515603, -0.4654898,-27.11625, -62.17612, 2290.218, 0.7629691, -0.6306462, -0.1272631, 0.0629888,99.40581, -28.34199, 2305.346, 0.7959887, -0.2147782, -0.4957276, 0.2729953,191.0161, 136.6903, 2476.591, 0.2252732, -0.5302702, -0.1033883, 0.8107876,119.116, 238.2833, 2302.624, 0.5238779, 0.4495888, 0.4920028, -0.5304292,122.2209, 224.4035, 2214.963, 0.4027536, 0.3815383, -0.5464662, 0.6273698,83.91035, 233.2084, 2306.537, 0.4027536, 0.3815383, -0.5464662, 0.6273698,40.29361, 183.756, 2207.729, -0.04349037, -0.4150265, 0.09244726, 0.9040548,-88.8675, -57.79387, 2285.79, 0.6099838, 0.7661029, -0.1488015, -0.1373477,-200.2068, -9.818542, 2289.296, 0.2243959, 0.7881956, -0.4166548, -0.3934374,-289.332, 206.5941, 2401.795, -0.4500406, -0.1288968, 0.8821786, 0.05108776,-167.6611, 265.8167, 2232.65, 0.5062104, -0.3627348, -0.6926514, 0.3638799,-142.4194, 180.4507, 2197.74, 0.6228568, 0.1426705, -0.7687571, -0.02659031,-124.4559, 205.1821, 2104.679, 0.6228568, 0.1426705, -0.7687571, -0.02659031,-95.29412, 204.5291, 2142.427, 0.5784611, 0.2429406, -0.3530482, 0.6940602,37.9025, 401.0779, 2316.211, 0.5055357, -0.4647823, 0.4431377, -0.5762292,58.88183, 768.2711, 2283.868, 0.6402205, -0.330731, 0.550467, -0.4215696,45.28626, 1087.217, 2434.179, 0.6190868, -0.359019, 0.5442802, -0.4377168,63.69123, 1233.973, 2344.876, 0.7512864, 0.1296488, 0.6349191, 0.1250508,-121.8292, 402.7705, 2308.568, 0.533082, 0.4862612, 0.5204384, 0.4566371,-106.6146, 768.9985, 2267.709, 0.3975944, 0.6039113, 0.3775992, 0.5784709,-90.3623, 1095.635, 2409.774, 0.4305454, 0.5804911, 0.3944941, 0.5674815,-82.71806, 1226.135, 2319.331, -0.09474559, 0.6940739, -0.1281295, 0.7020452,-62.94414, -165.6484, 2265.137, 0.516431, -0.3766911, 0.3763177, -0.6706623,-18.42501, -237.1915, 2143.228, 0.516431, -0.3766911, 0.3763177, -0.6706623,-17.3801, -263.4771, 2187.642, 0.8394017, -0.0002640606, 0.5324575, -0.1090579,-6.119944, -235.3289, 2300.559, 0.6706622, 0.3763176, 0.3766911, 0.5164311,-58.12774, -254.0114, 2163.661, 0.8394017, -0.0002640606, 0.5324575, -0.1090579,-143.8893, -212.5323, 2237.995, 0.516431, -0.3766911, 0.3763177, -0.6706623,
162346090, -45.64467, 408.8672, 2317.653, 0.5327377, -0.4660751, 0.5035634, -0.4953669,-45.44339, 242.4705, 2307.642, 0.5093585, -0.4887719, 0.4815643, -0.5193763,-45.88508, 109.2242, 2309.932, 0.5323298, -0.4321594, 0.5091365, -0.5202338,-58.10098, -92.47473, 2292.056, 0.5723346, -0.3899382, 0.5421531, -0.475869,-24.98137, -61.6971, 2299.358, 0.7613478, -0.6298395, -0.1516749, 0.02542522,102.2713, -31.00561, 2325.929, 0.7814411, -0.2417523, -0.5029783, 0.2791389,189.5941, 144.4342, 2494.055, 0.1339355, -0.5571489, -0.03188057, 0.81892,115.1973, 199.6727, 2298.149, 0.510217, 0.4735646, 0.3205026, -0.642412,118.1614, 162.4334, 2216.297, 0.5188738, 0.2121781, -0.5310045, 0.6354405,80.65344, 206.2607, 2299.158, 0.5188738, 0.2121781, -0.5310045, 0.6354405,32.37671, 174.131, 2198.028, 0.190155, -0.4403015, 0.2159884, 0.850485,-87.30415, -56.76407, 2292.615, 0.6072862, 0.7691143, -0.1511058, -0.1297446,-200.4357, -8.838497, 2294.587, 0.2202493, 0.7847792, -0.4146277, -0.4045933,-286.9342, 209.2663, 2413.607, -0.4571856, -0.1197296, 0.8794653, 0.05645152,-165.5093, 266.8114, 2240.094, 0.5151616, -0.3668133, -0.6840447, 0.36351,-142.1996, 179.7446, 2204.583, 0.6297653, 0.1317524, -0.764925, -0.03043984,-125.123, 203.5524, 2109.767, 0.6297653, 0.1317524, -0.764925, -0.03043984,-96.08704, 202.3486, 2147.725, 0.5941427, 0.2434036, -0.3466881, 0.6837811,39.40775, 408.6708, 2322.628, -0.4997503, 0.4694174, -0.4432001, 0.5774693,61.7745, 780.2172, 2285.533, 0.6429348, -0.3246166, 0.5580385, -0.4121309,48.37505, 1099.184, 2446.401, 0.6296467, -0.3426722, 0.5519308, -0.4260201,67.64485, 1251.982, 2363.201, 0.750499, 0.1467263, 0.6288304, 0.1406949,-122.3402, 409.0444, 2313.167, 0.5288225, 0.4905553, 0.5140719, 0.4641468,-107.1712, 780.9351, 2280.163, 0.4026644, 0.5992215, 0.381883, 0.5770273,-91.85067, 1114.138, 2418.88, 0.4333131, 0.5766986, 0.3904243, 0.5720378,-82.58258, 1246.503, 2327.608, -0.09599026, 0.6885458, -0.1283405, 0.7072619,-61.21223, -166.3222, 2273.015, -0.4943153, 0.375947, -0.3872416, 0.6814398,-22.10911, -242.0499, 2149.405, -0.4943153, 0.375947, -0.3872416, 0.6814398,-21.51311, -268.2999, 2194.635, 0.8313844, 0.007986452, 0.5396558, -0.1323171,-6.532291, -239.3684, 2308.519, 0.6814398, 0.3872416, 0.375947, 0.4943153,-62.7261, -256.8878, 2171.017, 0.8313844, 0.007986452, 0.5396558, -0.1323171,-145.9794, -209.9338, 2247.513, -0.4943153, 0.375947, -0.3872416, 0.6814398,
162346151, -45.38486, 406.2375, 2325.159, 0.5345854, -0.4560385, 0.5131165, -0.4929084,-47.60186, 240.9666, 2311.168, 0.5087174, -0.481646, 0.4891593, -0.5195642,-50.04852, 108.3792, 2311.546, 0.5287029, -0.4318162, 0.514479, -0.5189599,-63.8694, -92.15646, 2293.07, 0.5686172, -0.3891677, 0.5474508, -0.4748901,-30.61523, -61.80414, 2300.125, 0.7662479, -0.631862, -0.1146702, 0.02157074,98.67899, -38.14978, 2319.859, 0.7776248, -0.2588508, -0.5215418, 0.237255,186.9129, 126.0305, 2496.708, 0.248464, -0.5760499, -0.0847124, 0.7741163,141.009, 230.0328, 2313.458, -0.4723468, -0.4303209, 0.01377568, 0.7691051,126.9714, 158.6423, 2261.285, 0.4993764, -0.1933488, -0.3846844, 0.7518359,84.1247, 249.027, 2270.676, 0.4993764, -0.1933488, -0.3846844, 0.7518359,51.07142, 185.9059, 2224.998, 0.2282374, -0.4561982, 0.5329689, 0.6750814,-92.65771, -56.41122, 2294.065, 0.6054446, 0.7706983, -0.1420779, -0.1388334,-205.2825, -9.077344, 2299.195, 0.219369, 0.7746368, -0.420054, -0.4187716,-282.8712, 209.3945, 2420.799, -0.4668316, -0.1265013, 0.8720694, 0.07456999,-166.6653, 272.7807, 2247.112, 0.5449153, -0.4363605, -0.698643, 0.1566997,-162.6624, 192.8131, 2193.427, 0.5445117, 0.003532334, -0.8237112, -0.1580964,-122.4717, 210.3899, 2104.953, 0.5445117, 0.003532334, -0.8237112, -0.1580964,-97.68202, 205.1556, 2156.565, 0.6215563, 0.1567213, -0.5112037, 0.5725181,39.2393, 404.6898, 2330.032, -0.4973746, 0.4689585, -0.4434623, 0.5796876,63.57988, 774.1467, 2291.855, 0.6417866, -0.3234271, 0.5585517, -0.4141557,51.84433, 1091.777, 2451.593, 0.6315317, -0.3371745, 0.5528109, -0.4264753,72.36826, 1244.404, 2370.209, 0.7521384, 0.1512524, 0.6255708, 0.141675,-121.6942, 407.6331, 2320.765, 0.5265939, 0.4906261, 0.5201512, 0.4598126,-108.2975, 777.4711, 2284.837, 0.3933465, 0.6062034, 0.3791758, 0.5779461,-92.33409, 1106.164, 2429.492, 0.4259982, 0.5823438, 0.3836679, 0.5763682,-83.21893, 1240.058, 2341.903, -0.1042845, 0.6877831, -0.1370645, 0.7051897,-67.7008, -165.5368, 2273.858, -0.4920374, 0.3725732, -0.3639389, 0.6975936,-24.53025, -246.2061, 2155.746, -0.4920374, 0.3725732, -0.3639389, 0.6975936,-25.77394, -270.3826, 2201.814, 0.8411961, -0.006105315, 0.5207927, -0.1453501,-15.03098, -236.8302, 2314.295, 0.6975936, 0.3639389, 0.3725732, 0.4920374,-65.80646, -259.9034, 2176.305, 0.8411961, -0.006105315, 0.5207927, -0.1453501,-151.2426, -209.6947, 2247.156, -0.4920374, 0.3725732, -0.3639389, 0.6975936,
162346217, -44.94352, 404.4317, 2330.783, 0.5376192, -0.4522991, 0.5106408, -0.4956178,-47.24635, 238.5543, 2316.455, 0.5114059, -0.4779742, 0.4866921, -0.5226237,-49.91035, 105.4637, 2316.702, 0.5317258, -0.4265263, 0.5087139, -0.5258832,-64.34338, -95.862, 2298.85, 0.5721856, -0.3843571, 0.5412801, -0.4815486,-30.97279, -65.51272, 2306.473, 0.7616218, -0.6335807, -0.1343403, 0.02145644,97.51001, -38.43964, 2330.148, 0.7837059, -0.2084237, -0.5429136, 0.2181958,178.8241, 108.1389, 2526.169, 0.2892448, -0.5607102, -0.1542712, 0.7603564,134.6889, 240.8067, 2360.906, -0.3568432, -0.5738791, 0.0757495, 0.7332038,126.3373, 179.6811, 2295.553, 0.393571, -0.3926214, -0.4253511, 0.7141615,87.82251, 270.058, 2272.763, 0.393571, -0.3926214, -0.4253511, 0.7141615,61.66133, 201.0291, 2252.035, 0.2668002, -0.5196373, 0.5344583, 0.6108593,-93.08734, -59.84317, 2299.076, 0.6029464, 0.7714202, -0.1452126, -0.1424076,-205.6748, -11.26567, 2304.551, 0.2126274, 0.7784363, -0.4398829, -0.3941187,-285.1309, 212.754, 2416.642, -0.4428323, -0.115677, 0.8866109, 0.06662977,-157.76, 270.6553, 2247.886, 0.5542324, -0.4721361, -0.6754262, 0.1171047,-162.631, 191.3716, 2192.62, 0.5256942, -0.01656546, -0.8239166, -0.2110276,-118.3458, 210.6596, 2106.056, 0.5256942, -0.01656546, -0.8239166, -0.2110276,-95.26772, 197.4696, 2155.934, 0.6463898, 0.1338754, -0.5292861, 0.5330232,39.93742, 402.7437, 2336.684, 0.5003474, -0.4677081, 0.4389296, -0.5815862,63.02986, 773.612, 2297.53, 0.6457448, -0.3227589, 0.5542933, -0.4142454,47.91813, 1092.42, 2457.67, 0.6363429, -0.3350841, 0.5477652, -0.4274806,69.07255, 1245.752, 2376.343, 0.7562315, 0.1491945, 0.6204947, 0.1443647,-121.4844, 405.9539, 2325.461, 0.5282724, 0.4886895, 0.5099971, 0.4711834,-108.1304, 777.8098, 2296.232, 0.3971049, 0.5985899, 0.3749564, 0.5860083,-96.58183, 1107.731, 2441.928, 0.4268747, 0.5773907, 0.3849564, 0.5798332,-87.58268, 1241.844, 2353.543, -0.1060764, 0.685192, -0.1326509, 0.7082821,-68.13609, -169.5989, 2279.847, -0.4943058, 0.3688745, -0.3809662, 0.6888092,-27.06673, -246.4578, 2157.786, -0.4943058, 0.3688745, -0.3809662, 0.6888092,-27.64923, -272.349, 2203.156, 0.8365886, 0.008550067, 0.5302175, -0.1375346,-14.88222, -242.7338, 2316.995, 0.6888092, 0.3809662, 0.3688745, 0.4943058,-68.20899, -260.7957, 2178.606, 0.8365886, 0.008550067, 0.5302175, -0.1375346,-152.5968, -212.671, 2252.879, -0.4943058, 0.3688745, -0.3809662, 0.6888092,
162346275, -45.02247, 403.2849, 2335.95, 0.5308933, -0.4577938, 0.5138694, -0.4944849,-48.00571, 237.7023, 2322.965, 0.5089871, -0.4796122, 0.4935677, -0.5170059,-50.90226, 104.9337, 2322.106, 0.5298205, -0.4269288, 0.5095402, -0.526679,-65.978, -95.90533, 2304.734, 0.5703502, -0.3846921, 0.542136, -0.4824947,-32.57184, -65.7176, 2312.194, 0.760704, -0.6344401, -0.1351111, 0.02366831,95.52567, -38.10486, 2335.557, 0.7874016, -0.1989145, -0.5297046, 0.2446318,177.6423, 115.2457, 2525.158, 0.2992386, -0.5382603, -0.1744413, 0.7683113,125.4954, 255.1038, 2369.082, -0.3015371, -0.6029133, 0.09927744, 0.7319254,115.7458, 198.3769, 2300.335, 0.392999, -0.4482896, -0.415207, 0.6871618,86.65113, 290.1726, 2271.184, 0.392999, -0.4482896, -0.415207, 0.6871618,62.12731, 229.3443, 2251.437, 0.3465094, -0.5213589, 0.5202438, 0.5809152,-94.54033, -59.88111, 2304.962, 0.6048617, 0.7681939, -0.157396, -0.1387326,-206.212, -9.718496, 2307.747, 0.1868368, 0.7856081, -0.4432364, -0.3891702,-285.96, 210.9932, 2424.637, -0.4234636, -0.1165061, 0.8944634, 0.083905,-151.6351, 272.1146, 2263.241, 0.5717348, -0.4922011, -0.6558048, 0.02788258,-165.1072, 200.9738, 2199.387, 0.5135024, -0.1123365, -0.8122329, -0.2529299,-120.8624, 208.6157, 2111.272, 0.5135024, -0.1123365, -0.8122329, -0.2529299,-96.02583, 199.0613, 2167.255, 0.6658837, 0.1079285, -0.5773236, 0.4600519,39.7402, 401.4067, 2340.427, -0.4993388, 0.4645619, -0.4504346, 0.5761524,65.71642, 771.8943, 2308.564, 0.6374667, -0.3242794, 0.5599599, -0.4182392,57.50787, 1091.23, 2466.259, 0.6255971, -0.3405189, 0.5565641, -0.4276817,77.79257, 1243.447, 2383.515, 0.748807, 0.1514965, 0.630609, 0.136635,-121.4567, 404.9786, 2331.914, 0.5196066, 0.4975041, 0.5189424, 0.4617331,-108.4231, 775.9205, 2302.176, 0.3908123, 0.6094572, 0.3812624, 0.5748622,-91.01942, 1104.973, 2447.146, 0.4172752, 0.5899751, 0.3832553, 0.5752617,-83.68942, 1240.496, 2361.49, -0.1097317, 0.6928696, -0.1427, 0.6982316,-70.04155, -169.4935, 2285.933, 0.5121483, -0.3643038, 0.3775673, -0.6800219,-24.60523, -242.3692, 2163.413, 0.5121483, -0.3643038, 0.3775673, -0.6800219,-25.09222, -269.1029, 2208.148, 0.8429917, 0.00937869, 0.524582, -0.1187046,-15.19052, -241.4367, 2322.472, 0.6800219, 0.3775672, 0.3643038, 0.5121483,-65.5006, -258.3959, 2183.198, 0.8429917, 0.00937869, 0.524582, -0.1187046,-152.4101, -214.6025, 2256.764, 0.5121483, -0.3643038, 0.3775673, -0.6800219,
162346333, -45.27544, 403.2028, 2337.526, 0.5297456, -0.4585284, 0.514072, -0.4948245,-48.43256, 237.7385, 2324.885, 0.5071338, -0.4810145, 0.4930957, -0.5179739,-51.46891, 105.0833, 2324.648, 0.526677, -0.4296294, 0.5098513, -0.5273345,-66.93408, -95.66013, 2308.561, 0.5672694, -0.3873591, 0.5426627, -0.4834001,-33.4682, -65.50609, 2315.643, 0.7593204, -0.6368178, -0.1313466, 0.02537103,94.76501, -38.13382, 2337.873, 0.7906699, -0.2015016, -0.5233094, 0.2457345,179.9965, 115.9878, 2525.163, 0.2989527, -0.5351875, -0.1674214, 0.7721215,126.3965, 254.2711, 2368.431, -0.3049849, -0.5906817, 0.1014027, 0.740133,114.521, 196.7579, 2300.781, 0.4086881, -0.4357868, -0.4114332, 0.6883217,85.75755, 289.364, 2274.279, 0.4086881, -0.4357868, -0.4114332, 0.6883217,59.28575, 225.9107, 2253.52, 0.3298033, -0.5164819, 0.5328465, 0.5835673,-95.41621, -59.62204, 2308.742, 0.6071666, 0.7664589, -0.1537026, -0.1423542,-207.0251, -9.645309, 2312.605, 0.1866482, 0.7854466, -0.4388251, -0.3945487,-286.5353, 209.5134, 2432.052, -0.4276763, -0.119712, 0.8917191, 0.08717287,-154.2226, 272.4577, 2269.947, 0.5735756, -0.4910958, -0.654839, 0.03196516,-167.8065, 201.1604, 2206.416, 0.5159552, -0.1081702, -0.8113499, -0.2525884,-123.9168, 209.5712, 2118.289, 0.5159552, -0.1081702, -0.8113499, -0.2525884,-102.6285, 199.739, 2172.8, 0.6810598, 0.112835, -0.5672989, 0.4489964,39.42139, 401.2565, 2341.849, -0.4988799, 0.4642193, -0.4511452, 0.5762702,65.95377, 771.4067, 2310.229, 0.6373072, -0.3234211, 0.5607435, -0.4180968,58.29269, 1090.197, 2468.371, 0.6256725, -0.3393652, 0.5574204, -0.4273729,78.75832, 1242.467, 2386.084, 0.7486417, 0.15292, 0.6304045, 0.136899,-121.6503, 404.9579, 2333.627, 0.5181642, 0.4992033, 0.5177364, 0.4628725,-108.4814, 775.7365, 2305.944, 0.3891752, 0.6107829, 0.3797202, 0.5755862,-90.84735, 1103.72, 2452.538, 0.4160283, 0.5910974, 0.3813338, 0.5762888,-83.36179, 1239.583, 2367.693, -0.111353, 0.6923122, -0.1448452, 0.698086,-71.21393, -169.2886, 2290.233, 0.5128325, -0.3690863, 0.3686247, -0.6818312,-24.59163, -243.86, 2169.345, 0.5128325, -0.3690863, 0.3686247, -0.6818312,-25.0378, -269.7697, 2214.512, 0.8447549, -0.0003263794, 0.5216405, -0.1195002,-15.92064, -239.9957, 2328.267, 0.6818312, 0.3686247, 0.3690863, 0.5128325,-65.39376, -259.8936, 2189.217, 0.8447549, -0.0003263794, 0.5216405, -0.1195002,-152.9619, -215.6328, 2261.541, 0.5128325, -0.3690863, 0.3686247, -0.6818312,
162346431, -45.15726, 401.9311, 2350.69, 0.5360504, -0.4535922, 0.5138662, -0.4927936,-47.5934, 237.1699, 2335.937, 0.5134994, -0.4760965, 0.4930886, -0.51625,-50.1465, 104.949, 2333.981, 0.52736, -0.4259642, 0.5142292, -0.5253705,-66.53313, -94.87918, 2315.761, 0.5677928, -0.3833545, 0.5467325, -0.4813877,-33.02225, -65.05999, 2323.093, 0.7631655, -0.6327245, -0.1295008, 0.0216264,94.96954, -38.96046, 2345.667, 0.7977078, -0.1982237, -0.5164673, 0.2400649,184.9824, 111.6557, 2532.428, 0.2872818, -0.5319707, -0.1517838, 0.781945,127.1365, 243.0183, 2372.252, -0.2931299, -0.5414425, 0.145042, 0.7745177,103.93, 182.6845, 2310.651, 0.4941147, -0.4141601, -0.3777148, 0.6645702,87.03175, 279.8406, 2292.895, 0.4941147, -0.4141601, -0.3777148, 0.6645702,58.66965, 209.1015, 2261.959, 0.3236743, -0.5290759, 0.5653153, 0.5438127,-94.75272, -58.82905, 2316.389, 0.6078129, 0.7703441, -0.1465559, -0.1251194,-207.6475, -12.74407, 2318.171, 0.1911282, 0.7938005, -0.4496298, -0.362193,-294.6733, 209.7911, 2423.434, -0.4026312, -0.1399262, 0.9015025, 0.07484584,-156.0173, 277.8665, 2269.884, 0.5537783, -0.4484239, -0.6962568, 0.08644164,-156.7659, 203.2144, 2209.302, 0.5309768, -0.07559454, -0.8247077, -0.179461,-114.9372, 209.7042, 2120.371, 0.5309768, -0.07559454, -0.8247077, -0.179461,-97.96706, 203.8853, 2180.472, 0.6718872, 0.09999415, -0.5311742, 0.5063819,39.22557, 400.2262, 2355.797, -0.4928917, 0.4735692, -0.4483073, 0.57603,63.57126, 768.6603, 2317.319, 0.6448635, -0.3146776, 0.5711651, -0.3986219,53.01914, 1078.596, 2489.666, 0.6418139, -0.3193267, 0.5877832, -0.3749884,64.90356, 1239.755, 2425.901, 0.7232134, 0.188808, 0.6379669, 0.1852352,-121.249, 403.4685, 2346.085, 0.5128778, 0.5051331, 0.5314842, 0.4464543,-107.7482, 772.4123, 2311.177, 0.4534325, 0.5673621, 0.4644579, 0.5067327,-88.02905, 1126.117, 2366.318, 0.458167, 0.5628403, 0.469019, 0.5033039,-91.99088, 1238.607, 2252.84, -0.02955904, 0.733874, -0.06317105, 0.6756957,-71.17669, -168.0413, 2296.689, 0.5163273, -0.380611, 0.3560076, -0.6795586,-23.05614, -244.1561, 2177.968, 0.5163273, -0.380611, 0.3560076, -0.6795586,-22.78642, -268.8608, 2223.615, 0.845619, -0.01739723, 0.5208681, -0.1154221,-14.2637, -236.1647, 2336.212, 0.6795587, 0.3560076, 0.3806111, 0.5163272,-63.28389, -260.6487, 2198.254, 0.845619, -0.01739723, 0.5208681, -0.1154221,-151.5276, -216.943, 2269.42, 0.5163273, -0.380611, 0.3560076, -0.6795586,
162346479, -45.45649, 400.5063, 2358.546, 0.5419139, -0.4450161, 0.510982, -0.4971794,-48.41427, 235.3366, 2342.503, 0.5180115, -0.4684806, 0.4895589, -0.5220366,-51.64971, 102.71, 2340.112, 0.5304111, -0.4254203, 0.5106065, -0.5262725,-66.97957, -97.8687, 2322.014, 0.5709063, -0.3831029, 0.5430778, -0.4820421,-33.56576, -67.78118, 2329.6, 0.7620944, -0.632175, -0.1389132, 0.01643362,94.22047, -41.09227, 2354.995, 0.8028505, -0.1783745, -0.514164, 0.243411,184.9132, 106.5447, 2544.919, 0.2819231, -0.5194079, -0.1624731, 0.7901502,119.8639, 239.0952, 2387.574, -0.2682774, -0.5705621, 0.172023, 0.7568977,99.11144, 179.4618, 2324.027, 0.4775911, -0.4616017, -0.3769044, 0.6455801,87.28361, 276.4284, 2300.304, 0.4775911, -0.4616017, -0.3769044, 0.6455801,57.30847, 209.5119, 2271.736, 0.3624347, -0.5265955, 0.5693385, 0.516906,-95.46703, -61.83704, 2322.352, 0.607016, 0.7699093, -0.1525572, -0.1244893,-208.3261, -14.60601, 2323.145, 0.1846401, 0.7893087, -0.4600588, -0.3622785,-290.6306, 210.6803, 2428.451, -0.3996068, -0.1180597, 0.9059383, 0.07518044,-148.0006, 270.5496, 2274.124, 0.5550136, -0.4901539, -0.6715303, 0.02749479,-157.57, 198.446, 2210.774, -0.4951244, 0.09107652, 0.8263831, 0.2522853,-108.8459, 208.2574, 2125.375, -0.4951244, 0.09107652, 0.8263831, 0.2522853,-91.11287, 197.4337, 2180.373, 0.6659741, 0.1015412, -0.5795589, 0.4585621,39.05934, 398.3196, 2365.477, -0.4840623, 0.4814624, -0.4394482, 0.5837491,64.29396, 766.3986, 2314.578, 0.6536872, -0.303458, 0.5769233, -0.3844033,50.48816, 1069.906, 2500.004, 0.6559788, -0.2987965, 0.6016476, -0.3441404,59.26817, 1236.468, 2449.457, 0.7114939, 0.2133233, 0.6334003, 0.2169646,-121.6681, 402.4782, 2352.295, 0.5101045, 0.5093549, 0.5258994, 0.4514208,-107.0478, 773.1318, 2323.774, 0.47127, 0.5509742, 0.482108, 0.4918374,-88.58341, 1130.953, 2355.273, 0.4746414, 0.5475907, 0.4905003, 0.4840138,-94.26556, 1235.276, 2233.63, -0.004126152, 0.7381637, -0.03732961, 0.6735755,-71.12859, -171.3183, 2302.958, 0.5254902, -0.3655177, 0.3763763, -0.6697744,-23.2973, -240.9183, 2179.607, 0.5254902, -0.3655177, 0.3763763, -0.6697744,-23.05801, -268.2822, 2223.908, 0.8451797, 0.007678185, 0.5245983, -0.1020244,-14.23418, -242.0257, 2338.547, 0.6697744, 0.3763763, 0.3655177, 0.5254901,-63.68939, -258.4535, 2199.041, 0.8451797, 0.007678185, 0.5245983, -0.1020244,-151.9585, -218.4385, 2272.965, 0.5254902, -0.3655177, 0.3763763, -0.6697744,
162346545, -45.31663, 405.6044, 2366.272, 0.5441329, -0.4381734, 0.5107736, -0.5010328,-49.5604, 238.7173, 2349.129, 0.5201468, -0.461543, 0.4897587, -0.5258915,-53.96834, 104.6653, 2345.908, 0.5356272, -0.4240696, 0.5024489, -0.5299185,-67.68179, -98.36313, 2328.646, 0.5763981, -0.3824107, 0.5348383, -0.4852581,-34.26194, -67.64886, 2336.741, 0.758378, -0.634827, -0.1467384, 0.01804224,94.32915, -38.91645, 2363.59, 0.7955452, -0.2001253, -0.5019365, 0.2740758,184.2398, 126.6625, 2542.672, 0.2520663, -0.5226653, -0.1371545, 0.8027903,112.9915, 246.2398, 2374.67, -0.2992776, -0.4871961, 0.1976275, 0.7962514,80.07314, 180.6042, 2321.634, 0.5166972, -0.4257583, -0.3084583, 0.6757273,69.55234, 278.2774, 2295.549, 0.5166972, -0.4257583, -0.3084583, 0.6757273,49.2499, 209.8808, 2263.772, 0.3613386, -0.5468499, 0.5763428, 0.4880766,-96.74622, -62.13895, 2328.218, 0.6080838, 0.7704408, -0.1514823, -0.117082,-211.3838, -15.64912, 2327.746, 0.1787018, 0.7881093, -0.4702648, -0.3546836,-292.4583, 214.2522, 2431.302, -0.3906185, -0.1011561, 0.9121583, 0.07177717,-143.4665, 267.4126, 2277.07, 0.5192087, -0.5425502, -0.6545131, -0.08760232,-158.2716, 201.2214, 2206.99, -0.4020625, 0.1332062, 0.8396453, 0.3399964,-94.21049, 206.1876, 2130.485, -0.4020625, 0.1332062, 0.8396453, 0.3399964,-107.0505, 193.6806, 2179.224, 0.7305292, 0.04271375, -0.6158506, 0.2919431,40.02006, 402.6041, 2374.354, -0.4925502, 0.4754125, -0.4322061, 0.5870052,63.65201, 775.1201, 2324.505, 0.6510741, -0.3169525, 0.5588976, -0.4040758,46.12073, 1091.99, 2494.239, 0.639212, -0.3343483, 0.5598088, -0.4077173,62.54543, 1249.646, 2417.24, 0.7443831, 0.158295, 0.6285878, 0.1603556,-122.2685, 408.3098, 2358.984, 0.5271111, 0.4918169, 0.5068833, 0.4725879,-107.4247, 783.2797, 2332.835, 0.4335507, 0.5750315, 0.4100514, 0.5596699,-93.87586, 1131.275, 2437.61, 0.4524511, 0.5606946, 0.433441, 0.5413304,-90.20014, 1253.797, 2331.486, -0.06053394, 0.7074294, -0.0867371, 0.6988248,-70.99008, -172.7791, 2309.788, 0.5365958, -0.3445012, 0.3683146, -0.6765562,-16.58655, -241.4918, 2186.636, 0.5365958, -0.3445012, 0.3683146, -0.6765562,-18.63235, -269.7957, 2230.985, 0.857828, 0.0168386, 0.5040368, -0.0989669,-15.46215, -244.9236, 2347.568, 0.6765562, 0.3683146, 0.3445011, 0.5365958,-58.39039, -259.3965, 2203.967, 0.857828, 0.0168386, 0.5040368, -0.0989669,-151.1888, -219.7792, 2274.738, 0.5365958, -0.3445012, 0.3683146, -0.6765562,
162346618, -46.46995, 404.0695, 2376.574, 0.5372493, -0.4447122, 0.5210471, -0.4920408,-51.18931, 237.4599, 2358.539, 0.5174638, -0.4648784, 0.5031372, -0.5128081,-55.51053, 103.6312, 2352.658, 0.5344377, -0.4231474, 0.5042557, -0.5301404,-70.04682, -99.10716, 2335.102, 0.5752302, -0.3813466, 0.5365652, -0.4855747,-36.52372, -68.56983, 2343.175, 0.7574933, -0.632875, -0.1590966, 0.01901219,90.91237, -37.64899, 2372.32, 0.7910525, -0.2193424, -0.4912139, 0.2912625,181.2166, 137.9723, 2540.952, 0.2402011, -0.5247854, -0.1183319, 0.8080231,108.4623, 249.6456, 2368.501, -0.3333367, -0.449991, 0.1769679, 0.8093683,74.0737, 181.4477, 2319.979, 0.4977545, -0.3933017, -0.2812887, 0.7200214,54.26245, 276.697, 2290.904, 0.4977545, -0.3933017, -0.2812887, 0.7200214,45.19994, 209.6396, 2261.202, -0.3453669, 0.5650985, -0.5563307, -0.501878,-98.93917, -62.80436, 2334.792, 0.6098208, 0.7667562, -0.1704191, -0.1056439,-212.5839, -14.58441, 2329.127, 0.1677846, 0.7925459, -0.4691346, -0.3516136,-295.2858, 213.393, 2434.941, -0.3827932, -0.09001017, 0.9165775, 0.07247874,-142.8325, 262.058, 2282.943, -0.483232, 0.5451226, 0.6541848, 0.2033972,-152.7532, 205.8018, 2204.017, -0.3204433, 0.1523493, 0.8377984, 0.4149694,-78.07668, 206.8669, 2137.808, -0.3204433, 0.1523493, 0.8377984, 0.4149694,-94.16221, 194.2168, 2184.853, 0.6719258, 0.02640986, -0.7044423, 0.2271102,39.00003, 401.0783, 2381.842, -0.471253, 0.502032, -0.4541089, 0.5653931,58.47526, 773.0787, 2329.291, 0.6175619, -0.3450898, 0.5823838, -0.4004491,58.13753, 1095.416, 2488.539, 0.5957311, -0.3761261, 0.5773324, -0.4126995,67.09667, 1246.672, 2398.911, 0.7172866, 0.1408136, 0.6706166, 0.1262729,-123.542, 406.7669, 2371.823, 0.5060551, 0.5158103, 0.5432996, 0.4274031,-106.8928, 779.9517, 2330.877, 0.4803514, 0.5466455, 0.5122477, 0.4561178,-85.41476, 1142.62, 2333.257, 0.4855668, 0.5376863, 0.5458492, 0.4209119,-104.2486, 1230.297, 2198.378, 0.0483377, 0.7698942, 0.0086329, 0.6362797,-73.68303, -173.4026, 2316.146, 0.5641947, -0.3513422, 0.3480456, -0.6611409,-11.74615, -238.3425, 2194.704, 0.5641947, -0.3513422, 0.3480456, -0.6611409,-12.71591, -266.5325, 2239.099, 0.8664431, -0.002331046, 0.4945419, -0.06855135,-13.96959, -241.1035, 2355.475, 0.6611409, 0.3480456, 0.3513422, 0.5641947,-52.47148, -259.1633, 2211.187, 0.8664431, -0.002331046, 0.4945419, -0.06855135,-149.3679, -226.1952, 2279.62, 0.5641947, -0.3513422, 0.3480456, -0.6611409,
162346686, -46.59861, 404.0381, 2383.983, 0.5413276, -0.4400091, 0.5168854, -0.4961711,-51.28304, 237.3496, 2365.811, 0.5203786, -0.4609765, 0.4982761, -0.5180998,-55.76429, 103.4354, 2360.329, 0.5422767, -0.4166267, 0.5034407, -0.5281151,-69.11014, -99.19523, 2339.572, 0.5828815, -0.3749124, 0.5352299, -0.4829273,-35.82823, -68.61395, 2348.567, 0.7599834, -0.6244029, -0.1801216, 0.01011873,89.83035, -36.31356, 2383.667, 0.7791255, -0.2247402, -0.5034854, 0.2982579,171.6982, 143.2424, 2552.681, 0.2093699, -0.540437, -0.1092409, 0.8075632,100.1302, 242.7346, 2372.307, -0.355394, -0.4584271, 0.1982332, 0.7900907,69.76054, 170.8283, 2326.436, 0.5179856, -0.3959554, -0.3044193, 0.6944345,54.53944, 268.4095, 2302.606, 0.5179856, -0.3959554, -0.3044193, 0.6944345,39.36429, 196.6824, 2265.198, -0.337241, 0.5768002, -0.5638303, -0.4854538,-98.1814, -63.0019, 2339.392, 0.6027216, 0.7739886, -0.1641399, -0.1035692,-212.5155, -16.14721, 2334.751, 0.1702507, 0.793409, -0.4854943, -0.3252877,-296.4291, 217.1286, 2427.638, -0.3620939, -0.09208555, 0.9255933, 0.06070754,-137.2489, 264.4821, 2282.082, -0.4759786, 0.5422512, 0.6843913, 0.1049599,-144.1327, 196.2124, 2212.837, -0.3475651, 0.0959952, 0.8678783, 0.3417172,-70.23843, 203.294, 2146.04, -0.3475651, 0.0959952, 0.8678783, 0.3417172,-92.74944, 187.9825, 2190.866, 0.7052106, 0.01244092, -0.643642, 0.2970658,38.81128, 400.9047, 2390.708, -0.469061, 0.5025188, -0.4551019, 0.5659848,59.48089, 772.9276, 2337.298, 0.6255164, -0.3305294, 0.591946, -0.3861082,59.1065, 1087.453, 2511.875, 0.6302108, -0.3093845, 0.6441932, -0.3035303,58.49936, 1258.195, 2468.6, 0.6648049, 0.235856, 0.6713102, 0.2274841,-123.6165, 406.8636, 2377.918, 0.5191125, 0.505486, 0.5298209, 0.4407903,-104.8212, 780.3346, 2338.646, 0.5026191, 0.5246735, 0.5108117, 0.4595249,-84.5312, 1143.101, 2327.273, 0.4802671, 0.5503098, 0.5165934, 0.446804,-96.66452, 1240.428, 2198.264, 0.02616804, 0.7583389, -0.02089747, 0.6509997,-72.13467, -173.258, 2319.461, 0.5600823, -0.3503177, 0.3553452, -0.6612982,-12.0827, -237.9795, 2196.859, 0.5600823, -0.3503177, 0.3553452, -0.6612982,-12.95116, -266.5205, 2241.065, 0.8636463, 0.003554934, 0.498979, -0.07157038,-12.79638, -241.9813, 2357.706, 0.6612981, 0.3553452, 0.3503177, 0.5600823,-52.90718, -258.4741, 2213.582, 0.8636463, 0.003554934, 0.498979, -0.07157038,-148.8103, -224.9224, 2283.242, 0.5600823, -0.3503177, 0.3553452, -0.6612982,
162346752, -46.98221, 402.1871, 2389.102, 0.5424769, -0.4390455, 0.5209219, -0.4915265,-51.51422, 235.7999, 2369.161, 0.5218209, -0.4600803, 0.5024407, -0.5134028,-55.81105, 102.0303, 2362.204, 0.5253744, -0.4355742, 0.5228269, -0.5107924,-69.85977, -100.4618, 2341.787, 0.5646444, -0.3922442, 0.5560732, -0.4670159,-36.14868, -69.79561, 2348.449, 0.767249, -0.6245502, -0.1399615, 0.04094814,92.46355, -37.87175, 2370.428, 0.7688254, -0.2343947, -0.425111, 0.41623,168.3031, 180.0663, 2489.497, 0.07326327, -0.4840395, -0.03695828, 0.8711902,54.82722, 215.6843, 2306.871, 0.5149896, 0.2106669, -0.04795978, -0.829521,24.87998, 132.9473, 2285.784, 0.7252263, -0.08450399, -0.1988461, 0.6537324,31.60031, 232.6342, 2303.85, 0.7252263, -0.08450399, -0.1988461, 0.6537324,14.04579, 126.5255, 2239.497, 0.1270149, 0.6839508, -0.2809072, -0.6611881,-98.98486, -64.40599, 2343.836, 0.6133448, 0.7666126, -0.1627636, -0.09808866,-213.6335, -18.69879, 2337.748, 0.1864043, 0.7838074, -0.4812669, -0.3453716,-292.5309, 214.976, 2433.523, -0.3895621, -0.06060713, 0.9177683, 0.04763847,-140.4398, 247.7194, 2276.986, -0.2598047, 0.5751151, 0.5944546, 0.498365,-128.2455, 203.0728, 2191.258, 0.2920439, -0.2111264, 0.7997246, 0.4801839,-54.36592, 208.783, 2258.111, 0.2920439, -0.2111264, 0.7997246, 0.4801839,-79.36533, 186.1279, 2191.656, 0.5095831, -0.07497521, -0.8532757, -0.08139095,38.42114, 399.1241, 2395.25, -0.4832105, 0.4879917, -0.4585519, 0.5640051,59.76657, 772.5178, 2354.884, 0.6250992, -0.3354301, 0.5795662, -0.4010494,57.42089, 1092.551, 2518.649, 0.6022722, -0.3683923, 0.5825618, -0.4027121,65.71957, 1246.455, 2433.604, 0.7148777, 0.1500516, 0.6688898, 0.1379162,-123.9942, 404.9492, 2383.557, 0.511014, 0.5180333, 0.5260977, 0.4401448,-101.8284, 778.8078, 2352.869, 0.4926085, 0.5392103, 0.5043579, 0.4606651,-77.55277, 1141.285, 2352.829, 0.4959135, 0.5331927, 0.5392725, 0.4230371,-92.40051, 1228.071, 2216.893, 0.05417837, 0.7621244, 0.007094282, 0.6451207,-74.05397, -174.4272, 2321.707, 0.5711941, -0.3484631, 0.3550566, -0.6528749,-12.00154, -235.8036, 2198.496, 0.5711941, -0.3484631, 0.3550566, -0.6528749,-12.41466, -265.0219, 2242.226, 0.8655475, 0.004662216, 0.4974635, -0.05775698,-13.36073, -242.3128, 2359.158, 0.6528748, 0.3550565, 0.3484631, 0.5711941,-52.39444, -257.4747, 2214.689, 0.8655475, 0.004662216, 0.4974635, -0.05775698,-149.3051, -227.2391, 2284.34, 0.5711941, -0.3484631, 0.3550566, -0.6528749,
162346840, -47.65809, 401.5489, 2395.808, 0.5412885, -0.4388018, 0.5227649, -0.4910974,-52.69496, 234.9124, 2375.603, 0.526222, -0.4543776, 0.5092849, -0.5072083,-57.16106, 101.1114, 2365.531, 0.5236451, -0.4376186, 0.5243009, -0.5093077,-71.24022, -101.7564, 2345.293, 0.5628017, -0.3941638, 0.5577064, -0.4656746,-37.44585, -71.01077, 2351.721, 0.7671658, -0.6240697, -0.1416263, 0.04399664,91.19572, -38.14105, 2373.572, 0.7704954, -0.2342272, -0.4154211, 0.4229655,168.4646, 182.0223, 2488.551, 0.06360993, -0.4760146, -0.02910742, 0.8766508,50.84904, 212.4209, 2307.149, -0.4802764, -0.2082995, 0.02593161, 0.8516299,14.31953, 133.0666, 2282.981, 0.7644812, -0.05870507, -0.2015313, 0.609514,32.19584, 230.2603, 2307.042, 0.7644812, -0.05870507, -0.2015313, 0.609514,12.1694, 120.5331, 2244.243, 0.1948171, 0.6735066, -0.2568068, -0.6651957,-100.4252, -65.65511, 2347.522, 0.6141306, 0.7664817, -0.1588714, -0.100546,-215.4636, -20.21906, 2342.446, 0.1836282, 0.789251, -0.4884631, -0.323678,-298.4938, 215.6443, 2430.316, -0.3698476, -0.06755696, 0.9257156, 0.04122411,-139.9104, 250.0385, 2280.161, -0.2444241, 0.5586534, 0.5951079, 0.5234594,-122.5599, 206.9165, 2194.347, 0.3162693, -0.2116948, 0.7883098, 0.4834529,-51.54561, 209.7118, 2264.662, 0.3162693, -0.2116948, 0.7883098, 0.4834529,-76.2604, 185.0915, 2197.297, -0.4886655, 0.09543364, 0.8629289, 0.08632704,37.90688, 398.2513, 2401.673, -0.4866723, 0.4829672, -0.456976, 0.5666266,60.43611, 772.4216, 2363.037, 0.6291825, -0.3310524, 0.576622, -0.4025429,56.49889, 1092.342, 2528.367, 0.6129555, -0.3536848, 0.5971819, -0.3775797,62.14281, 1251.927, 2453.552, 0.7047428, 0.1709322, 0.668954, 0.1631574,-124.8158, 404.5225, 2390.518, 0.5125805, 0.5170742, 0.5237675, 0.4422252,-102.1515, 779.0706, 2360.547, 0.4941997, 0.5380356, 0.5021986, 0.4626889,-77.61156, 1142.167, 2361.098, 0.4917293, 0.5395008, 0.5297051, 0.4319188,-90.84145, 1233.003, 2227.32, 0.04488724, 0.7598847, -0.004086204, 0.6484935,-75.52911, -175.8661, 2325.251, 0.5898015, -0.3566358, 0.3576948, -0.630079,-12.23866, -231.0416, 2199.44, 0.5898015, -0.3566358, 0.3576948, -0.630079,-10.32477, -261.2817, 2242.542, 0.8625858, 0.0007488293, 0.505108, -0.0284804,-10.51205, -241.296, 2360.186, 0.6300789, 0.3576948, 0.3566358, 0.5898016,-51.18753, -255.2867, 2215.777, 0.8625858, 0.0007488293, 0.505108, -0.0284804,-148.565, -231.9303, 2287.765, 0.5898015, -0.3566358, 0.3576948, -0.630079,
162346909, -47.55791, 403.7419, 2404.526, 0.5423245, -0.4312006, 0.5279366, -0.491155,-54.51905, 235.8112, 2381.72, 0.5218546, -0.4523606, 0.5099224, -0.5128517,-60.76728, 100.6721, 2372.475, 0.5260054, -0.4385526, 0.5278527, -0.502356,-73.61889, -104.0714, 2349.69, 0.564597, -0.3948099, 0.5613217, -0.4585559,-39.66709, -72.83887, 2356.274, 0.7734886, -0.6207327, -0.1217139, 0.03989921,91.78213, -43.91386, 2375.132, 0.766771, -0.2546787, -0.3664362, 0.4614386,172.0707, 191.0375, 2461.02, 0.02670332, -0.4459616, 0.01596829, 0.8945112,39.58702, 198.4312, 2284.902, 0.5299315, 0.2004381, 0.05010759, -0.822488,12.30777, 116.3748, 2254.841, 0.6843578, 0.004371378, -0.2065601, 0.6992626,5.807971, 214.5115, 2284.513, 0.6843578, 0.004371378, -0.2065601, 0.6992626,-34.87524, 91.31178, 2251.025, -0.1960633, -0.5121964, 0.4593519, 0.6987202,-103.3494, -67.86309, 2352.622, 0.6093259, 0.7689061, -0.1593713, -0.1100278,-219.0013, -20.45544, 2349.494, 0.1773268, 0.7764668, -0.4815006, -0.3658027,-290.929, 214.4407, 2455.851, -0.4013508, -0.05105043, 0.9122157, 0.06460644,-140.7325, 246.8187, 2293.815, -0.2216854, 0.5730975, 0.5257695, 0.5882016,-124.6978, 211.1642, 2203.327, 0.3619782, -0.1128655, 0.7695036, 0.513904,-52.75509, 191.1361, 2271.294, 0.3619782, -0.1128655, 0.7695036, 0.513904,-76.2636, 186.8928, 2207.86, -0.4452353, 0.092262, 0.8730667, 0.1760902,38.80162, 399.3297, 2410.655, -0.493355, 0.4778519, -0.4647392, 0.5588166,60.31251, 778.2427, 2381.919, 0.6238035, -0.3376862, 0.5747132, -0.4080954,58.0116, 1104.627, 2542.476, 0.6079341, -0.359456, 0.5648614, -0.4267777,74.41896, 1257.67, 2452.859, 0.7357488, 0.1438429, 0.6499158, 0.1248699,-125.4321, 407.7205, 2399, 0.5141739, 0.5180102, 0.5163832, 0.4479276,-100.5599, 786.2507, 2373.542, 0.4389548, 0.591539, 0.4301823, 0.5218655,-69.24313, 1141.725, 2461.666, 0.4594685, 0.5737842, 0.4520889, 0.5052484,-69.02308, 1260.259, 2348.516, -0.03011993, 0.7297347, -0.08289497, 0.678018,-77.55721, -178.7068, 2328.585, 0.5976191, -0.3496945, 0.3739342, -0.6170399,-14.99214, -228.2801, 2198.327, 0.5976191, -0.3496945, 0.3739342, -0.6170399,-12.18097, -260.6687, 2240.456, 0.8588936, 0.01714007, 0.5116829, -0.01373264,-10.83973, -245.6711, 2360.037, 0.61704, 0.3739342, 0.3496945, 0.5976191,-53.88482, -253.815, 2214.29, 0.8588936, 0.01714007, 0.5116829, -0.01373264,-151.3821, -234.2935, 2289.321, 0.5976191, -0.3496945, 0.3739342, -0.6170399,
162346958, -47.59418, 403.1914, 2408.82, 0.5420218, -0.4322866, 0.5297756, -0.4885474,-54.31044, 235.9024, 2385.61, 0.5198846, -0.4552937, 0.5101386, -0.5120412,-60.37201, 101.1895, 2376.945, 0.5205998, -0.4434521, 0.5316567, -0.4996673,-73.71362, -102.9036, 2355.121, 0.558993, -0.3993886, 0.5655063, -0.4563094,-39.75035, -71.78568, 2361.006, 0.7745841, -0.6211298, -0.1143803, 0.03368366,91.83444, -45.47433, 2379.337, 0.7625733, -0.2638566, -0.3696689, 0.460659,170.9741, 189.5417, 2463.301, 0.02605492, -0.4536688, 0.02144605, 0.8905312,41.9835, 195.463, 2285.502, 0.547623, 0.3336628, 0.2792151, -0.7147148,32.2002, 136.2636, 2216.781, 0.5588292, 0.1889938, -0.3918842, 0.7059872,1.080643, 201.877, 2288.938, 0.5588292, 0.1889938, -0.3918842, 0.7059872,-30.075, 84.16459, 2240.361, -0.2531743, -0.4391612, 0.3848016, 0.7713417,-103.2601, -66.78857, 2358.429, 0.6115785, 0.7683971, -0.1474043, -0.1175142,-219, -20.65477, 2358.466, 0.1794145, 0.7747346, -0.482143, -0.3676068,-289.6412, 213.8249, 2464.262, -0.403703, -0.05406471, 0.9109076, 0.06594147,-140.951, 247.59, 2302.189, -0.2370069, 0.5857433, 0.5028704, 0.5897915,-129.3091, 215.4509, 2210.1, 0.3512918, -0.08189365, 0.7676374, 0.5297361,-54.86878, 190.6513, 2273.101, 0.3512918, -0.08189365, 0.7676374, 0.5297361,-78.84804, 188.3683, 2213.555, -0.4498871, 0.09211887, 0.8701487, 0.178765,38.50691, 398.9564, 2414.429, -0.4866858, 0.4841778, -0.464174, 0.5596886,60.2846, 776.0684, 2380.232, 0.6228973, -0.3364109, 0.580273, -0.4026287,59.43395, 1099.405, 2544.074, 0.6285126, -0.325853, 0.6040086, -0.3660128,68.70691, 1264.426, 2479.387, 0.7075425, 0.1955959, 0.6541659, 0.1821888,-125.2353, 407.0103, 2403.762, 0.5047033, 0.5269113, 0.5232801, 0.4402466,-100.7137, 784.3082, 2379.415, 0.4447132, 0.5891994, 0.4519856, 0.5007827,-67.80178, 1142.553, 2448.32, 0.4471687, 0.5865414, 0.4429009, 0.5097531,-68.06792, 1265.002, 2340.28, -0.04211564, 0.732289, -0.09833236, 0.6725399,-78.04996, -177.3438, 2334.4, 0.6130513, -0.3445184, 0.3516637, -0.6179059,-8.458346, -226.2121, 2208.123, 0.6130513, -0.3445184, 0.3516637, -0.6179059,-6.612355, -257.9479, 2250.568, 0.8704183, 0.005052486, 0.4922751, -0.003432771,-11.11627, -241.7216, 2369.488, 0.617906, 0.3516637, 0.3445185, 0.6130513,-47.1303, -252.6396, 2222.571, 0.8704183, 0.005052486, 0.4922751, -0.003432771,-148.1066, -235.3228, 2292.661, 0.6130513, -0.3445184, 0.3516637, -0.6179059,
162347029, -47.82546, 394.7454, 2412.393, 0.5449256, -0.4330396, 0.5270411, -0.4876071,-53.18799, 229.7239, 2389.473, 0.5246599, -0.4540999, 0.5090076, -0.5093491,-58.12586, 96.89444, 2379.948, 0.5259818, -0.4436111, 0.527453, -0.4983429,-68.94754, -104.4697, 2357.955, 0.5642515, -0.3998842, 0.5613289, -0.4545577,-35.83431, -73.43726, 2364.106, 0.7750991, -0.6188826, -0.1249056, 0.02458166,93.403, -47.69769, 2385.905, 0.7515461, -0.2576789, -0.36983, 0.4816698,161.1645, 188.4474, 2465.341, 0.01048558, -0.4505844, 0.01209626, 0.8925902,32.49906, 190.1416, 2290.972, -0.3938262, -0.435952, -0.2722774, 0.7620445,8.903712, 150.5771, 2213.689, 0.5806966, 0.1061994, -0.5029024, 0.6313496,-21.68974, 213.8212, 2286.195, 0.5806966, 0.1061994, -0.5029024, 0.6313496,-40.93626, 84.17043, 2262.425, -0.3231401, -0.4260878, 0.4812488, 0.6945712,-98.49171, -69.17152, 2361.024, 0.613169, 0.77209, -0.1368275, -0.09580778,-214.5107, -28.77258, 2358.585, 0.1879935, 0.7826235, -0.4891138, -0.3360454,-292.2997, 205.8796, 2448.584, -0.3821131, -0.06932663, 0.9202858, 0.04751451,-139.0423, 241.8504, 2295.688, -0.2577894, 0.5767175, 0.5498143, 0.5464849,-127.306, 205.094, 2206.831, 0.3250436, -0.1579019, 0.7810031, 0.5093602,-53.98722, 196.71, 2273.178, 0.3250436, -0.1579019, 0.7810031, 0.5093602,-76.42384, 187.3913, 2208.503, -0.4812377, 0.05784073, 0.8630647, 0.1420708,37.08863, 391.1647, 2418.307, 0.502075, -0.4656578, 0.4314839, -0.5872863,60.34222, 762.0616, 2375.787, 0.6573699, -0.3118098, 0.5529875, -0.4060102,39.35085, 1076.159, 2545.173, 0.6285654, -0.3558113, 0.5724894, -0.3880204,46.1102, 1232.959, 2467.672, 0.723085, 0.1520418, 0.6528316, 0.1668597,-124.3962, 397.9742, 2407.061, 0.5171697, 0.5145204, 0.5077768, 0.4582216,-100.3366, 770.306, 2387.002, 0.4715239, 0.5603354, 0.4567093, 0.5050803,-74.10323, 1127.257, 2435.888, 0.4688398, 0.5632458, 0.4825253, 0.4797007,-79.58449, 1235.142, 2316.447, -0.00530588, 0.7436201, -0.05401013, 0.6663962,-72.26195, -177.8855, 2337.354, 0.5991651, -0.3512705, 0.3609301, -0.6223661,-8.139685, -228.8835, 2211.54, 0.5991651, -0.3512705, 0.3609301, -0.6223661,-5.966053, -259.8296, 2253.643, 0.863753, 0.006830388, 0.5036019, -0.01640563,-6.909635, -242.6442, 2370.834, 0.6223662, 0.3609301, 0.3512705, 0.5991651,-46.5046, -253.8761, 2227.042, 0.863753, 0.006830388, 0.5036019, -0.01640563,-143.7784, -233.739, 2298.586, 0.5991651, -0.3512705, 0.3609301, -0.6223661,
162347086, -49.31969, 393.9269, 2417.618, 0.5494234, -0.4268912, 0.527599, -0.4873778,-54.83265, 229.0769, 2392.75, 0.526814, -0.4503207, 0.5077482, -0.5117325,-60.08148, 96.19309, 2382.876, 0.5306029, -0.4424699, 0.5251206, -0.4969199,-69.34448, -105.2786, 2359.894, 0.5687437, -0.3989336, 0.5589123, -0.4527687,-36.47132, -74.02325, 2366.427, 0.7760757, -0.6168178, -0.1291815, 0.02354975,92.57756, -47.83755, 2389.343, 0.745748, -0.2413906, -0.3654726, 0.5020162,151.6988, 191.2109, 2467.563, 0.00988542, -0.4379094, -0.008660971, 0.898923,18.05531, 196.7099, 2296.87, -0.4150802, -0.3471192, -0.3433084, 0.7676953,-13.82854, 154.5173, 2224.007, 0.538035, 0.1761063, -0.4553449, 0.6871433,-50.09894, 213.0168, 2297.961, 0.538035, 0.1761063, -0.4553449, 0.6871433,-52.70472, 86.46298, 2267.048, -0.348178, -0.4037517, 0.3852326, 0.753228,-99.17623, -70.17674, 2362.909, 0.6090668, 0.7754747, -0.1288739, -0.1052059,-215.33, -29.84197, 2363.669, 0.1817373, 0.7779908, -0.5037071, -0.3286046,-288.1477, 207.9372, 2450.077, -0.3722864, -0.0572217, 0.9250494, 0.04911455,-130.8564, 239.2162, 2300.057, -0.2674868, 0.5975338, 0.5461916, 0.5225696,-124.8532, 200.4537, 2211.408, 0.3235867, -0.1819176, 0.788846, 0.4898161,-52.91727, 197.476, 2279.802, 0.3235867, -0.1819176, 0.788846, 0.4898161,-76.50674, 186.7845, 2208.563, 0.5192288, -0.06443404, -0.836814, -0.1612206,35.5813, 390.0741, 2424.337, -0.498765, 0.4667136, -0.4119349, 0.6030933,60.59392, 759.1833, 2367.433, 0.6752737, -0.2973084, 0.5469252, -0.3955831,28.83767, 1066.632, 2547.52, 0.6461305, -0.3428797, 0.5533231, -0.3984753,40.46741, 1223.682, 2470.834, 0.7427859, 0.1477362, 0.6300091, 0.171848,-125.8786, 397.4011, 2411.56, 0.5322095, 0.4995038, 0.4930759, 0.4734186,-101.3873, 769.9969, 2392.158, 0.4303128, 0.5857189, 0.3867195, 0.5676374,-80.97367, 1110.349, 2512.218, 0.4374402, 0.5820931, 0.4182085, 0.5430613,-77.19137, 1237.603, 2413.409, -0.07256213, 0.7118391, -0.1125515, 0.6894578,-71.9997, -178.6725, 2338.928, 0.5952671, -0.3629463, 0.3734158, -0.6119539,-12.51088, -228.4497, 2210.259, 0.5952671, -0.3629463, 0.3734158, -0.6119539,-8.445911, -259.6598, 2252.07, 0.8536342, 0.007403012, 0.5206866, -0.01179938,-4.86391, -243.1954, 2369.395, 0.6119539, 0.3734158, 0.3629464, 0.5952671,-50.07714, -253.8385, 2227.117, 0.8536342, 0.007403012, 0.5206866, -0.01179938,-144.645, -234.8519, 2302.637, 0.5952671, -0.3629463, 0.3734158, -0.6119539,
162347144, -50.10539, 394.0622, 2423.375, 0.5524099, -0.4292246, 0.530539, -0.4786835,-53.82785, 229.3611, 2396.553, 0.5320862, -0.4508542, 0.5122849, -0.5011775,-57.46172, 96.55355, 2384.117, 0.524879, -0.4462481, 0.5260078, -0.4986787,-67.81322, -105.2233, 2363.235, 0.5631792, -0.4026286, 0.5600998, -0.4549809,-34.72564, -74.02985, 2369.156, 0.7736891, -0.6205708, -0.1255423, 0.02315361,94.65798, -48.39896, 2391.294, 0.740868, -0.252281, -0.3673761, 0.5024973,152.8455, 192.025, 2466.481, -0.001718432, -0.4456447, 0.00342635, 0.8952016,22.04227, 190.6947, 2293.347, -0.36416, -0.3646917, -0.3863312, 0.7649416,-15.12061, 159.2735, 2217.534, 0.5073423, 0.1720456, -0.5026451, 0.6784924,-58.18709, 211.3869, 2292.695, 0.5073423, 0.1720456, -0.5026451, 0.6784924,-54.48189, 83.90892, 2272.702, -0.3773967, -0.3331639, 0.3800471, 0.7759753,-97.48273, -69.93919, 2366.171, 0.612909, 0.7718998, -0.1266515, -0.1116805,-213.5043, -29.03834, 2368.282, 0.1791674, 0.777953, -0.498624, -0.3377311,-285.8486, 207.2147, 2459.641, -0.3786016, -0.05284686, 0.9225204, 0.05314235,-130.3299, 237.4828, 2307.378, -0.2766809, 0.6073667, 0.545978, 0.5064201,-127.5577, 197.6919, 2218.958, 0.3031734, -0.1739215, 0.7979584, 0.4910189,-52.46799, 195.6883, 2284.008, 0.3031734, -0.1739215, 0.7979584, 0.4910189,-80.03796, 186.9804, 2213.783, 0.5400334, -0.06225247, -0.8222244, -0.168628,34.9527, 391.1869, 2429.226, 0.5015385, -0.4626281, 0.405893, -0.6080173,60.74699, 760.2787, 2371.01, 0.6775767, -0.2982173, 0.5383754, -0.4026266,26.35269, 1070.522, 2546.205, 0.6402106, -0.3554839, 0.544748, -0.4086699,37.80603, 1224.627, 2463.5, 0.7457877, 0.1326869, 0.6327918, 0.1605284,-126.806, 396.6549, 2418.098, 0.5420356, 0.4906462, 0.4921053, 0.472542,-100.9631, 768.988, 2391.992, 0.435809, 0.5797547, 0.3831117, 0.5719969,-82.12149, 1110.006, 2511.108, 0.4815593, 0.5457798, 0.4410565, 0.5250658,-73.75933, 1224.209, 2397.566, -0.02832085, 0.7022575, -0.07101519, 0.707806,-70.98015, -178.8578, 2343.021, 0.6220756, -0.3505916, 0.3815074, -0.586992,-8.390925, -217.6145, 2211.943, 0.6220756, -0.3505916, 0.3815074, -0.586992,-3.087485, -251.1852, 2251.781, 0.8549399, 0.02186072, 0.5176721, 0.02480786,-0.9841956, -241.9697, 2370.009, 0.586992, 0.3815073, 0.3505916, 0.6220756,-44.8273, -245.7737, 2226.857, 0.8549399, 0.02186072, 0.5176721, 0.02480786,-140.6965, -236.0452, 2302.622, 0.6220756, -0.3505916, 0.3815074, -0.586992,
