162410576, -52.00416, 382.2003, 2300.8, 0.5449677, -0.4363028, 0.518436, -0.4938362,-56.25793, 223.287, 2281.662, 0.5087524, -0.4718071, 0.4863477, -0.5310697,-61.01234, 95.37128, 2282.47, 0.5103046, -0.4662602, 0.5026704, -0.5191466,-69.71159, -99.22616, 2277.678, 0.5502931, -0.4244477, 0.5384424, -0.4765516,-38.18235, -68.75346, 2281.213, 0.7504317, -0.6509786, -0.114364, 3.156236E-05,86.76052, -49.64405, 2303.229, 0.7114223, -0.3517438, -0.3499381, 0.4976926,151.1679, 187.0413, 2339.883, 0.04608308, -0.4923297, 0.06157842, 0.867004,44.80234, 191.0536, 2160.993, 0.06677455, 0.1715628, 0.8116679, 0.5543488,-32.80685, 227.162, 2172.902, -0.03107529, 0.3106928, 0.7692259, 0.5574906,-110.8751, 270.1561, 2211.133, -0.03107529, 0.3106928, 0.7692259, 0.5574906,-66.74875, 220.1898, 2177.556, -0.1928074, -0.03979018, 0.9791936, 0.049213,-98.38203, -65.43728, 2277.613, 0.6469758, 0.7478911, -0.1293675, -0.07311251,-211.1994, -31.43173, 2270.763, 0.337246, 0.7290558, -0.4698156, -0.3660823,-284.6146, 204.0826, 2325.576, -0.4925916, -0.2695506, 0.8243734, 0.07144625,-206.748, 312.6024, 2162.495, 0.3655007, -0.2713047, 0.8427799, -0.2872717,-154.5784, 371.491, 2212.187, 0.2615901, -0.5133228, 0.7213764, -0.3842999,-122.5364, 461.2526, 2210.554, 0.2615901, -0.5133228, 0.7213764, -0.3842999,-134.3048, 369.8661, 2166.813, 0.01968477, 0.1417886, -0.6475028, 0.7484976,29.50256, 379.2131, 2307.489, -0.4941354, 0.4605962, -0.4542767, 0.5807873,60.89179, 735.7993, 2276.564, 0.6312603, -0.322665, 0.5607197, -0.4277745,59.10463, 1045.5, 2424.857, 0.6377313, -0.314088, 0.5686588, -0.4138533,81.0089, 1197.021, 2355.349, 0.7476113, 0.1788746, 0.6205683, 0.1548428,-125.5023, 384.894, 2294.769, 0.4863134, 0.5088242, 0.5540031, 0.4446097,-128.8023, 742.4489, 2263.766, 0.3744475, 0.6200224, 0.4258879, 0.5422,-111.7035, 1066.597, 2386.395, 0.4032993, 0.5941916, 0.3753758, 0.5859855,-105.997, 1200.293, 2308.786, -0.1272561, 0.6903003, -0.1511611, 0.6960183,-72.20743, -171.1884, 2263.891, 0.6227155, -0.3324258, 0.3342088, -0.6245183,-0.3182143, -217.5327, 2147.775, 0.6227155, -0.3324258, 0.3342088, -0.6245183,-0.271799, -247.3987, 2188.168, 0.8819274, 0.001260789, 0.4713818, -0.00127476,-10.01856, -231.5463, 2300.413, 0.6245183, 0.3342088, 0.3324258, 0.6227155,-37.38121, -242.7779, 2159.823, 0.8819274, 0.001260789, 0.4713818, -0.00127476,-136.2111, -226.786, 2221.503, 0.6227155, -0.3324258, 0.3342088, -0.6245183,
162410631, -52.1598, 381.5448, 2301.05, 0.5469388, -0.4306958, 0.5128125, -0.5023767,-57.31036, 223.2417, 2282.937, 0.5092854, -0.4665563, 0.4804173, -0.5405116,-63.16172, 95.94267, 2284.857, 0.5137912, -0.4645431, 0.5005467, -0.5192989,-71.064, -97.8228, 2279.51, 0.5537807, -0.4229065, 0.5361878, -0.4764238,-39.81336, -67.37634, 2283.348, 0.7502753, -0.6508756, -0.1151974, 0.01332144,84.48997, -45.6674, 2303.214, 0.7163322, -0.3489967, -0.3587257, 0.4861948,151.1276, 188.1639, 2346.322, 0.05185792, -0.4971532, 0.05763263, 0.8641921,47.43906, 194.8636, 2166.996, 0.01064219, 0.1347887, 0.9041016, 0.405363,-32.97455, 223.7675, 2177.095, -0.0603365, 0.2906583, 0.8666518, 0.4009887,-112.5121, 267.7397, 2209.7, -0.0603365, 0.2906583, 0.8666518, 0.4009887,-68.95827, 221.5799, 2176.859, -0.2028616, -0.03457816, 0.9626278, -0.1760662,-99.73322, -64.28744, 2279.317, 0.6442869, 0.7490816, -0.132322, -0.07913351,-211.661, -29.00843, 2273.212, 0.3441371, 0.7170555, -0.4802463, -0.3698168,-278.3861, 208.3208, 2323.487, 0.5014561, 0.2390111, -0.8292639, -0.06112803,-198.0388, 304.384, 2155.07, 0.323448, -0.2334375, 0.8633772, -0.3089791,-137.1678, 357.4592, 2200.469, 0.2484427, -0.4157594, 0.7918695, -0.3719717,-86.78729, 437.4926, 2208.457, 0.2484427, -0.4157594, 0.7918695, -0.3719717,-119.7126, 352.7998, 2154.617, 0.08001281, 0.1227562, -0.6465481, 0.7486684,28.80468, 377.9499, 2309.446, 0.5062861, -0.4447876, 0.442836, -0.5913837,61.60021, 733.0881, 2281.658, 0.64241, -0.3147023, 0.5430514, -0.4397353,53.581, 1043.098, 2425.573, 0.6465263, -0.31045, 0.5549506, -0.4214908,77.54175, 1193.317, 2355.691, 0.7591639, 0.1717989, 0.6082137, 0.1556639,-125.169, 384.7866, 2293.478, 0.4864721, 0.5071438, 0.540835, 0.4622202,-129.5644, 741.5159, 2272.975, 0.3765446, 0.6110355, 0.4199085, 0.5554518,-119.0963, 1063.314, 2398.235, 0.4093102, 0.581333, 0.3701061, 0.5979452,-111.2707, 1196.284, 2320.908, -0.131379, 0.6775348, -0.1458222, 0.7088173,-73.17746, -169.4429, 2265.576, 0.6162509, -0.3514628, 0.3114129, -0.6322426,-0.4813075, -221.874, 2153.399, 0.6162509, -0.3514628, 0.3114129, -0.6322426,-0.3681164, -249.0744, 2195.371, 0.8828182, -0.02831959, 0.4687239, -0.01130778,-10.87105, -226.5399, 2305.89, 0.6322426, 0.3114129, 0.3514628, 0.616251,-37.1972, -246.6031, 2166.732, 0.8828182, -0.02831959, 0.4687239, -0.01130778,-136.1011, -227.9483, 2226.541, 0.6162509, -0.3514628, 0.3114129, -0.6322426,
162410695, -52.03606, 380.6479, 2306.596, 0.5457265, -0.4324813, 0.5139291, -0.5010182,-57.12011, 221.8458, 2288.532, 0.5101689, -0.4666301, 0.4831352, -0.5371819,-62.74147, 94.13599, 2289.608, 0.5158994, -0.4613334, 0.503006, -0.5176913,-70.98093, -100.1499, 2282.403, 0.5557532, -0.4195098, 0.5383819, -0.4746523,-39.58984, -69.7001, 2286.584, 0.7524258, -0.6466691, -0.123938, 0.01771614,84.52334, -45.74572, 2307.546, 0.7161301, -0.348848, -0.361107, 0.4848345,151.1701, 188.6551, 2351.865, 0.05081793, -0.4988182, 0.05721455, 0.8633217,47.80936, 195.03, 2171.607, 0.02898544, 0.1349396, 0.8906096, 0.4333194,-32.69515, 224.9618, 2180.108, -0.04729587, 0.2887201, 0.8532496, 0.4317047,-112.9655, 268.725, 2212.068, -0.04729587, 0.2887201, 0.8532496, 0.4317047,-68.08772, 221.2025, 2181.242, -0.196413, -0.04061496, 0.9702778, -0.1354,-99.68204, -66.46381, 2282.485, 0.6393315, 0.7498533, -0.1460976, -0.08735449,-210.7255, -27.47093, 2275.907, 0.349464, 0.7126558, -0.4584457, -0.3997802,-276.3447, 207.9558, 2338.847, 0.5286067, 0.2026239, -0.8227966, -0.05024122,-200.7605, 289.3324, 2160.009, 0.2514941, -0.1896173, 0.8901919, -0.3291723,-128.185, 333.7734, 2197.343, 0.1978103, -0.3244242, 0.8503794, -0.3639708,-60.47669, 400.0081, 2206.888, 0.1978103, -0.3244242, 0.8503794, -0.3639708,-116.4631, 325.9437, 2150.183, 0.1684626, 0.1129126, -0.6395222, 0.7415406,29.22479, 377.1383, 2314.578, 0.5033175, -0.4492457, 0.4461998, -0.5880098,61.41127, 733.3862, 2286.173, 0.6408527, -0.315385, 0.5490455, -0.4340381,54.44308, 1042.922, 2433.609, 0.63848, -0.3185206, 0.548885, -0.4354459,80.33991, 1190.675, 2358.155, 0.7632993, 0.1617108, 0.609575, 0.1401497,-125.3125, 383.8127, 2299.397, 0.4842313, 0.5093081, 0.5450013, 0.4572734,-129.7037, 741.5344, 2277.165, 0.3708051, 0.6175555, 0.4183731, 0.5532565,-116.6247, 1062.784, 2406.443, 0.4139732, 0.5814669, 0.3736345, 0.5923848,-108.4375, 1195.04, 2327.019, -0.1241388, 0.6801109, -0.143454, 0.7081381,-73.19939, -171.8507, 2267.747, 0.6138843, -0.3339353, 0.2986208, -0.6499684,3.680378, -227.252, 2159.284, 0.6138843, -0.3339353, 0.2986208, -0.6499684,1.00448, -254.1944, 2201.52, 0.8936787, -0.02497111, 0.4472847, -0.02551534,-14.31514, -230.4408, 2311.575, 0.6499684, 0.2986208, 0.3339353, 0.6138842,-34.41129, -250.9625, 2171.001, 0.8936787, -0.02497111, 0.4472847, -0.02551534,-135.8872, -229.1456, 2225.936, 0.6138843, -0.3339353, 0.2986208, -0.6499684,
162410775, -52.5535, 380.9637, 2310.596, 0.5471817, -0.4318877, 0.5142834, -0.4995776,-57.29133, 222.2932, 2291.945, 0.5110504, -0.4666649, 0.4829476, -0.5364821,-62.67173, 94.63084, 2292.857, 0.5132565, -0.4622953, 0.5013155, -0.5210887,-71.62094, -99.58824, 2287.315, 0.5533913, -0.4206043, 0.5367739, -0.4782507,-40.13643, -69.23421, 2291.271, 0.7497029, -0.6502698, -0.1218372, 0.01582855,84.06789, -45.90133, 2312.031, 0.7179592, -0.3507048, -0.3553634, 0.4850336,152.6259, 188.2357, 2354.135, 0.05657159, -0.4957265, 0.05943199, 0.864594,48.29179, 196.3186, 2174.618, 0.02676481, 0.1461062, 0.8868871, 0.4374562,-31.48926, 227.6288, 2184.464, -0.05028344, 0.2992133, 0.8475772, 0.4353801,-110.4717, 272.4912, 2217.937, -0.05028344, 0.2992133, 0.8475772, 0.4353801,-67.70023, 220.9536, 2185.208, -0.1964124, -0.05302984, 0.9700701, -0.1325674,-100.1834, -65.81204, 2287.072, 0.6418585, 0.7471052, -0.147242, -0.09039535,-210.9692, -26.21837, 2280.716, 0.362057, 0.699618, -0.47171, -0.3961553,-271.789, 212.6438, 2334.382, 0.5350674, 0.1880464, -0.8225655, -0.04156059,-196.7351, 287.0987, 2152.446, 0.2321828, -0.1725926, 0.8948217, -0.3399956,-121.266, 328.3434, 2187.536, 0.2105589, -0.2279826, 0.8823367, -0.3537949,-44.44112, 380.802, 2207.542, 0.2105589, -0.2279826, 0.8823367, -0.3537949,-109.0129, 320.5632, 2149.005, 0.1570815, 0.07101484, -0.639461, 0.7492476,28.67345, 377.5976, 2318.599, 0.5052838, -0.4446402, 0.4454027, -0.5904234,62.3755, 733.6569, 2291.72, 0.6429921, -0.3116494, 0.5467773, -0.4364291,55.13341, 1042.849, 2439.495, 0.6400815, -0.3155421, 0.5467908, -0.4378911,82.20539, 1190.462, 2364.349, 0.7661386, 0.1623444, 0.6059739, 0.1395403,-125.7994, 383.9992, 2303.379, 0.4824517, 0.5114329, 0.5415549, 0.4608632,-129.867, 741.7804, 2285.054, 0.372715, 0.6155251, 0.4194819, 0.553396,-117.5446, 1063.534, 2412.715, 0.417849, 0.5774931, 0.3736918, 0.5935135,-108.5713, 1195.164, 2332.477, -0.1221651, 0.6773509, -0.1406261, 0.7116851,-74.08723, -171.3706, 2273.28, 0.6213132, -0.3311806, 0.3024319, -0.6425141,3.365561, -223.6843, 2163.785, 0.6213132, -0.3311806, 0.3024319, -0.6425141,1.159158, -251.3951, 2205.52, 0.8936608, -0.0203284, 0.4480317, -0.01499124,-14.30379, -229.8339, 2315.952, 0.6425141, 0.3024319, 0.3311806, 0.6213132,-34.33758, -248.1425, 2175.131, 0.8936608, -0.0203284, 0.4480317, -0.01499124,-135.977, -228.7995, 2230.572, 0.6213132, -0.3311806, 0.3024319, -0.6425141,
162410837, -52.67532, 381.4568, 2313.487, 0.5473404, -0.431977, 0.5119185, -0.5017508,-57.34789, 222.5567, 2295.521, 0.5064946, -0.4706271, 0.4766286, -0.5429534,-62.96912, 94.83458, 2299.138, 0.5181298, -0.4572385, 0.5060532, -0.5161247,-71.78069, -99.42405, 2289.773, 0.5578508, -0.4151838, 0.5410908, -0.472912,-40.29208, -69.10291, 2294.351, 0.7559427, -0.6424444, -0.1250542, 0.01331609,83.84209, -45.92468, 2316.394, 0.7116491, -0.3592525, -0.3668247, 0.4795132,151.0001, 188.5108, 2360.396, 0.06240513, -0.5103807, 0.05598411, 0.8558522,52.99126, 198.8419, 2177.244, -0.002277418, 0.1485372, 0.9413594, 0.3029422,-26.90869, 230.3872, 2186.014, -0.05523263, 0.3109087, 0.9008644, 0.2978733,-104.48, 281.477, 2213.604, -0.05523263, 0.3109087, 0.9008644, 0.2978733,-59.61385, 228.9928, 2195.715, -0.2725731, -0.01744058, 0.9311543, -0.2415604,-100.3941, -65.63889, 2290.173, 0.6338707, 0.7539803, -0.1436247, -0.0953596,-211.3128, -25.84127, 2285.659, 0.3615249, 0.7033011, -0.4623841, -0.4010839,-274.6036, 211.6, 2343.691, 0.538877, 0.1800971, -0.82219, -0.03435237,-199.9711, 281.7712, 2159.666, 0.2203563, -0.1664542, 0.8954386, -0.3491788,-122.9929, 321.8519, 2193.011, 0.2138776, -0.1829438, 0.8922157, -0.3531842,-42.84004, 367.3322, 2217.052, 0.2138776, -0.1829438, 0.8922157, -0.3531842,-113.5249, 311.718, 2146.002, 0.20778, 0.09845283, -0.6285599, 0.7429985,28.58912, 378.118, 2321.882, 0.5071238, -0.4431612, 0.4460307, -0.5894829,61.92754, 734.6706, 2296.721, 0.6433151, -0.3115672, 0.5461348, -0.4368161,54.42881, 1044.248, 2444.412, 0.6441191, -0.3106357, 0.5478142, -0.434184,81.56439, 1193.079, 2371.377, 0.7663745, 0.1665772, 0.6032408, 0.1449921,-125.955, 384.4676, 2305.917, 0.4830187, 0.5109412, 0.5396308, 0.4630665,-129.9944, 742.6339, 2288.666, 0.3721636, 0.6151088, 0.4170069, 0.5560941,-118.3007, 1063.993, 2418.235, 0.412039, 0.5805404, 0.3672898, 0.5985774,-109.2565, 1197.386, 2340.688, -0.1298952, 0.6750026, -0.1472722, 0.7112029,-74.18698, -170.9851, 2274.317, 0.611732, -0.3534443, 0.3060831, -0.638102,-1.061849, -225.9741, 2162.998, 0.611732, -0.3534443, 0.3060831, -0.638102,-1.389973, -252.5917, 2205.549, 0.8837661, -0.0334894, 0.4663563, -0.01864647,-12.33678, -228.1205, 2316.022, 0.6381021, 0.3060832, 0.3534443, 0.611732,-38.17485, -250.2803, 2176.572, 0.8837661, -0.0334894, 0.4663563, -0.01864647,-137.5912, -229.8155, 2235.745, 0.611732, -0.3534443, 0.3060831, -0.638102,
162410888, -52.23933, 380.1898, 2317.331, 0.5483119, -0.4306853, 0.5112867, -0.5024441,-56.9165, 221.9801, 2299.281, 0.5079565, -0.4688103, 0.4765721, -0.5432093,-62.571, 94.78973, 2302.491, 0.5170813, -0.4588531, 0.5059258, -0.515868,-71.19024, -98.67887, 2293.676, 0.5567851, -0.4168035, 0.5410933, -0.4727401,-39.85024, -68.44537, 2298.07, 0.7558498, -0.6428223, -0.1242641, 0.005383833,83.84753, -47.01363, 2321.164, 0.7136435, -0.3671973, -0.3618585, 0.4742758,154.9729, 185.5969, 2362.661, 0.06501355, -0.5111697, 0.06694096, 0.854399,57.84969, 194.4317, 2179.956, -0.01814321, 0.193328, 0.933759, 0.3006479,-18.4234, 231.7944, 2193.357, -0.07030691, 0.3532393, 0.8857222, 0.2928742,-89.87661, 288.1962, 2225.338, -0.07030691, 0.3532393, 0.8857222, 0.2928742,-49.21555, 232.5143, 2206.997, -0.3186937, 0.009260649, 0.9226497, -0.2169469,-99.71303, -65.06212, 2294.07, 0.6347897, 0.7554576, -0.1290399, -0.0983588,-210.9606, -27.50288, 2292.283, 0.3827592, 0.6990261, -0.4526981, -0.3999029,-278.9166, 208.5917, 2345.72, 0.5534635, 0.171428, -0.8149759, -0.01025281,-210.0045, 269.5734, 2157.26, 0.2223735, -0.1789449, 0.8448505, -0.4525001,-134.7106, 315.9747, 2184.624, 0.2700572, -0.08642367, 0.8592582, -0.4257646,-55.1218, 351.8695, 2221.659, 0.2700572, -0.08642367, 0.8592582, -0.4257646,-123.1252, 295.5405, 2141.432, 0.2049063, 0.05504501, -0.5459885, 0.8104814,28.64937, 376.812, 2325.977, 0.5086473, -0.4406157, 0.4454568, -0.5905117,62.34893, 731.8815, 2301.949, 0.6446385, -0.3097766, 0.544623, -0.4380243,54.47739, 1040.09, 2449.122, 0.6477037, -0.3061064, 0.5485832, -0.431086,81.60587, 1189.207, 2378.332, 0.766719, 0.1703591, 0.6005924, 0.149695,-125.1802, 383.2357, 2309.535, 0.4821764, 0.5099958, 0.5386045, 0.466171,-130.4724, 739.9407, 2293.853, 0.3714972, 0.6133506, 0.4171132, 0.5583973,-120.6617, 1059.815, 2423.339, 0.4088031, 0.5798749, 0.3624625, 0.6043559,-111.4302, 1193.687, 2347.968, -0.1362791, 0.6711411, -0.1501933, 0.7130495,-73.56305, -169.9781, 2278.469, 0.599999, -0.3666704, 0.2931156, -0.6477941,-1.446344, -230.5737, 2170.232, 0.599999, -0.3666704, 0.2931156, -0.6477941,-1.959261, -255.0564, 2213.802, 0.882323, -0.05201116, 0.4665392, -0.03379625,-12.45431, -225.4485, 2322.555, 0.6477941, 0.2931156, 0.3666705, 0.599999,-38.61034, -253.7603, 2184.912, 0.882323, -0.05201116, 0.4665392, -0.03379625,-137.3152, -229.6895, 2242.924, 0.599999, -0.3666704, 0.2931156, -0.6477941,
162410970, -50.8894, 379.4542, 2327.668, 0.5446488, -0.4329034, 0.5171302, -0.4985265,-56.2029, 221.1232, 2308.993, 0.5128106, -0.4640237, 0.4893987, -0.5312214,-61.7399, 93.72237, 2307.859, 0.517827, -0.4544039, 0.5082766, -0.5167466,-71.65192, -99.87612, 2297.675, 0.5575989, -0.4121801, 0.5430799, -0.4735561,-40.08214, -69.84745, 2302.398, 0.7574037, -0.6399913, -0.1293879, 0.003081957,83.45321, -48.08236, 2326.946, 0.7018176, -0.3948686, -0.3686834, 0.4643311,156.8222, 184.8974, 2364.205, 0.05665676, -0.5326419, 0.09022877, 0.8396079,68.44384, 184.6941, 2176.6, -0.06253072, 0.2080789, 0.9231405, 0.3171822,-6.207265, 221.574, 2198.507, -0.116775, 0.3655556, 0.8728427, 0.3014602,-74.36525, 276.4257, 2239.496, -0.116775, 0.3655556, 0.8728427, 0.3014602,-36.26582, 226.7834, 2211.385, -0.3488803, 0.02196546, 0.9139605, -0.2060977,-99.98492, -66.02431, 2298.195, 0.6324684, 0.7559984, -0.1400433, -0.09401029,-210.8811, -27.1428, 2294.079, 0.3832211, 0.7017857, -0.4439497, -0.4044095,-281.0523, 207.7666, 2351.318, 0.5569596, 0.1396563, -0.8185906, 0.01419356,-209.5277, 252.4625, 2158.993, -0.2412768, 0.1112063, -0.6539682, 0.708339,-133.687, 301.8006, 2179.189, 0.3647636, 0.008249965, 0.6633049, -0.6533804,-64.00538, 346.0273, 2226.166, 0.3647636, 0.008249965, 0.6633049, -0.6533804,-113.1745, 265.9383, 2145.463, 0.2036583, -0.06421258, -0.1402085, 0.9668204,30.22584, 375.8633, 2335.034, -0.4975983, 0.4552903, -0.4516722, 0.5840367,62.51764, 731.134, 2305.571, 0.638049, -0.3148801, 0.5587043, -0.4261379,58.23743, 1037.524, 2457.663, 0.6318449, -0.322697, 0.5535338, -0.436164,83.57167, 1184.31, 2381.046, 0.7591338, 0.1619949, 0.6158399, 0.134962,-124.0346, 382.6923, 2321.027, 0.4894715, 0.5096204, 0.5413402, 0.4556922,-124.5385, 739.4892, 2297.613, 0.370337, 0.6214432, 0.4081174, 0.5568655,-108.401, 1057.418, 2432.376, 0.4123206, 0.5876105, 0.3716076, 0.5887388,-100.0484, 1189.813, 2353.937, -0.1227784, 0.6830235, -0.1492277, 0.7043689,-74.45528, -171.1471, 2281.953, 0.6088219, -0.359327, 0.2982059, -0.6413214,-1.167759, -228.213, 2172.339, 0.6088219, -0.359327, 0.2982059, -0.6413214,-1.567438, -253.8453, 2215.321, 0.8839849, -0.04321909, 0.464946, -0.02298068,-12.80962, -227.1239, 2324.901, 0.6413215, 0.298206, 0.359327, 0.6088219,-38.17267, -252.2125, 2186.29, 0.8839849, -0.04321909, 0.464946, -0.02298068,-137.4865, -230.7095, 2244.585, 0.6088219, -0.359327, 0.2982059, -0.6413214,
162411032, -51.27573, 379.2818, 2333.152, 0.5377574, -0.4390552, 0.5171671, -0.5005853,-57.25283, 220.1418, 2316.823, 0.5105324, -0.4657902, 0.4932249, -0.5283231,-62.98589, 92.29665, 2315.364, 0.5197718, -0.4550216, 0.5077611, -0.5147536,-71.92807, -102.0152, 2304.635, 0.5593776, -0.412837, 0.5426155, -0.4714135,-40.40195, -71.72831, 2309.455, 0.7574827, -0.6406968, -0.1233139, 0.02283145,83.83742, -47.02239, 2329.666, 0.7140302, -0.4072163, -0.3755285, 0.428152,170.9556, 180.431, 2376.179, 0.04601024, -0.539297, 0.1265128, 0.8312859,84.77586, 167.9519, 2187.15, -0.08057515, 0.1189793, 0.9372361, 0.3177107,3.885575, 190.5174, 2207.485, -0.1346196, 0.2802191, 0.9022443, 0.2988477,-74.33263, 231.7437, 2247.278, -0.1346196, 0.2802191, 0.9022443, 0.2988477,-33.54153, 186.0551, 2209.436, -0.2556669, -0.07629105, 0.9225816, -0.2786704,-100.5376, -68.19134, 2305.243, 0.6320277, 0.755695, -0.1461598, -0.09001765,-211.5905, -28.69531, 2299.496, 0.4094015, 0.6987588, -0.4344442, -0.3941888,-290.3562, 206.254, 2348.805, 0.5656437, 0.123678, -0.8134552, 0.05515008,-220.9116, 235.5116, 2151.981, -0.158338, -0.02596252, -0.4268356, 0.8899811,-135.3327, 266.9488, 2170.513, -0.3155391, -0.1021682, -0.4152401, 0.8470964,-60.99562, 309.8107, 2211.984, -0.3155391, -0.1021682, -0.4152401, 0.8470964,-109.9427, 238.9405, 2148.401, 0.1785073, -0.166343, 0.2055025, 0.947752,30.19928, 375.5539, 2339.66, 0.5000554, -0.4508158, 0.4525746, -0.5847102,63.75831, 732.2076, 2312.873, 0.6379507, -0.3137743, 0.5564232, -0.4300673,60.02625, 1040.47, 2463.948, 0.6221451, -0.3349682, 0.5522164, -0.4424804,84.4996, 1185.358, 2382.296, 0.7567484, 0.1522971, 0.6235671, 0.1236992,-124.7453, 382.6434, 2327.284, 0.4901441, 0.5100827, 0.5449286, 0.4501414,-124.4399, 740.4761, 2300.382, 0.3670367, 0.6265969, 0.405581, 0.5551255,-105.4703, 1058.18, 2438.442, 0.4217972, 0.5845846, 0.3765626, 0.5818492,-96.05853, 1188.995, 2356.467, -0.1111655, 0.6843755, -0.1436468, 0.706143,-74.37074, -173.5129, 2288.669, 0.6163394, -0.3598029, 0.3011647, -0.6324297,-0.4585758, -227.8693, 2177.434, 0.6163394, -0.3598029, 0.3011647, -0.6324297,-0.1120307, -254.1917, 2220.208, 0.8830132, -0.04146355, 0.4673746, -0.01137757,-11.20337, -229.1172, 2330.609, 0.6324297, 0.3011647, 0.359803, 0.6163394,-37.05354, -252.8354, 2191.32, 0.8830132, -0.04146355, 0.4673746, -0.01137757,-136.7387, -233.9331, 2250.715, 0.6163394, -0.3598029, 0.3011647, -0.6324297,
162411091, -51.64811, 388.3506, 2341.599, 0.541927, -0.4338856, 0.5202976, -0.4973418,-57.69887, 227.8353, 2322.556, 0.5159423, -0.4597755, 0.497567, -0.5242493,-63.49526, 98.71398, 2318.507, 0.5210271, -0.4574596, 0.5037812, -0.5152338,-71.14292, -97.74019, 2308.811, 0.5606673, -0.4155864, 0.5388439, -0.4717916,-39.51637, -66.89029, 2313.604, 0.7555175, -0.642951, -0.1233978, 0.02408844,85.99611, -41.60649, 2333.756, 0.7173164, -0.4244986, -0.3875553, 0.3937753,183.5814, 182.3743, 2389.3, 0.02545092, -0.5495173, 0.1686087, 0.8178961,100.5664, 152.1612, 2198.467, -0.08601674, 0.07637145, 0.9500524, 0.2901188,16.81442, 168.4476, 2216.976, -0.07845297, 0.05167162, 0.9517154, 0.2922549,-79.42567, 173.5906, 2234.565, -0.07845297, 0.05167162, 0.9517154, 0.2922549,-24.34045, 157.0059, 2209.494, -0.1847873, -0.1148908, 0.9120083, -0.3476991,-100.2868, -63.76134, 2309.125, 0.6349606, 0.7567526, -0.1312654, -0.08318543,-213.7637, -27.47667, 2304.261, 0.4163457, 0.7162035, -0.416099, -0.3749274,-308.8803, 204.3834, 2352.911, 0.5497956, 0.09719533, -0.8225806, 0.1078846,-228.6924, 213.1726, 2155.83, -0.0887653, -0.07997058, -0.3788052, 0.917732,-138.7468, 230.6321, 2176.845, -0.2519128, -0.1466092, -0.3583216, 0.8869337,-58.81128, 263.5459, 2219.274, -0.2519128, -0.1466092, -0.3583216, 0.8869337,-116.2081, 180.5708, 2118.293, 0.263409, 0.08401921, 0.4150056, 0.8667911,30.6518, 384.4433, 2348.384, 0.5004544, -0.4525965, 0.4490896, -0.5856795,63.10265, 744.7726, 2319.109, 0.6408155, -0.3135508, 0.5551699, -0.4275836,56.88741, 1055.637, 2472.913, 0.6169908, -0.3461909, 0.5516263, -0.4417947,79.00308, 1200.804, 2387.546, 0.7526514, 0.1439019, 0.6310814, 0.1206,-125.8616, 391.874, 2335.481, 0.5006102, 0.5014078, 0.5439904, 0.4495042,-124.3965, 752.8491, 2301.441, 0.3649951, 0.6267548, 0.3930646, 0.5652055,-106.1384, 1070.191, 2449.212, 0.422862, 0.5843888, 0.3787007, 0.579882,-96.85117, 1201.918, 2365.644, -0.1090147, 0.6857384, -0.1420035, 0.7054882,-73.05967, -170.0927, 2293.104, 0.5883376, -0.3120802, 0.3373134, -0.6653454,-3.146566, -227.1522, 2178.726, 0.5883376, -0.3120802, 0.3373134, -0.6653454,-7.405616, -256.2311, 2220.098, 0.8864878, 0.0178425, 0.4591905, -0.05445273,-18.21632, -236.7141, 2332.851, 0.6653454, 0.3373134, 0.3120802, 0.5883376,-43.44376, -248.1444, 2190.383, 0.8864878, 0.0178425, 0.4591905, -0.05445273,-142.4111, -219.8169, 2249.667, 0.5883376, -0.3120802, 0.3373134, -0.6653454,
162411159, -56.03452, 391.1562, 2347.408, 0.5372261, -0.4454088, 0.5220447, -0.4903758,-60.38816, 230.3974, 2329.705, 0.5122427, -0.4707536, 0.4993103, -0.5164183,-64.52708, 101.1624, 2326.436, 0.5221077, -0.4605933, 0.5084201, -0.5067211,-70.58673, -95.27618, 2314.662, 0.5610618, -0.418338, 0.5437191, -0.4632196,-39.15907, -64.19154, 2319.334, 0.7571676, -0.6373835, -0.133252, 0.05180122,85.17947, -32.0012, 2336.933, 0.7278894, -0.4338057, -0.4049989, 0.3434611,194.4481, 181.3594, 2410.009, 0.009955402, -0.5540652, 0.2126579, 0.8047915,113.2958, 135.164, 2221.539, -0.07557272, 0.09028994, 0.9625982, 0.2440108,29.81678, 155.0669, 2237.684, 0.04484907, -0.3615789, 0.8966651, 0.2514777,-42.15697, 93.73737, 2211.983, 0.04484907, -0.3615789, 0.8966651, 0.2514777,-10.88428, 104.0798, 2209.131, 0.01294413, -0.2305198, 0.8315814, -0.5051391,-100.0275, -61.55863, 2315.784, 0.6332637, 0.7580335, -0.1355252, -0.07742835,-213.4783, -25.35906, 2309.313, 0.4456993, 0.6962953, -0.4178786, -0.3766994,-307.1773, 208.9772, 2348.149, 0.5486908, -0.01534403, -0.8119201, 0.1987177,-222.5311, 157.2221, 2159.671, -0.07731494, -0.06952505, -0.3188154, 0.9420962,-131.6929, 174.6778, 2176.529, -0.2427564, -0.1248283, -0.3014878, 0.9135602,-49.72871, 210.1494, 2212.596, -0.2427564, -0.1248283, -0.3014878, 0.9135602,-106.6354, 137.2266, 2104.623, 0.1291774, 0.1234861, 0.442793, 0.8786346,26.46854, 388.3923, 2352.218, -0.4933606, 0.4561515, -0.4598156, 0.5805953,61.69958, 748.673, 2324.637, 0.6282218, -0.3198464, 0.5632098, -0.4310805,63.8061, 1061.602, 2474.484, 0.5779679, -0.3903201, 0.568523, -0.4363312,74.92315, 1201.462, 2378.68, 0.7213624, 0.1243702, 0.6743468, 0.09708133,-130.4312, 393.6486, 2343.072, 0.4986997, 0.5202633, 0.545741, 0.427541,-116.3778, 754.2346, 2307.004, 0.4824317, 0.5403528, 0.5258436, 0.4458331,-99.04259, 1104.303, 2298.045, 0.5106608, 0.5046395, 0.5596588, 0.4139403,-114.4574, 1178.058, 2161.096, 0.07125773, 0.7562329, 0.04157658, 0.6490805,-72.09837, -167.4812, 2298.176, 0.582755, -0.3494272, 0.3246408, -0.6579556,-5.061023, -228.9711, 2184.333, 0.582755, -0.3494272, 0.3246408, -0.6579556,-6.535854, -255.6459, 2227.493, 0.8773149, -0.01752665, 0.476638, -0.05317488,-13.2788, -229.7612, 2339.302, 0.6579556, 0.3246408, 0.3494272, 0.582755,-44.06659, -250.5515, 2198.969, 0.8773149, -0.01752665, 0.476638, -0.05317488,-141.4169, -221.9996, 2260.819, 0.582755, -0.3494272, 0.3246408, -0.6579556,
162411220, -56.46595, 394.2409, 2350.901, 0.5336248, -0.4465106, 0.520709, -0.4947069,-61.79988, 231.8829, 2334.695, 0.5088678, -0.4713696, 0.4983175, -0.5201384,-66.72426, 101.4822, 2332.508, 0.5217735, -0.4634735, 0.5017297, -0.5110891,-71.92629, -96.90826, 2323.467, 0.561079, -0.4217454, 0.5372812, -0.4676003,-40.38211, -65.34299, 2327.969, 0.7519667, -0.6456686, -0.1187499, 0.05963778,85.80824, -33.55127, 2341.257, 0.7272242, -0.4321941, -0.3544765, 0.3983712,194.8695, 190.4448, 2384.553, -0.05678032, -0.5030164, 0.2437618, 0.8272429,91.40421, 118.4598, 2213.799, -0.1420479, 0.08484694, 0.9694605, 0.1810243,8.993, 136.3971, 2239.307, -0.01415577, -0.4805715, 0.8462291, 0.2296672,-44.17293, 55.33347, 2219.85, -0.01415577, -0.4805715, 0.8462291, 0.2296672,-27.66916, 67.35452, 2215.023, 0.03433986, -0.3216959, 0.7634476, -0.5589993,-101.7816, -62.99953, 2323.875, 0.6396884, 0.754052, -0.1358319, -0.06126979,-216.7775, -28.91493, 2314.081, 0.4590493, 0.6846424, -0.4500348, -0.3435218,-309.2555, 211.1187, 2328.82, 0.5111213, -0.1008342, -0.81308, 0.2597854,-210.9982, 118.8017, 2161.443, -0.05296618, -0.1417096, -0.1415065, 0.9783092,-120.4442, 132.3765, 2186.278, -0.2165589, -0.1634673, -0.1156898, 0.9555085,-37.56528, 168.9219, 2221.509, -0.2165589, -0.1634673, -0.1156898, 0.9555085,-124.2815, 81.22862, 2204.781, 0.4062382, -0.3449516, 0.4031944, 0.7439175,26.76325, 391.0154, 2355.822, 0.5040596, -0.4438243, 0.4469565, -0.5909093,62.62259, 754.5794, 2328.738, 0.6389011, -0.3142347, 0.545902, -0.4416479,57.76459, 1072.267, 2475.777, 0.5875759, -0.3852817, 0.552285, -0.4486579,73.09001, 1211.958, 2377.599, 0.7367809, 0.1164897, 0.6591888, 0.09515343,-131.5174, 397.1495, 2346.463, 0.5135098, 0.5129155, 0.5196405, 0.4507764,-111.9218, 761.6295, 2320.386, 0.4407074, 0.5846369, 0.4373748, 0.5221878,-86.43307, 1105.391, 2400.013, 0.48285, 0.5471529, 0.4674395, 0.4989787,-84.55412, 1211.302, 2283.157, -0.008930342, 0.7217091, -0.0533652, 0.6900785,-73.02078, -170.0058, 2307.882, 0.5948265, -0.3466602, 0.3124619, -0.6545042,-1.094676, -230.4357, 2194.764, 0.5948265, -0.3466602, 0.3124619, -0.6545042,-2.880232, -257.3027, 2238.333, 0.8834102, -0.02418178, 0.4660697, -0.04219855,-13.00163, -231.17, 2350.901, 0.6545042, 0.3124619, 0.3466601, 0.5948265,-40.19313, -253.2253, 2208.667, 0.8834102, -0.02418178, 0.4660697, -0.04219855,-140.5816, -226.9294, 2268.708, 0.5948265, -0.3466602, 0.3124619, -0.6545042,
162411288, -57.38593, 394.5836, 2353.073, 0.5329825, -0.4507572, 0.5181773, -0.4942062,-61.67506, 232.7065, 2338.089, 0.504842, -0.4787182, 0.4924618, -0.5229193,-65.82624, 102.7621, 2338.541, 0.5222448, -0.4650976, 0.5063645, -0.5045192,-70.20611, -94.78921, 2327.602, 0.5610218, -0.4229927, 0.5420313, -0.4610138,-38.8761, -63.24329, 2332.024, 0.7569473, -0.6429057, -0.09934124, 0.06192163,87.86102, -34.383, 2341.246, 0.697413, -0.4574573, -0.3175864, 0.4510951,186.4305, 197.3054, 2348.87, -0.1539256, -0.4669714, 0.3034238, 0.8161976,77.23341, 84.26919, 2207.455, -0.1059558, 0.1072654, 0.9460011, 0.2869661,-4.907146, 104.6962, 2230.699, 0.1540364, -0.6617349, 0.684493, 0.2642895,-12.4677, 23.48685, 2175.476, 0.1540364, -0.6617349, 0.684493, 0.2642895,-36.24988, 32.1138, 2199.976, 0.07694861, -0.3477759, 0.7763023, -0.5200822,-100.0952, -61.15741, 2328.709, 0.6386698, 0.7579737, -0.1242953, -0.04612362,-215.7595, -31.50662, 2318.058, 0.4796701, 0.6353385, -0.5439205, -0.2653527,-284.4117, 211.2248, 2270.671, -0.4392866, 0.2341522, 0.802918, -0.3279066,-176.4205, 69.04221, 2152.518, -0.0258021, -0.2166271, 0.0004754471, 0.9759133,-89.48723, 80.2625, 2187.857, -0.1896016, -0.2134601, 0.03690946, 0.9576657,-8.454904, 116.9468, 2226.085, -0.1896016, -0.2134601, 0.03690946, 0.9576657,-107.5246, 40.37768, 2219.928, 0.410248, -0.4755972, 0.4420674, 0.6403751,25.55583, 391.9504, 2357.779, 0.5222611, -0.4208274, 0.4282174, -0.6056218,62.15619, 754.3203, 2334.992, 0.6630138, -0.2936266, 0.5236896, -0.4471525,44.15771, 1068.367, 2485.598, 0.614695, -0.3663912, 0.5552291, -0.4238257,57.33182, 1214.72, 2398.597, 0.7384539, 0.1321734, 0.6479553, 0.1317953,-132.1782, 396.9582, 2348.829, 0.5092543, 0.518559, 0.5236242, 0.4444934,-111.5869, 759.9529, 2322.465, 0.4728338, 0.5581324, 0.4812093, 0.4830673,-86.8583, 1110.256, 2352.127, 0.4933701, 0.5368366, 0.5003362, 0.4669648,-91.04752, 1205.584, 2227.305, 0.0212621, 0.7374628, -0.02292173, 0.6746637,-71.14904, -167.4511, 2311.357, 0.5814819, -0.3637602, 0.3228478, -0.6521706,-5.274102, -230.0749, 2196.491, 0.5814819, -0.3637602, 0.3228478, -0.6521706,-5.399162, -256.1938, 2240.321, 0.8723241, -0.02892942, 0.4855052, -0.04998446,-10.168, -228.4474, 2352.397, 0.6521706, 0.3228479, 0.3637602, 0.581482,-43.80819, -252.1264, 2212.399, 0.8723241, -0.02892942, 0.4855052, -0.04998446,-140.7431, -223.9285, 2276.216, 0.5814819, -0.3637602, 0.3228478, -0.6521706,
162411370, -56.66708, 392.0537, 2354.304, 0.5326337, -0.4511776, 0.5179678, -0.4944182,-60.93735, 230.7452, 2339.567, 0.5037845, -0.4797819, 0.4915905, -0.5237836,-65.08566, 101.2748, 2340.518, 0.5216342, -0.4650033, 0.5056024, -0.506,-69.73711, -95.58276, 2330.151, 0.560532, -0.4229597, 0.5412642, -0.4625387,-38.4792, -64.18753, 2334.522, 0.7563199, -0.6447691, -0.09204332, 0.06148895,88.17522, -36.7007, 2342.304, 0.6934786, -0.4660826, -0.2930302, 0.4647449,187.6392, 193.6387, 2335.578, -0.1964182, -0.4360622, 0.3360795, 0.8113694,73.35019, 64.7514, 2214.326, -0.2084054, 0.06945801, 0.9754925, 0.01253493,-5.986318, 83.23776, 2246.151, -0.1355485, -0.6544011, 0.7267525, 0.1587972,-16.4649, -14.33555, 2245.09, -0.1355485, -0.6544011, 0.7267525, 0.1587972,-28.32688, -15.42567, 2219.567, 0.1714957, -0.3920442, 0.6438451, -0.6343138,-99.46763, -62.02393, 2331.112, 0.6400818, 0.7563174, -0.1295468, -0.03868968,-214.545, -32.70209, 2318.293, 0.4832476, 0.6310661, -0.5606502, -0.2321607,-281.943, 205.6426, 2254.654, -0.4122593, 0.247054, 0.8071787, -0.3427378,-167.1727, 60.279, 2148.807, 0.02298587, -0.2407573, 0.01110903, 0.9702495,-81.74776, 62.82392, 2188.35, 0.0213374, -0.2407381, 0.01151805, 0.9702872,3.448352, 59.36457, 2233.463, 0.0213374, -0.2407381, 0.01151805, 0.9702872,-87.26378, 21.83546, 2210.727, 0.4257168, -0.3737293, 0.5270292, 0.6335075,25.97596, 389.44, 2358.966, 0.5168032, -0.4265629, 0.4401241, -0.5977033,63.03331, 750.5967, 2338.968, 0.644765, -0.3089809, 0.5293365, -0.4567403,55.25568, 1068.931, 2478.085, 0.5943641, -0.3810969, 0.5700555, -0.4201585,64.49902, 1213.232, 2388.403, 0.7215647, 0.1321235, 0.6689332, 0.1200671,-131.1899, 394.4106, 2350.1, 0.506538, 0.5209362, 0.5257963, 0.4422479,-110.8826, 756.1127, 2323.983, 0.4892433, 0.540795, 0.5053369, 0.4613201,-88.5368, 1106.545, 2325.561, 0.5090935, 0.5183725, 0.5216753, 0.4471785,-94.55022, 1191.927, 2194.485, 0.04652395, 0.739365, 0.005083555, 0.6716762,-70.76228, -168.0239, 2314.161, 0.5775351, -0.3671439, 0.3344569, -0.6479176,-8.248739, -229.5543, 2197.516, 0.5775351, -0.3671439, 0.3344569, -0.6479176,-7.517802, -256.0629, 2240.888, 0.8665259, -0.02311324, 0.4961067, -0.04976794,-9.459287, -229.6351, 2352.937, 0.6479176, 0.3344569, 0.367144, 0.5775351,-46.40382, -251.4579, 2214.024, 0.8665259, -0.02311324, 0.4961067, -0.04976794,-141.2779, -223.4622, 2280.176, 0.5775351, -0.3671439, 0.3344569, -0.6479176,
162411434, -55.5446, 391.7306, 2355.502, 0.5260528, -0.4595652, 0.5216704, -0.4898247,-59.53305, 230.64, 2341.93, -0.4969892, 0.4888278, -0.4943557, 0.5192894,-63.16577, 101.4286, 2344.044, 0.5190833, -0.4609941, 0.5164817, -0.5012818,-70.30233, -94.75166, 2330.328, 0.557611, -0.4180911, 0.551787, -0.4580403,-38.6763, -63.86887, 2334.79, 0.7642131, -0.6378235, -0.0818468, 0.04960439,88.52499, -40.51633, 2342.8, 0.6737738, -0.4829943, -0.265595, 0.4921429,182.333, 189.8642, 2313.368, -0.2167318, -0.4216017, 0.355072, 0.8057315,66.58791, 53.49657, 2202.894, -0.2221865, 0.06423549, 0.9727413, -0.01677296,-11.96068, 71.90662, 2236.201, -0.1600455, -0.6848232, 0.6938076, 0.1550277,-13.01897, -26.02567, 2237.156, -0.1600455, -0.6848232, 0.6938076, 0.1550277,-7.21761, -6.935109, 2126.084, 0.5196924, -0.1258395, 0.7329651, -0.420531,-99.55396, -60.93753, 2332.3, 0.6342759, 0.7613889, -0.1258088, -0.04640116,-214.4709, -31.08402, 2321.699, 0.4964553, 0.6249379, -0.5595626, -0.223326,-284.4093, 204.0069, 2251.139, -0.4070462, 0.2545713, 0.7992816, -0.3614635,-169.6569, 54.72341, 2151.792, 0.1752705, -0.2408133, -0.009635069, 0.9545661,-88.29318, 28.62606, 2190.917, -0.01743735, -0.2379442, 0.03829403, 0.970367,-2.981819, 33.6384, 2235.245, -0.01743735, -0.2379442, 0.03829403, 0.970367,-74.58938, -18.10898, 2175.621, 0.3951488, -0.09282298, 0.5905409, 0.6974975,27.02726, 389.4542, 2358.256, -0.499912, 0.4512513, -0.4595062, 0.5790633,60.74552, 750.028, 2335.33, 0.6235524, -0.3287602, 0.5537978, -0.4431784,62.89502, 1067.976, 2473.785, 0.5829415, -0.3841104, 0.5875169, -0.4092215,69.09903, 1213.254, 2386.088, 0.7058351, 0.14229, 0.6835337, 0.1197173,-130.0033, 393.7834, 2353.019, 0.4940949, 0.5299551, 0.543226, 0.4241737,-111.8921, 754.4288, 2321.402, 0.4781712, 0.5496884, 0.5232364, 0.4420619,-90.30141, 1104.168, 2316.355, 0.4962258, 0.5289738, 0.529708, 0.4397226,-101.4611, 1190.563, 2186.664, 0.042628, 0.7524639, 0.003343049, 0.6572441,-72.41549, -166.7368, 2313.124, 0.5682142, -0.3779362, 0.3134324, -0.6603461,-8.764722, -234.6511, 2201.094, 0.5682142, -0.3779362, 0.3134324, -0.6603461,-8.711029, -258.6938, 2245.77, 0.8687233, -0.04561107, 0.4888715, -0.06514703,-12.0022, -226.2165, 2355.944, 0.6603461, 0.3134324, 0.3779362, 0.5682142,-47.14544, -255.4435, 2218.236, 0.8687233, -0.04561107, 0.4888715, -0.06514703,-142.5679, -223.6008, 2281.359, 0.5682142, -0.3779362, 0.3134324, -0.6603461,
162411500, -56.13948, 393.4116, 2356.724, 0.5286351, -0.4599478, 0.524463, -0.4836646,-59.13457, 231.496, 2341.289, -0.4931483, 0.4958471, -0.4906619, 0.5197994,-61.9804, 101.5395, 2345.397, 0.5171932, -0.459049, 0.5193427, -0.5020639,-70.64218, -95.7224, 2331.156, 0.5557896, -0.4159228, 0.5544827, -0.4589716,-38.58943, -64.90036, 2335.645, 0.7660958, -0.6372836, -0.07316975, 0.04016302,89.94382, -44.72264, 2343.585, 0.653347, -0.5024243, -0.2333992, 0.5159771,180.2999, 184.265, 2289.789, -0.2716954, -0.3860095, 0.3973688, 0.7869411,63.05981, 28.9493, 2206.968, -0.2520573, 0.01719229, 0.9642227, -0.08028797,-15.24924, 41.71783, 2244.573, 0.1817313, 0.8612058, -0.4339879, -0.1922311,38.88248, -38.81656, 2227.492, 0.1817313, 0.8612058, -0.4339879, -0.1922311,-1.0242, -40.02893, 2132.537, 0.5543965, -0.1872668, 0.7275243, -0.3581678,-99.8131, -61.49549, 2333.285, 0.6330606, 0.7638383, -0.1137185, -0.05341881,-215.9436, -32.55252, 2325.805, 0.5146338, 0.6067905, -0.5742205, -0.1929461,-284.2602, 197.3529, 2234.18, -0.3835171, 0.2819184, 0.7864133, -0.3936885,-167.1386, 37.71766, 2152.533, 0.1911022, -0.268335, 0.02691502, 0.9437965,-88.57039, 10.29621, 2197.399, 0.02424998, -0.2595801, 0.0731183, 0.9626442,-4.889063, 9.450909, 2246.143, 0.02424998, -0.2595801, 0.0731183, 0.9626442,-75.29641, -35.01751, 2088.863, 0.09903572, 0.3189316, 0.5130963, 0.7907001,26.95546, 391.6623, 2358.95, 0.5000555, -0.4522335, 0.4569455, -0.5801984,60.12263, 754.3505, 2334.209, 0.6261104, -0.3276444, 0.5531414, -0.4412136,60.56561, 1073.551, 2474.989, 0.5930553, -0.3728899, 0.5882699, -0.4039516,68.10001, 1222.084, 2390.954, 0.7092536, 0.1508421, 0.6761407, 0.130536,-131.0699, 394.989, 2354.717, 0.4979686, 0.5261395, 0.5379315, 0.4310849,-112.9866, 757.9552, 2324.77, 0.4510184, 0.578761, 0.4808494, 0.480002,-85.92455, 1106.816, 2367.733, 0.469604, 0.5604281, 0.4803822, 0.4843813,-90.44299, 1212.44, 2251.439, -0.008056598, 0.740133, -0.05353105, 0.6702781,-73.33945, -168.0795, 2313.685, 0.5525036, -0.3396746, 0.3131251, -0.6937677,-7.76229, -240.6141, 2204.565, 0.5525036, -0.3396746, 0.3131251, -0.6937677,-12.68677, -265.0585, 2249.096, 0.8812469, -0.01877325, 0.4615991, -0.0998887,-20.6833, -233.0575, 2359.886, 0.6937676, 0.3131251, 0.3396745, 0.5525036,-49.02082, -258.3947, 2218.958, 0.8812469, -0.01877325, 0.4615991, -0.0998887,-146.0793, -219.0094, 2276.417, 0.5525036, -0.3396746, 0.3131251, -0.6937677,
162411561, -55.86887, 396.6858, 2355.669, 0.528484, -0.4676426, 0.5316274, -0.4683878,-56.51265, 236.6125, 2338.091, -0.4888245, 0.509152, -0.492018, 0.5096402,-56.97992, 107.9651, 2342.982, 0.5120912, -0.4682452, 0.536527, -0.480258,-64.22528, -86.97475, 2324.281, 0.5489553, -0.4237113, 0.5723493, -0.437645,-32.62939, -56.21157, 2327.855, 0.7772344, -0.6272147, -0.024624, 0.04361352,95.75845, -43.47775, 2325.734, 0.6625364, -0.4842765, -0.264069, 0.5067438,182.3029, 187.8112, 2290.589, -0.3291694, -0.3745679, 0.4049137, 0.7664145,77.06102, 18.67329, 2226.196, -0.2743709, -0.1022106, 0.9509372, -0.09995994,1.599871, 12.27051, 2268.85, 0.2633327, 0.7511816, -0.5919922, -0.1262034,27.66464, -80.95842, 2280.767, 0.2633327, 0.7511816, -0.5919922, -0.1262034,26.83108, -59.98008, 2153.533, 0.5743695, -0.2740639, 0.7245891, -0.2644983,-93.30695, -53.50274, 2328.772, 0.6275145, 0.7736428, -0.07551474, -0.04471897,-210.1855, -32.97037, 2325.735, 0.538974, 0.5911537, -0.5528476, -0.2332465,-281.3273, 197.0586, 2244.361, -0.3879264, 0.3438716, 0.7327042, -0.4409196,-183.2677, 17.70103, 2188.13, 0.2993648, -0.2748284, 0.09309141, 0.9089466,-114.9043, -24.77195, 2235.89, 0.1322264, -0.2537853, 0.1406756, 0.9477972,-34.73595, -41.95616, 2285.577, 0.1322264, -0.2537853, 0.1406756, 0.9477972,-93.42197, -72.47404, 2185.967, 0.3061608, 0.09232263, 0.6395755, 0.6990601,26.43509, 396.3786, 2355.453, -0.4992117, 0.4557446, -0.4642034, 0.5723633,57.57315, 755.7793, 2334.41, 0.6257018, -0.3262767, 0.5627902, -0.4304741,58.98265, 1068.647, 2480.62, 0.5929589, -0.3696999, 0.6071425, -0.3782851,61.45994, 1219.66, 2404.568, 0.6911584, 0.1665081, 0.6873841, 0.1485876,-130.086, 396.9628, 2355.865, 0.4932937, 0.5312326, 0.5494636, 0.4153832,-111.6427, 755.6231, 2319.492, 0.477784, 0.5510861, 0.5295352, 0.4331501,-89.3264, 1103.748, 2309.511, 0.4872764, 0.5405324, 0.523754, 0.4427959,-101.1092, 1193.632, 2183.069, 0.03403728, 0.7564526, -0.008974019, 0.6531007,-67.04441, -158.1664, 2305.293, 0.5191737, -0.3735653, 0.2741091, -0.7181725,-5.002089, -244.9774, 2207.045, 0.5191737, -0.3735653, 0.2741091, -0.7181725,-10.04398, -263.1459, 2253.917, 0.8749359, -0.0703261, 0.4579749, -0.1407134,-16.08944, -217.3767, 2358.621, 0.7181725, 0.2741092, 0.3735653, 0.5191738,-46.12802, -259.5251, 2223.717, 0.8749359, -0.0703261, 0.4579749, -0.1407134,-140.6431, -211.0379, 2275.703, 0.5191737, -0.3735653, 0.2741091, -0.7181725,
162411631, -55.75881, 399.0655, 2356.574, 0.52932, -0.467834, 0.5320972, -0.4667164,-56.05561, 239.4081, 2338.59, -0.4914064, 0.5078118, -0.4940883, 0.5064816,-56.22176, 111.0159, 2342.295, 0.5122343, -0.4703084, 0.5392122, -0.4750539,-62.62754, -83.39292, 2322.498, 0.5486807, -0.4255524, 0.5751911, -0.4324461,-31.22989, -52.55949, 2325.957, 0.7791983, -0.6245257, -0.02277862, 0.04794518,96.78373, -39.27758, 2322.817, 0.6793625, -0.4712784, -0.2778503, 0.4890424,188.1858, 191.2633, 2302.054, -0.323487, -0.3768454, 0.3966002, 0.7720441,82.35101, 24.49557, 2234.109, -0.2760856, -0.1204966, 0.9496734, -0.08589341,7.732488, 14.53598, 2277.156, 0.2587172, 0.7442842, -0.6020299, -0.1290983,31.26102, -79.17074, 2288.769, 0.2587172, 0.7442842, -0.6020299, -0.1290983,44.13573, -52.17837, 2157.207, 0.607305, -0.332128, 0.7010838, -0.1713275,-91.76994, -50.17717, 2327.459, 0.6253775, 0.777124, -0.05573286, -0.04330155,-209.0249, -33.50365, 2327.174, 0.555971, 0.5762559, -0.539829, -0.2596347,-280.6215, 197.4668, 2250.842, -0.4080083, 0.3521457, 0.7067387, -0.4583046,-191.985, 13.07777, 2197.13, 0.3733694, -0.2630453, 0.1064465, 0.8832166,-131.3822, -40.48462, 2243.785, 0.2140697, -0.2405233, 0.1505732, 0.9346927,-55.56555, -71.83355, 2292.959, 0.2140697, -0.2405233, 0.1505732, 0.9346927,-143.7762, -62.31107, 2258.101, 0.5448665, -0.2085763, 0.6265219, 0.5168043,26.3564, 398.9498, 2356.246, 0.5015289, -0.453326, 0.4644721, -0.5720399,57.33622, 757.6434, 2337.229, 0.6321361, -0.3182195, 0.5656645, -0.4232777,56.74382, 1066.073, 2490.819, 0.595708, -0.3681534, 0.6109425, -0.3692482,57.49017, 1218.073, 2417.612, 0.6867484, 0.1703303, 0.6890152, 0.1569144,-129.8057, 399.1699, 2356.87, 0.4934, 0.5297386, 0.5519025, 0.4139288,-112.4709, 756.8613, 2318.67, 0.4780776, 0.5495178, 0.5321974, 0.4315529,-91.21233, 1104.184, 2306.633, 0.48533, 0.5411285, 0.5324814, 0.433703,-105.7642, 1191.994, 2179.463, 0.03909229, 0.7629761, -0.003227478, 0.6452356,-65.25449, -154.3168, 2303.14, 0.5238776, -0.3954269, 0.2666095, -0.7057685,-3.099538, -240.8881, 2205.243, 0.5238776, -0.3954269, 0.2666095, -0.7057685,-6.046751, -258.074, 2252.539, 0.8694911, -0.09108771, 0.4681304, -0.1286163,-10.66731, -210.1989, 2356.08, 0.7057685, 0.2666094, 0.3954269, 0.5238776,-43.04194, -256.5066, 2223.454, 0.8694911, -0.09108771, 0.4681304, -0.1286163,-137.4999, -210.423, 2277.088, 0.5238776, -0.3954269, 0.2666095, -0.7057685,
162411689, -55.97945, 407.0202, 2361.27, 0.5310576, -0.465362, 0.5328645, -0.4663383,-56.44361, 243.687, 2341.984, 0.501047, -0.4975809, 0.5029112, -0.4984431,-56.80259, 112.207, 2340.947, 0.5030617, -0.4851869, 0.5169073, -0.4942968,-61.4112, -87.7544, 2333.723, 0.5410808, -0.4421718, 0.5541513, -0.4523627,-29.59101, -55.73434, 2335.711, 0.7576408, -0.648279, -0.06083649, 0.044873,100.6877, -36.37866, 2340.193, 0.584982, -0.5866931, -0.3355038, 0.4483573,195.6667, 197.5463, 2306.166, -0.3327444, -0.4379786, 0.5147296, 0.6576545,111.2275, 7.560358, 2256.232, -0.1529067, -0.03777054, 0.9604394, -0.2296717,25.07111, 11.82109, 2277.188, 0.2739688, 0.7552185, -0.5945716, 0.03272071,54.04139, -75.8518, 2314.563, 0.2739688, 0.7552185, -0.5945716, 0.03272071,87.44395, -89.70113, 2194.015, 0.642625, -0.3657954, 0.583946, -0.3350133,-91.59824, -53.76693, 2336.055, 0.6508298, 0.756279, -0.06680162, -0.0003485174,-211.753, -41.46201, 2325.577, 0.5727078, 0.538358, -0.4990987, -0.3647971,-272.9208, 206.4913, 2279.141, -0.4739389, 0.378803, 0.6288379, -0.4862644,-215.806, 3.536552, 2229.846, 0.545261, -0.02131562, 0.5185274, 0.6583049,-175.1206, -67.04919, 2279.827, 0.4223096, 0.06929479, 0.5143183, 0.7431888,-113.0725, -135.4895, 2312.276, 0.4223096, 0.06929479, 0.5143183, 0.7431888,-174.5736, -70.4052, 2297.052, 0.3629979, 0.06634839, 0.903775, 0.2168438,28.07891, 406.7914, 2361.185, 0.5007493, -0.4409499, 0.4655858, -0.5814147,68.5377, 773.2266, 2344.036, 0.6407007, -0.2968389, 0.5684137, -0.42225,69.51771, 1083.09, 2512.52, 0.5604919, -0.4174646, 0.5976925, -0.3928561,63.98524, 1228.246, 2419.107, 0.6785495, 0.1257751, 0.7144147, 0.1155971,-131.7786, 407.2265, 2361.347, 0.4933058, 0.5314189, 0.5543587, 0.4085705,-112.7876, 773.049, 2319.801, 0.4774898, 0.5521482, 0.5337, 0.4269662,-89.36079, 1128.436, 2306.195, 0.4987317, 0.5197839, 0.5781756, 0.3831506,-114.1456, 1200.708, 2166.872, 0.08448444, 0.7798477, 0.0439789, 0.6186807,-63.17571, -161.5229, 2318.69, 0.5354031, -0.3889382, 0.3282868, -0.6740166,-7.784858, -237.3965, 2204.15, 0.5354031, -0.3889382, 0.3282868, -0.6740166,-7.332727, -260.6631, 2250.204, 0.8551888, -0.04288702, 0.5071547, -0.09801455,-3.846772, -224.7039, 2361.348, 0.6740166, 0.3282868, 0.3889382, 0.5354031,-47.29229, -255.5732, 2223.737, 0.8551888, -0.04288702, 0.5071547, -0.09801455,-139.3119, -215.4817, 2290.925, 0.5354031, -0.3889382, 0.3282868, -0.6740166,
162411775, -53.72247, 408.702, 2363.626, 0.5378411, -0.4587384, 0.529515, -0.4689349,-53.86172, 245.5895, 2343.125, 0.5140414, -0.4843135, 0.5062286, -0.4949086,-54.17775, 114.274, 2337.735, 0.507576, -0.4681204, 0.5105377, -0.5124266,-63.50883, -85.44759, 2330.895, 0.5470344, -0.425671, 0.5464336, -0.4700721,-31.02609, -54.24403, 2334.236, 0.755037, -0.6484691, -0.09643733, 0.010329,98.22228, -35.71395, 2351.654, 0.5371904, -0.6241056, -0.4124574, 0.389612,188.9162, 201.9751, 2340.658, -0.290677, -0.5143239, 0.543231, 0.5965551,124.3812, 8.426994, 2277.004, -0.08471023, -0.1904028, 0.9500433, -0.2323549,40.55939, -16.19375, 2292.526, 0.2358909, 0.8695323, -0.4274914, 0.07429737,102.6369, -86.7268, 2325.473, 0.2358909, 0.8695323, -0.4274914, 0.07429737,117.0334, -92.37627, 2207.155, 0.6923558, -0.3055016, 0.5585533, -0.3396034,-92.88774, -50.71775, 2331.749, 0.6463197, 0.7508945, -0.1203012, -0.06289566,-209.6046, -18.97158, 2324.351, 0.591454, 0.5268103, -0.4484695, -0.4141596,-275.6873, 230.7396, 2299.928, 0.5217548, -0.3368754, -0.604292, 0.4991172,-226.2174, 29.89919, 2236.232, 0.6656392, 0.4389954, 0.5879909, 0.1359195,-258.6697, -38.13316, 2294.936, 0.6788942, 0.2873029, 0.6752092, -0.02554011,-267.1727, -72.71064, 2386.098, 0.6788942, 0.2873029, 0.6752092, -0.02554011,-234.1469, -45.03588, 2301.74, 0.1544196, 0.5485493, 0.819324, -0.06290048,30.28453, 408.4366, 2365.168, 0.5103111, -0.4361489, 0.4364307, -0.5990702,66.69967, 774.4279, 2336.712, 0.6751076, -0.2737301, 0.5529665, -0.4043879,45.05408, 1073.652, 2521.886, 0.6021506, -0.3885378, 0.5568512, -0.4199639,52.40822, 1218.999, 2429.039, 0.7269286, 0.1175707, 0.66478, 0.1257756,-129.4753, 408.9414, 2362.236, 0.5005124, 0.5219599, 0.5519335, 0.4152283,-112.5575, 774.4306, 2318.372, 0.4844341, 0.5426093, 0.5316305, 0.4338983,-91.82224, 1129.739, 2302.623, 0.5281035, 0.4810226, 0.5911148, 0.3745761,-112.4052, 1188.644, 2156.567, 0.1115906, 0.7615275, 0.08030442, 0.6333835,-66.4531, -159.1762, 2316.017, 0.5470956, -0.391341, 0.3233722, -0.6655592,-8.472189, -232.6787, 2201.299, 0.5470956, -0.391341, 0.3233722, -0.6655592,-7.457472, -256.1636, 2247.207, 0.8574765, -0.04806121, 0.5053785, -0.08376639,-5.398627, -220.7426, 2358.505, 0.6655592, 0.3233722, 0.391341, 0.5470956,-47.45431, -252.1393, 2220.652, 0.8574765, -0.04806121, 0.5053785, -0.08376639,-140.8061, -215.232, 2287.731, 0.5470956, -0.391341, 0.3233722, -0.6655592,
162411842, -53.83642, 406.8848, 2363.695, 0.5313246, -0.4620779, 0.5315711, -0.470755,-55.24954, 241.5233, 2344.525, 0.5146391, -0.4802771, 0.5151873, -0.4889404,-56.44221, 108.6844, 2336.464, -0.4940705, 0.4759643, -0.5088612, 0.5200123,-68.36078, -93.55, 2335.759, 0.5341807, -0.4336241, 0.5453914, -0.4787164,-35.05593, -62.26676, 2337.766, 0.7437717, -0.6584672, -0.1088421, 0.03712132,94.80856, -35.78069, 2352.842, -0.4822946, 0.6349682, 0.4766276, -0.3701802,164.8402, 212.3752, 2350.172, 0.09611467, 0.721339, -0.3317057, -0.6003362,177.6387, 83.82969, 2176.527, -0.14687, 0.7234913, -0.6708347, 0.0705018,180.1134, -4.785895, 2161.871, -0.1441784, 0.7476678, -0.643779, 0.07585438,196.2045, -104.0553, 2154.591, -0.1441784, 0.7476678, -0.643779, 0.07585438,163.897, -24.8063, 2120.957, 0.4314778, -0.3400947, 0.6688584, -0.5007903,-97.68139, -58.01171, 2335.946, 0.6558008, 0.735434, -0.1462174, -0.08765087,-213.2645, -17.51186, 2328.232, 0.5923375, 0.501967, -0.4063054, -0.4817483,-267.3021, 239.611, 2328.837, 0.6447542, -0.2261073, -0.6049218, 0.4089464,-252.7637, 64.08255, 2198.407, 0.6708397, 0.6048984, 0.3709857, 0.2155034,-318.4879, -4.968241, 2214.909, 0.7044216, 0.4500605, 0.5486146, -0.01605642,-357.886, -51.66755, 2292.943, 0.7044216, 0.4500605, 0.5486146, -0.01605642,-272.2671, -6.71114, 2278.389, -0.04246148, 0.5900559, 0.6900421, -0.4169807,31.24135, 406.0805, 2364.362, -0.4803046, 0.4692421, -0.4843515, 0.5608236,67.9397, 777.1364, 2341.555, 0.6182131, -0.3147988, 0.5963957, -0.4037656,81.30214, 1089.419, 2514.059, 0.5222594, -0.4515642, 0.5589138, -0.4592932,82.86955, 1217.065, 2394.631, 0.6982332, 0.07383604, 0.7108237, 0.04181242,-130.5548, 407.6101, 2363.094, 0.4789793, 0.5423676, 0.5670168, 0.3935839,-112.9537, 777.8231, 2319.717, 0.4641525, 0.563027, 0.5464932, 0.4109846,-89.54944, 1137.471, 2303.655, 0.5189428, 0.4722128, 0.6327053, 0.3277157,-124.7198, 1183.913, 2153.741, 0.1382952, 0.7843297, 0.1158788, 0.5935263,-72.41913, -168.5875, 2322.99, 0.5811971, -0.3487184, 0.3241406, -0.6599533,-3.503189, -232.4273, 2206.123, 0.5811971, -0.3487184, 0.3241406, -0.6599533,-5.228154, -259.7688, 2250.59, 0.8776258, -0.01737911, 0.4757831, -0.05568902,-12.26474, -232.8481, 2365.565, 0.6599532, 0.3241406, 0.3487184, 0.5811971,-43.76624, -254.4189, 2221.156, 0.8776258, -0.01737911, 0.4757831, -0.05568902,-143.9235, -224.4495, 2284.541, 0.5811971, -0.3487184, 0.3241406, -0.6599533,
162411902, -54.58182, 405.6827, 2364.98, 0.5352484, -0.4567163, 0.5286413, -0.4748237,-56.29425, 239.1873, 2345.274, 0.5227811, -0.4702441, 0.5166448, -0.4885166,-57.78772, 105.5917, 2334.458, -0.4916322, 0.4784599, -0.5033611, 0.5253584,-69.80515, -98.0753, 2336.93, 0.532179, -0.4365528, 0.5401092, -0.4842409,-36.27075, -66.53995, 2338.632, 0.7381232, -0.6630982, -0.1198655, 0.03327508,93.91837, -38.58401, 2356.476, -0.4891281, 0.6192291, 0.5124553, -0.3386717,157.6459, 212.2835, 2377.741, 0.0503083, 0.7526677, -0.2820399, -0.5928017,187.7437, 106.7379, 2189.414, 0.5667498, -0.5648479, 0.5989533, 0.03156628,210.5653, 54.44176, 2119.173, 0.5589944, -0.6866471, 0.4542179, -0.09862594,268.2373, -20.09966, 2081.359, 0.5589944, -0.6866471, 0.4542179, -0.09862594,214.1215, 32.83795, 2093.721, 0.637724, -0.1580837, 0.6238586, -0.4232234,-99.33306, -62.28424, 2336.387, 0.6594095, 0.7302338, -0.1497572, -0.09752165,-215.0324, -19.35648, 2329.58, 0.5905122, 0.4842883, -0.3718662, -0.5277081,-259.0864, 240.876, 2348.618, 0.7394267, -0.1090536, -0.6007719, 0.2835992,-284.9761, 119.3765, 2166.159, 0.4764437, 0.710177, 0.4814382, 0.1920084,-336.8702, 38.23064, 2180.882, 0.2998034, -0.2987387, 0.8042943, -0.4171136,-272.8132, 111.1619, 2204.144, 0.2998034, -0.2987387, 0.8042943, -0.4171136,-303.5791, 41.21772, 2269.919, -0.08870951, 0.6505215, 0.5575972, -0.5079743,31.07937, 404.5593, 2367.028, -0.4742298, 0.475534, -0.4816916, 0.5629803,67.93061, 777.8179, 2337.468, 0.6118479, -0.3232417, 0.5947073, -0.4092433,83.1452, 1096.126, 2504.008, 0.5181992, -0.4467685, 0.5393445, -0.490892,93.81679, 1218.12, 2377.511, 0.7175258, 0.06330387, 0.6934507, 0.01659404,-131.8263, 406.6957, 2363.133, 0.4874298, 0.536014, 0.5589595, 0.4033182,-113.1108, 779.6702, 2320.838, 0.4720735, 0.5565882, 0.5384608, 0.4212079,-89.38869, 1141.959, 2306.483, 0.5383548, 0.4514131, 0.6319918, 0.3270883,-119.4952, 1182.191, 2152.488, 0.1526026, 0.7691385, 0.1299369, 0.6068401,-73.82897, -173.8453, 2325.256, 0.6129183, -0.3393182, 0.3257481, -0.6348878,0.961788, -227.4281, 2205.501, 0.6129183, -0.3393182, 0.3257481, -0.6348878,0.4568361, -257.3034, 2248.794, 0.8823321, -0.009595548, 0.4702729, -0.01553476,-9.738647, -236.7299, 2365.701, 0.6348878, 0.3257481, 0.3393183, 0.6129183,-38.26491, -252.8576, 2218.874, 0.8823321, -0.009595548, 0.4702729, -0.01553476,-141.6228, -232.4765, 2282.621, 0.6129183, -0.3393182, 0.3257481, -0.6348878,
162411960, -54.39697, 406.9115, 2365.161, 0.5353572, -0.4565952, 0.5279065, -0.4756345,-56.11066, 240.5045, 2345.687, 0.5235506, -0.4693843, 0.5165682, -0.4886004,-57.60387, 107.0167, 2334.68, -0.4981839, 0.4718701, -0.5028992, 0.525589,-69.53487, -96.53032, 2334.532, 0.5387281, -0.4300213, 0.5391204, -0.4839454,-36.06831, -65.0266, 2337.087, 0.7409964, -0.6576682, -0.1329305, 0.02695142,93.24703, -36.18995, 2358.777, -0.4992958, 0.5992392, 0.5388774, -0.3181624,149.5047, 213.8789, 2399.473, 0.01883259, 0.7692225, -0.2403605, -0.5917507,189.6098, 128.4762, 2203.142, 0.5706334, -0.650919, 0.4591313, 0.1997012,229.6473, 99.58849, 2127.374, 0.5669156, -0.64248, 0.4708676, 0.2100233,277.1754, 62.35384, 2045.808, 0.5669156, -0.64248, 0.4708676, 0.2100233,230.1194, 76.69866, 2103.438, 0.6636712, -0.3057971, 0.6366314, -0.2464329,-99.05157, -60.77106, 2334.001, 0.6543093, 0.7339453, -0.1581942, -0.09043378,-214.359, -17.47424, 2324.828, 0.5563819, 0.518511, -0.3653118, -0.5367801,-255.8307, 240.6572, 2364.533, 0.7483799, -0.0405882, -0.6329763, 0.193962,-283.0593, 165.2847, 2159.023, 0.5222153, 0.8189696, 0.1449346, 0.1886105,-371.6678, 129.8712, 2139.636, 0.2758693, -0.001482691, 0.8316941, -0.4818494,-287.1024, 156.6358, 2185.266, 0.2758693, -0.001482691, 0.8316941, -0.4818494,-334.6349, 117.2603, 2266.615, -0.2096489, 0.7259033, 0.3007461, -0.581948,31.20155, 405.7727, 2367.36, -0.471609, 0.4782967, -0.4809051, 0.5635136,67.91004, 778.5729, 2335.23, 0.6084986, -0.3275296, 0.5939401, -0.4119332,84.04623, 1098.506, 2497.996, 0.5163845, -0.4471674, 0.537107, -0.4948783,95.58144, 1219.295, 2370.59, 0.7190406, 0.06142065, 0.6921357, 0.01249772,-131.5849, 407.9384, 2363.179, 0.4889582, 0.5346212, 0.5603569, 0.4013731,-112.8814, 780.3823, 2318.555, 0.4736599, 0.5552662, 0.5398909, 0.4193371,-89.15343, 1142.324, 2301.938, 0.5372529, 0.4516172, 0.6348478, 0.3230627,-120.4551, 1181.685, 2148.073, 0.154666, 0.7712734, 0.1318086, 0.6031935,-73.34828, -172.104, 2321.9, 0.6016856, -0.3456192, 0.3166747, -0.6467139,0.8039773, -231.1271, 2204.459, 0.6016856, -0.3456192, 0.3166747, -0.6467139,-0.4064366, -259.4527, 2248.725, 0.8827518, -0.02046686, 0.4683126, -0.03183983,-10.62144, -234.6789, 2364.729, 0.6467139, 0.3166747, 0.3456193, 0.6016856,-38.90739, -255.3349, 2218.529, 0.8827518, -0.02046686, 0.4683126, -0.03183983,-142.0215, -230.8758, 2281.062, 0.6016856, -0.3456192, 0.3166747, -0.6467139,
162412032, -51.75597, 407.2342, 2364.466, 0.532928, -0.4599371, 0.5244479, -0.4789573,-53.31794, 240.2875, 2347.055, 0.5197719, -0.4739607, 0.5118096, -0.4932034,-54.71334, 106.3786, 2338.401, -0.4968267, 0.4764929, -0.5086167, 0.5171332,-65.40923, -97.60548, 2336.719, 0.5366971, -0.4341707, 0.5451903, -0.4756255,-32.03206, -65.85506, 2338.885, 0.7452323, -0.6575962, -0.1018278, 0.04274546,99.18907, -39.27297, 2351.738, 0.5847237, -0.5108076, -0.5546914, 0.2991508,152.6601, 199.0288, 2440.937, -0.01535812, 0.730998, -0.1850647, -0.6566256,167.7587, 144.3862, 2230.203, 0.8104882, -0.4442764, 0.3314095, 0.1894599,228.8701, 152.9448, 2163.866, 0.765398, -0.380129, 0.4033804, 0.3270353,275.7044, 172.6632, 2075.81, 0.765398, -0.380129, 0.4033804, 0.3270353,232.4783, 138.782, 2131.943, 0.780194, -0.04716616, 0.6024842, -0.1615102,-95.20528, -61.96536, 2337.085, 0.6537514, 0.7364613, -0.1484072, -0.09060484,-211.4596, -20.25899, 2329.588, 0.5090164, 0.5788027, -0.3911821, -0.5028582,-261.324, 235.3307, 2378.301, 0.7144409, 0.09908172, -0.6915336, 0.03922143,-270.2709, 253.2294, 2158.221, 0.2282759, 0.8146503, 0.3532569, 0.3993052,-318.885, 184.297, 2109.218, 0.4579873, 0.1786755, 0.8697819, 0.04245137,-267.2558, 149.3507, 2187.318, 0.4579873, 0.1786755, 0.8697819, 0.04245137,-281.657, 165.5526, 2255.219, -0.01200871, 0.6060595, 0.5363417, -0.5872693,33.99857, 406.1919, 2366.767, 0.5045259, -0.450951, 0.445623, -0.5861033,65.71177, 780.3441, 2337.029, 0.6603794, -0.2920461, 0.5627151, -0.4024425,50.31057, 1090.001, 2519.951, 0.596082, -0.3805966, 0.534937, -0.46225,70.61994, 1231.744, 2417.162, 0.7523066, 0.1075666, 0.6434916, 0.09155694,-129.0846, 408.1741, 2362.39, 0.5011473, 0.5204953, 0.5502805, 0.4184822,-112.4808, 781.5334, 2318.779, 0.484569, 0.5415384, 0.5295692, 0.4375907,-92.05833, 1144.445, 2304.489, 0.5379589, 0.4600975, 0.6132317, 0.3505102,-116.6909, 1192.713, 2151.638, 0.1357137, 0.7621881, 0.1106014, 0.6232322,-69.01418, -173.2296, 2323.484, 0.5894352, -0.3495818, 0.329296, -0.6495558,0.6482527, -234.0426, 2203.871, 0.5894352, -0.3495818, 0.329296, -0.6495558,-0.1301002, -262.452, 2248.207, 0.8760989, -0.01434427, 0.4800391, -0.04251176,-6.692603, -237.5686, 2364.676, 0.6495559, 0.329296, 0.3495819, 0.5894351,-39.36017, -257.2969, 2218.978, 0.8760989, -0.01434427, 0.4800391, -0.04251176,-140.3361, -230.2725, 2284.326, 0.5894352, -0.3495818, 0.329296, -0.6495558,
162412087, -51.78475, 406.7789, 2364.752, 0.5323278, -0.4609018, 0.5239973, -0.4791905,-53.26172, 239.6959, 2347.71, 0.5195055, -0.4745602, 0.5116602, -0.4930623,-54.57954, 105.7013, 2339.17, 0.5010776, -0.4729649, 0.5103646, -0.5145419,-64.92019, -98.38351, 2334.998, 0.5407266, -0.4305138, 0.5466496, -0.4727017,-31.58743, -66.58656, 2337.673, 0.7485278, -0.6538903, -0.09917323, 0.04794054,99.72629, -39.4733, 2349.216, 0.6030289, -0.4769646, -0.5654696, 0.2985046,147.1472, 194.5199, 2452.56, -0.02103255, 0.7235448, -0.1540587, -0.6725372,157.6104, 152.0186, 2238.64, 0.8157275, -0.3991002, 0.3481275, 0.2326263,213.0688, 168.7674, 2168.913, 0.7632843, -0.3329687, 0.4118319, 0.3700315,252.4307, 198.3313, 2079.893, 0.7632843, -0.3329687, 0.4118319, 0.3700315,213.5477, 153.3491, 2135.707, 0.7552415, -0.03725754, 0.639814, -0.1373323,-94.79659, -62.78035, 2335.679, 0.6503771, 0.7390355, -0.1564343, -0.07977778,-210.9689, -21.30568, 2325.086, 0.4707346, 0.6086888, -0.3902174, -0.5056058,-259.7927, 230.7984, 2390.861, 0.6907897, 0.1228211, -0.7125213, 0.006162784,-256.3766, 267.6167, 2172.859, 0.1953773, 0.8390266, 0.2968467, 0.4120001,-309.754, 208.8861, 2116.036, 0.4408441, -0.1379341, 0.8792371, -0.1165025,-252.4339, 243.4097, 2190.335, 0.4408441, -0.1379341, 0.8792371, -0.1165025,-291.0609, 185.236, 2270.941, 0.005510374, 0.6919782, 0.4584677, -0.5576228,34.02188, 405.7928, 2366.983, -0.4883994, 0.4793645, -0.4618728, 0.5642244,57.89818, 780.3978, 2333.146, 0.6441572, -0.3050454, 0.591665, -0.376751,52.14151, 1085.24, 2524.909, 0.5916719, -0.3830839, 0.5639408, -0.4302813,63.78523, 1232.742, 2428.925, 0.7267728, 0.1263532, 0.6659658, 0.1110211,-129.1604, 407.6681, 2362.74, 0.5010951, 0.5204504, 0.551783, 0.4166181,-112.6217, 781.0934, 2317.813, 0.484593, 0.5415473, 0.5310768, 0.435722,-92.16343, 1144.161, 2302.24, 0.5356829, 0.4630377, 0.612855, 0.3507829,-117.3506, 1193.403, 2149.691, 0.1338919, 0.764002, 0.108274, 0.6218125,-68.34583, -173.8929, 2320.835, 0.5837967, -0.3479088, 0.3316356, -0.6543384,0.2768114, -236.0758, 2201.214, 0.5837967, -0.3479088, 0.3316356, -0.6543384,-0.905104, -264.394, 2245.636, 0.8754937, -0.0115069, 0.4805104, -0.04988053,-6.966613, -239.1547, 2362.126, 0.6543384, 0.3316356, 0.3479088, 0.5837966,-40.10038, -258.6808, 2216.416, 0.8754937, -0.0115069, 0.4805104, -0.04988053,-140.6342, -229.9223, 2281.841, 0.5837967, -0.3479088, 0.3316356, -0.6543384,
162412171, -52.19541, 407.5851, 2366.259, 0.5385924, -0.453851, 0.5230203, -0.4799865,-53.62144, 240.8799, 2347.292, 0.5234868, -0.4698129, 0.5087306, -0.4964176,-55.02675, 107.0436, 2338.421, 0.5059676, -0.4721639, 0.513078, -0.5077489,-63.65197, -96.82893, 2331.195, 0.545056, -0.4294978, 0.5492899, -0.4655384,-30.61294, -64.82692, 2334.24, 0.7544966, -0.645488, -0.1137568, 0.03375674,100.0448, -38.2345, 2351.459, 0.650474, -0.4769619, -0.4910887, 0.3289722,178.3297, 194.7441, 2435.942, 0.154546, -0.6818824, 0.06080442, 0.7123585,173.4645, 224.6851, 2219.93, 0.7830284, -0.2223661, 0.555872, -0.1686002,206.8787, 185.373, 2145.503, 0.8004104, -0.1224458, 0.586044, -0.03004559,238.5139, 165.9006, 2050.913, 0.8004104, -0.1224458, 0.586044, -0.03004559,155.0021, 158.6149, 2133.592, 0.4390646, 0.07507639, 0.6498415, -0.6158668,-93.79449, -61.5305, 2332.513, 0.6440529, 0.7486451, -0.1298108, -0.08874374,-211.3609, -23.35263, 2328.266, 0.4363445, 0.6533608, -0.384465, -0.4846749,-273.4733, 221.6926, 2407.131, 0.6520861, 0.1622156, -0.7405266, -0.009491398,-252.0601, 277.4963, 2194.479, 0.1146953, 0.7028285, 0.469416, 0.5220399,-261.2322, 203.6377, 2131.48, 0.5343228, -0.2878124, 0.7946592, 0.01341202,-234.9289, 247.8975, 2217.077, 0.5343228, -0.2878124, 0.7946592, 0.01341202,-261.7008, 184.0594, 2288.049, 0.1807824, 0.611877, 0.6077126, -0.472874,33.47984, 406.4528, 2369.77, -0.4683585, 0.4963875, -0.4614316, 0.5668514,59.26274, 778.8469, 2320.626, 0.6230713, -0.3258443, 0.5942653, -0.3904567,63.29831, 1093.276, 2495.531, 0.5744753, -0.3954911, 0.567248, -0.4379437,73.96736, 1237.175, 2394.428, 0.7200367, 0.1197828, 0.6770942, 0.09350166,-129.4526, 408.6061, 2363.094, 0.5038828, 0.5184762, 0.5495379, 0.4186797,-112.366, 781.6143, 2318.091, 0.4877304, 0.5389649, 0.5294425, 0.4374089,-91.73909, 1144.27, 2301.745, 0.5164885, 0.4907864, 0.6010048, 0.3621623,-118.8136, 1204.455, 2153.685, 0.1120865, 0.7753245, 0.0804465, 0.6163091,-66.48611, -172.0655, 2315.915, 0.5711638, -0.365746, 0.3348721, -0.654112,-2.635598, -237.6539, 2195.665, 0.5711638, -0.365746, 0.3348721, -0.654112,-2.406217, -264.8112, 2240.759, 0.8664008, -0.02183111, 0.4954118, -0.05865327,-4.141871, -236.6412, 2356.597, 0.654112, 0.3348721, 0.3657459, 0.5711637,-42.54367, -259.5592, 2212.844, 0.8664008, -0.02183111, 0.4954118, -0.05865327,-140.3951, -228.4818, 2280.984, 0.5711638, -0.365746, 0.3348721, -0.654112,
162412235, -50.22062, 409.3568, 2368.387, 0.5390116, -0.4503552, 0.5216069, -0.4843273,-52.59069, 241.9155, 2349.615, 0.5218653, -0.4681994, 0.505651, -0.5027555,-54.86658, 107.4401, 2341.944, 0.5139192, -0.4648125, 0.5109447, -0.5086965,-63.04437, -97.22003, 2332.112, 0.553058, -0.4223411, 0.5465739, -0.4658453,-29.98099, -65.07009, 2336.168, 0.7560217, -0.6432674, -0.1119267, 0.04594239,101.0869, -36.24796, 2351.039, 0.6422132, -0.4532188, -0.4940944, 0.3715183,162.6042, 205.1999, 2428.786, 0.130542, -0.6699128, 0.02744703, 0.7303577,147.6306, 238.9167, 2212.846, 0.6820753, -0.2935365, 0.663069, -0.09460006,159.0959, 199.0268, 2131.919, 0.68813, -0.1736525, 0.7040375, 0.02555571,159.8467, 177.6613, 2032.124, 0.68813, -0.1736525, 0.7040375, 0.02555571,118.4724, 156.8858, 2137.546, -0.4044608, 0.03578901, -0.5983984, 0.690688,-93.39584, -61.83294, 2333.288, 0.639891, 0.7525392, -0.1390298, -0.06996436,-211.5916, -24.71915, 2324.267, 0.4225347, 0.6594831, -0.4362664, -0.4429652,-271.937, 227.8665, 2381.6, 0.6085939, 0.05467416, -0.7888328, 0.06608414,-215.7562, 229.1577, 2166.995, -0.02157114, 0.1378396, 0.8751647, 0.4632729,-124.1716, 199.9184, 2148.362, -0.4524892, 0.8379344, -0.2877134, -0.1016883,-205.8059, 239.0565, 2191.577, -0.4524892, 0.8379344, -0.2877134, -0.1016883,-199.4953, 189.3205, 2292.074, 0.6796518, 0.2391405, 0.6743589, -0.161633,35.77665, 407.6547, 2372.712, -0.4916758, 0.4767177, -0.4212393, 0.5946029,59.21659, 780.6079, 2314.977, 0.6703418, -0.2967786, 0.562701, -0.3820105,32.16042, 1086.38, 2505.656, 0.584748, -0.3989354, 0.4954337, -0.5034539,59.34891, 1216.172, 2388.505, 0.7732221, 0.06650618, 0.6282727, 0.05457041,-127.7681, 410.8917, 2364.488, 0.509064, 0.5111318, 0.5480441, 0.4233744,-112.356, 785.3195, 2317.206, 0.4912295, 0.5333551, 0.5264244, 0.4439633,-93.53214, 1149.656, 2301.281, 0.5191082, 0.4707499, 0.6344475, 0.3261867,-129.5322, 1195.88, 2149.39, 0.1395027, 0.7845123, 0.1181389, 0.5925561,-65.47548, -172.597, 2315.826, 0.5834338, -0.3717854, 0.3266338, -0.6439651,1.369685, -236.2266, 2195.335, 0.5834338, -0.3717854, 0.3266338, -0.6439651,2.522249, -263.3881, 2240.676, 0.8679021, -0.03192701, 0.4938569, -0.04280203,-0.558652, -234.9665, 2356.951, 0.6439651, 0.3266338, 0.3717854, 0.5834339,-37.89198, -259.6896, 2212.539, 0.8679021, -0.03192701, 0.4938569, -0.04280203,-137.4303, -232.0794, 2280.688, 0.5834338, -0.3717854, 0.3266338, -0.6439651,
162412292, -52.09715, 403.2815, 2369.926, 0.5364714, -0.45366, 0.5201365, -0.4856429,-54.36798, 236.0625, 2352.648, 0.5184715, -0.4722594, 0.5033095, -0.5048146,-56.56135, 101.8095, 2346.593, 0.5098221, -0.4742011, 0.5163348, -0.4986112,-62.80356, -102.4407, 2336.514, 0.5481654, -0.4312674, 0.5526996, -0.4561211,-30.05938, -70.01773, 2339.695, 0.7601142, -0.6429157, -0.08406509, 0.04264953,102.2609, -46.72151, 2349.523, 0.6890188, -0.3894504, -0.4216501, 0.4424847,168.104, 197.5979, 2411.085, 0.1453383, -0.5739828, -0.002055991, 0.8058637,102.7861, 249.313, 2209.015, 0.5623899, -0.3725153, 0.7026601, 0.2263155,91.63402, 232.6133, 2120.521, 0.5524047, -0.3427218, 0.7176633, 0.2497,75.87301, 210.6138, 2022.356, 0.5524047, -0.3427218, 0.7176633, 0.2497,66.7715, 197.5435, 2112.813, 0.3968804, -0.2151471, 0.8320013, -0.3224461,-93.41774, -67.46603, 2338.641, 0.6412919, 0.7557485, -0.1088863, -0.07571394,-212.9899, -35.03423, 2335.516, 0.4825053, 0.5963042, -0.5158968, -0.3813927,-259.8975, 225.8815, 2324.108, 0.6110742, 0.05915131, -0.7862756, 0.06971447,-205.409, 227.6117, 2109.59, 0.02589051, 0.250411, 0.831976, 0.4944086,-124.4498, 177.9359, 2086.692, -0.4801736, 0.7215994, -0.4839257, -0.1205969,-174.7493, 236.2467, 2150.627, -0.4801736, 0.7215994, -0.4839257, -0.1205969,-177.0055, 195.011, 2235.383, 0.5943115, 0.2402821, 0.6969303, -0.3214755,33.7193, 401.6962, 2373.991, 0.501113, -0.4648886, 0.4050239, -0.6072232,58.44093, 773.3611, 2314.135, 0.6820452, -0.2936583, 0.542161, -0.3932437,21.36154, 1081.573, 2497.51, 0.6043989, -0.3853549, 0.487513, -0.4985325,50.47596, 1214.847, 2385.448, 0.783608, 0.07065631, 0.6130238, 0.07188891,-129.4816, 404.7111, 2366.261, 0.5233887, 0.4993997, 0.5388123, 0.4316775,-111.893, 777.8146, 2316.193, 0.5061753, 0.5201334, 0.5188075, 0.4517592,-92.39905, 1141.077, 2296.057, 0.5254959, 0.4789061, 0.610929, 0.3482367,-120.3767, 1194.559, 2145.259, 0.1283786, 0.7738586, 0.0957633, 0.6127734,-64.88558, -177.6329, 2320.154, 0.5981326, -0.3587334, 0.3503979, -0.6251153,0.7903427, -231.657, 2194.859, 0.5981326, -0.3587334, 0.3503979, -0.6251153,3.040802, -261.7896, 2238.093, 0.8649669, -0.005894087, 0.5014315, -0.01907963,1.401912, -241.5458, 2355.82, 0.6251152, 0.3503979, 0.3587334, 0.5981326,-37.7694, -256.7888, 2210.943, 0.8649669, -0.005894087, 0.5014315, -0.01907963,-136.3738, -235.5107, 2282.142, 0.5981326, -0.3587334, 0.3503979, -0.6251153,
162412365, -49.78705, 393.8976, 2368.626, 0.5393739, -0.4582107, 0.5188861, -0.4794537,-49.59674, 228.7639, 2351.074, 0.5154894, -0.4828338, 0.496056, -0.5050454,-49.90028, 96.04141, 2347.932, 0.5104926, -0.464731, 0.5226871, -0.5002205,-59.38869, -105.4022, 2334.918, 0.5489628, -0.4213183, 0.5582721, -0.4576714,-26.53151, -73.9754, 2338.703, 0.765461, -0.6361163, -0.0951262, 0.0194015,104.0234, -53.91947, 2354.797, 0.7337245, -0.3341133, -0.3722022, 0.459872,181.1825, 183.6422, 2416.245, 0.1125129, -0.4997384, 0.02067893, 0.8585888,78.58973, 220.8914, 2229.976, 0.6666651, -0.1585245, 0.7175077, 0.1249413,74.14648, 223.664, 2140.497, 0.6782373, -0.2811407, 0.6789016, 0.006847863,82.00091, 186.2037, 2047.485, 0.6782373, -0.2811407, 0.6789016, 0.006847863,33.55206, 180.2925, 2136.535, 0.3461688, -0.05867385, 0.8092275, -0.4710364,-89.05598, -70.38786, 2337.385, 0.6370526, 0.7584948, -0.125316, -0.05608352,-206.854, -38.36964, 2328.254, 0.3659775, 0.6987575, -0.4474481, -0.4214126,-270.9101, 206.364, 2396.77, 0.5578298, 0.1479508, -0.8164451, -0.01881594,-197.9173, 263.7704, 2198.848, 0.00380394, 0.533593, 0.4881746, 0.6906154,-163.5678, 213.2786, 2124.118, 0.6371513, -0.2407482, 0.681965, 0.2664625,-156.4342, 212.1723, 2222.717, 0.6371513, -0.2407482, 0.681965, 0.2664625,-108.3432, 190.4653, 2196.279, -0.04600826, 0.05886647, 0.9888927, -0.1284882,35.01314, 393.6201, 2372.157, -0.477748, 0.4973083, -0.4390732, 0.5758957,53.22868, 761.4074, 2315.045, 0.6514719, -0.3084836, 0.5873213, -0.3680705,39.28423, 1061.245, 2506.699, 0.6532807, -0.2940499, 0.6364499, -0.2858151,36.50463, 1232.234, 2472.592, 0.668593, 0.2414404, 0.6549888, 0.2562805,-126.2551, 394.1479, 2365.442, 0.5069709, 0.5109491, 0.5557576, 0.4159869,-112.7887, 762.5588, 2313.921, 0.4922437, 0.5300406, 0.5375624, 0.4333359,-96.0568, 1121.166, 2288.783, 0.4708841, 0.5555508, 0.5222787, 0.4436852,-111.6325, 1218.331, 2162.067, 0.02170438, 0.7660115, -0.02052615, 0.6421323,-62.60209, -179.3783, 2317.635, 0.6119959, -0.343847, 0.3491367, -0.6207526,6.236658, -228.2548, 2194.167, 0.6119959, -0.343847, 0.3491367, -0.6207526,7.725671, -259.2304, 2236.033, 0.8716848, 0.003740377, 0.4900136, -0.006191977,2.756819, -242.6844, 2352.763, 0.6207526, 0.3491367, 0.343847, 0.6119958,-31.92191, -254.014, 2208.296, 0.8716848, 0.003740377, 0.4900136, -0.006191977,-131.421, -236.3055, 2276.56, 0.6119959, -0.343847, 0.3491367, -0.6207526,
162412429, -48.21775, 392.5388, 2370.721, 0.5433252, -0.456722, 0.5197818, -0.4754258,-47.06573, 228.5014, 2351.581, 0.5141848, -0.4867332, 0.4917916, -0.5067997,-46.72399, 96.47913, 2349.951, 0.5129209, -0.4640838, 0.5245075, -0.4964176,-55.40099, -103.7763, 2335.283, 0.5510783, -0.4205271, 0.5600345, -0.453686,-22.83871, -72.42677, 2339.249, 0.7685177, -0.6325722, -0.09452973, 0.01723605,107.052, -53.09456, 2355.591, 0.7296365, -0.3174929, -0.3319134, 0.5066186,175.1868, 189.9451, 2397.201, 0.07000197, -0.4579381, 0.03550983, 0.885512,52.63408, 209.5808, 2222, 0.6679869, -0.05764578, 0.733411, 0.1121548,46.00143, 223.275, 2134.168, 0.6756894, -0.2276062, 0.6995786, -0.04721253,47.67405, 185.0383, 2041.751, 0.6756894, -0.2276062, 0.6995786, -0.04721253,4.592828, 201.3764, 2119.946, 0.3173144, 0.08366453, 0.8591625, -0.3926214,-85.03699, -69.09344, 2338.104, 0.6341859, 0.7609522, -0.1258806, -0.05398109,-202.2115, -37.43481, 2328.668, 0.3335315, 0.7251887, -0.4661251, -0.3815565,-273.7053, 205.1265, 2391.869, 0.5067778, 0.1300973, -0.8522006, -0.002241513,-175.3192, 253.8323, 2204.192, 0.05478877, 0.5522525, 0.4624547, 0.6914847,-145.4416, 198.5769, 2131.624, 0.6533783, -0.1960336, 0.6931217, 0.2329157,-138.6245, 195.3703, 2229.656, 0.6533783, -0.1960336, 0.6931217, 0.2329157,-88.9926, 194.0466, 2210.759, -0.01517157, -0.0013821, 0.9598985, -0.2799337,36.11512, 392.7129, 2374.305, -0.4763584, 0.5004755, -0.4422975, 0.5718217,52.87145, 758.6806, 2318.352, 0.6506957, -0.3070765, 0.5931392, -0.361227,40.33287, 1054.199, 2513.17, 0.657917, -0.2736587, 0.6546691, -0.252318,35.20281, 1226.424, 2493.472, 0.6482646, 0.2688985, 0.6536581, 0.2831565,-124.2644, 392.3819, 2367.489, 0.5038416, 0.5118939, 0.5585468, 0.4148901,-112.4982, 758.8476, 2316.372, 0.4886762, 0.5316795, 0.5397293, 0.4326717,-97.11726, 1115.606, 2292.241, 0.4560609, 0.5697428, 0.5045208, 0.4613678,-111.1102, 1220.184, 2172.547, -0.001404338, 0.7635933, -0.04299286, 0.644263,-58.34556, -177.2068, 2317.462, 0.6027448, -0.3442312, 0.3456241, -0.6314645,9.587229, -229.5914, 2195.936, 0.6027448, -0.3442312, 0.3456241, -0.6314645,10.20302, -259.6374, 2238.145, 0.8727178, 0.0009849264, 0.4878014, -0.02030795,5.09869, -240.9073, 2353.883, 0.6314645, 0.3456241, 0.3442312, 0.6027448,-28.97877, -254.106, 2210.274, 0.8727178, 0.0009849264, 0.4878014, -0.02030795,-127.8284, -233.0669, 2277.335, 0.6027448, -0.3442312, 0.3456241, -0.6314645,
162412497, -48.46873, 391.612, 2371.234, 0.5415993, -0.4622972, 0.5204241, -0.4712858,-46.22236, 228.2635, 2352.604, 0.5154784, -0.489608, 0.494817, -0.4997221,-44.79397, 96.85154, 2349.875, 0.5192835, -0.4639642, 0.5178972, -0.4968545,-50.86008, -102.6189, 2335.368, 0.5574555, -0.420938, 0.5534359, -0.4536112,-18.87319, -71.02146, 2339.735, 0.7674901, -0.6327757, -0.1012275, 0.01751741,110.0942, -50.60083, 2357.285, 0.739426, -0.2812019, -0.3014655, 0.532253,174.1854, 193.0469, 2394.592, -0.004528441, -0.4086869, 0.054138, 0.9110563,31.84196, 181.8241, 2235.516, 0.6621916, -0.145835, 0.7120669, 0.1821952,25.20801, 192.9805, 2147.725, 0.6693136, -0.1758607, 0.7052518, 0.1539874,21.00703, 188.8058, 2048.316, 0.6693136, -0.1758607, 0.7052518, 0.1539874,21.88746, 188.0777, 2112.703, 0.4884658, 0.1916555, 0.7892023, -0.3191068,-80.80905, -68.44011, 2337.727, 0.6335397, 0.7628562, -0.1187982, -0.0506449,-197.9693, -38.69408, 2328.848, 0.2954545, 0.7425622, -0.5378591, -0.2683571,-269.951, 209.7432, 2349.795, -0.3983496, -0.1313962, 0.9074283, -0.0250305,-129.6595, 257.0456, 2191.879, 0.05446417, 0.2659238, 0.7076461, 0.6523459,-52.54288, 210.0128, 2160.708, 0.5251359, -0.3545894, 0.6676413, 0.3908373,-33.25962, 216.1788, 2256.478, 0.5251359, -0.3545894, 0.6676413, 0.3908373,-24.90251, 198.6847, 2221.004, 0.02753928, 0.0316155, 0.9966561, -0.07013392,35.52214, 392.4711, 2373.829, -0.4733312, 0.5028348, -0.4439703, 0.5709686,52.57885, 756.6335, 2317.041, 0.6489832, -0.3063254, 0.5967619, -0.3589717,41.99032, 1049.843, 2512.617, 0.643073, -0.2992045, 0.6525419, -0.2666884,34.94287, 1219.726, 2482.613, 0.6479563, 0.2491603, 0.6701548, 0.2626108,-124.207, 390.8374, 2368.894, 0.5088568, 0.5072809, 0.5579686, 0.4152131,-112.2146, 755.2195, 2314.865, 0.4929456, 0.5279571, 0.5384273, 0.4340069,-96.72604, 1110.262, 2289.012, 0.4649187, 0.5614459, 0.5199571, 0.4452795,-112.8943, 1208.48, 2165.214, 0.01631237, 0.7685437, -0.02629459, 0.6390486,-52.67512, -175.7699, 2317.665, 0.5878943, -0.3684181, 0.3470459, -0.6310369,9.621676, -232.6124, 2195.927, 0.5878943, -0.3684181, 0.3470459, -0.6310369,11.98396, -260.9423, 2238.972, 0.8619145, -0.01511243, 0.5059094, -0.03050634,11.87598, -238.0025, 2353.533, 0.6310368, 0.3470459, 0.3684181, 0.5878944,-28.168, -256.3434, 2212.731, 0.8619145, -0.01511243, 0.5059094, -0.03050634,-123.5929, -232.6027, 2282.813, 0.5878943, -0.3684181, 0.3470459, -0.6310369,
